  0
SECTION
  2
BLOCKS
  0
ENDSEC
  0
SECTION
  2
ENTITIES
  0
LINE
  8
0
 10
78.75
 20
47.5
 11
90.625
 21
47.5
  0
LINE
  8
0
 10
90.625
 20
47.5
 11
90.625
 21
44.5
  0
LINE
  8
0
 10
90.625
 20
44.5
 11
102.5
 21
44.5
  0
LINE
  8
0
 10
102.5
 20
44.5
 11
102.5
 21
47.5
  0
LINE
  8
0
 10
102.5
 20
47.5
 11
114.375
 21
47.5
  0
LINE
  8
0
 10
114.375
 20
47.5
 11
114.375
 21
44.5
  0
LINE
  8
0
 10
114.375
 20
44.5
 11
126.25
 21
44.5
  0
LINE
  8
0
 10
126.25
 20
44.5
 11
126.25
 21
47.5
  0
LINE
  8
0
 10
126.25
 20
47.5
 11
138.125
 21
47.5
  0
LINE
  8
0
 10
138.125
 20
47.5
 11
138.125
 21
44.5
  0
LINE
  8
0
 10
138.125
 20
44.5
 11
150
 21
44.5
  0
LINE
  8
0
 10
150
 20
44.5
 11
150
 21
59.375
  0
LINE
  8
0
 10
150
 20
59.375
 11
153
 21
59.375
  0
LINE
  8
0
 10
153
 20
59.375
 11
153
 21
71.25
  0
LINE
  8
0
 10
153
 20
71.25
 11
150
 21
71.25
  0
LINE
  8
0
 10
150
 20
71.25
 11
150
 21
83.125
  0
LINE
  8
0
 10
150
 20
83.125
 11
153
 21
83.125
  0
LINE
  8
0
 10
153
 20
83.125
 11
153
 21
95
  0
LINE
  8
0
 10
153
 20
95
 11
150
 21
95
  0
LINE
  8
0
 10
150
 20
95
 11
150
 21
106.875
  0
LINE
  8
0
 10
150
 20
106.875
 11
153
 21
106.875
  0
LINE
  8
0
 10
153
 20
106.875
 11
153
 21
118.75
  0
LINE
  8
0
 10
153
 20
118.75
 11
150
 21
118.75
  0
LINE
  8
0
 10
150
 20
118.75
 11
150
 21
130.625
  0
LINE
  8
0
 10
150
 20
130.625
 11
153
 21
130.625
  0
LINE
  8
0
 10
153
 20
130.625
 11
153
 21
142.5
  0
LINE
  8
0
 10
153
 20
142.5
 11
55
 21
142.5
  0
LINE
  8
0
 10
55
 20
142.5
 11
55
 21
130.625
  0
LINE
  8
0
 10
55
 20
130.625
 11
52
 21
130.625
  0
LINE
  8
0
 10
52
 20
130.625
 11
52
 21
118.75
  0
LINE
  8
0
 10
52
 20
118.75
 11
55
 21
118.75
  0
LINE
  8
0
 10
55
 20
118.75
 11
55
 21
106.875
  0
LINE
  8
0
 10
55
 20
106.875
 11
52
 21
106.875
  0
LINE
  8
0
 10
52
 20
106.875
 11
52
 21
95
  0
LINE
  8
0
 10
52
 20
95
 11
55
 21
95
  0
LINE
  8
0
 10
55
 20
95
 11
55
 21
83.125
  0
LINE
  8
0
 10
55
 20
83.125
 11
52
 21
83.125
  0
LINE
  8
0
 10
52
 20
83.125
 11
52
 21
71.25
  0
LINE
  8
0
 10
52
 20
71.25
 11
55
 21
71.25
  0
LINE
  8
0
 10
55
 20
71.25
 11
55
 21
59.375
  0
LINE
  8
0
 10
55
 20
59.375
 11
52
 21
59.375
  0
LINE
  8
0
 10
52
 20
59.375
 11
52
 21
47.5
  0
LINE
  8
0
 10
52
 20
47.5
 11
66.875
 21
47.5
  0
LINE
  8
0
 10
66.875
 20
47.5
 11
66.875
 21
44.5
  0
LINE
  8
0
 10
66.875
 20
44.5
 11
78.75
 21
44.5
  0
LINE
  8
0
 10
78.75
 20
44.5
 11
78.75
 21
47.5
  0
LINE
  8
0
 10
-23.75
 20
47.5
 11
-11.875
 21
47.5
  0
LINE
  8
0
 10
-11.875
 20
47.5
 11
-11.875
 21
44.5
  0
LINE
  8
0
 10
-11.875
 20
44.5
 11
0
 21
44.5
  0
LINE
  8
0
 10
0
 20
44.5
 11
0
 21
47.5
  0
LINE
  8
0
 10
0
 20
47.5
 11
11.875
 21
47.5
  0
LINE
  8
0
 10
11.875
 20
47.5
 11
11.875
 21
44.5
  0
LINE
  8
0
 10
11.875
 20
44.5
 11
23.75
 21
44.5
  0
LINE
  8
0
 10
23.75
 20
44.5
 11
23.75
 21
47.5
  0
LINE
  8
0
 10
23.75
 20
47.5
 11
35.625
 21
47.5
  0
LINE
  8
0
 10
35.625
 20
47.5
 11
35.625
 21
44.5
  0
LINE
  8
0
 10
35.625
 20
44.5
 11
47.5
 21
44.5
  0
LINE
  8
0
 10
47.5
 20
44.5
 11
47.5
 21
59.375
  0
LINE
  8
0
 10
47.5
 20
59.375
 11
50.5
 21
59.375
  0
LINE
  8
0
 10
50.5
 20
59.375
 11
50.5
 21
71.25
  0
LINE
  8
0
 10
50.5
 20
71.25
 11
47.5
 21
71.25
  0
LINE
  8
0
 10
47.5
 20
71.25
 11
47.5
 21
83.125
  0
LINE
  8
0
 10
47.5
 20
83.125
 11
50.5
 21
83.125
  0
LINE
  8
0
 10
50.5
 20
83.125
 11
50.5
 21
95
  0
LINE
  8
0
 10
50.5
 20
95
 11
47.5
 21
95
  0
LINE
  8
0
 10
47.5
 20
95
 11
47.5
 21
106.875
  0
LINE
  8
0
 10
47.5
 20
106.875
 11
50.5
 21
106.875
  0
LINE
  8
0
 10
50.5
 20
106.875
 11
50.5
 21
118.75
  0
LINE
  8
0
 10
50.5
 20
118.75
 11
47.5
 21
118.75
  0
LINE
  8
0
 10
47.5
 20
118.75
 11
47.5
 21
130.625
  0
LINE
  8
0
 10
47.5
 20
130.625
 11
50.5
 21
130.625
  0
LINE
  8
0
 10
50.5
 20
130.625
 11
50.5
 21
142.5
  0
LINE
  8
0
 10
50.5
 20
142.5
 11
-47.5
 21
142.5
  0
LINE
  8
0
 10
-47.5
 20
142.5
 11
-47.5
 21
130.625
  0
LINE
  8
0
 10
-47.5
 20
130.625
 11
-50.5
 21
130.625
  0
LINE
  8
0
 10
-50.5
 20
130.625
 11
-50.5
 21
118.75
  0
LINE
  8
0
 10
-50.5
 20
118.75
 11
-47.5
 21
118.75
  0
LINE
  8
0
 10
-47.5
 20
118.75
 11
-47.5
 21
106.875
  0
LINE
  8
0
 10
-47.5
 20
106.875
 11
-50.5
 21
106.875
  0
LINE
  8
0
 10
-50.5
 20
106.875
 11
-50.5
 21
95
  0
LINE
  8
0
 10
-50.5
 20
95
 11
-47.5
 21
95
  0
LINE
  8
0
 10
-47.5
 20
95
 11
-47.5
 21
83.125
  0
LINE
  8
0
 10
-47.5
 20
83.125
 11
-50.5
 21
83.125
  0
LINE
  8
0
 10
-50.5
 20
83.125
 11
-50.5
 21
71.25
  0
LINE
  8
0
 10
-50.5
 20
71.25
 11
-47.5
 21
71.25
  0
LINE
  8
0
 10
-47.5
 20
71.25
 11
-47.5
 21
59.375
  0
LINE
  8
0
 10
-47.5
 20
59.375
 11
-50.5
 21
59.375
  0
LINE
  8
0
 10
-50.5
 20
59.375
 11
-50.5
 21
47.5
  0
LINE
  8
0
 10
-50.5
 20
47.5
 11
-35.625
 21
47.5
  0
LINE
  8
0
 10
-35.625
 20
47.5
 11
-35.625
 21
44.5
  0
LINE
  8
0
 10
-35.625
 20
44.5
 11
-23.75
 21
44.5
  0
LINE
  8
0
 10
-23.75
 20
44.5
 11
-23.75
 21
47.5
  0
LINE
  8
0
 10
-23.75
 20
-40
 11
-11.875
 21
-40
  0
LINE
  8
0
 10
-11.875
 20
-40
 11
-11.875
 21
-43
  0
LINE
  8
0
 10
-11.875
 20
-43
 11
0
 21
-43
  0
LINE
  8
0
 10
0
 20
-43
 11
0
 21
-40
  0
LINE
  8
0
 10
0
 20
-40
 11
11.875
 21
-40
  0
LINE
  8
0
 10
11.875
 20
-40
 11
11.875
 21
-43
  0
LINE
  8
0
 10
11.875
 20
-43
 11
23.75
 21
-43
  0
LINE
  8
0
 10
23.75
 20
-43
 11
23.75
 21
-40
  0
LINE
  8
0
 10
23.75
 20
-40
 11
35.625
 21
-40
  0
LINE
  8
0
 10
35.625
 20
-40
 11
35.625
 21
-43
  0
LINE
  8
0
 10
35.625
 20
-43
 11
47.5
 21
-43
  0
LINE
  8
0
 10
47.5
 20
-43
 11
47.5
 21
-30
  0
LINE
  8
0
 10
47.5
 20
-30
 11
50.5
 21
-30
  0
LINE
  8
0
 10
50.5
 20
-30
 11
50.5
 21
-20
  0
LINE
  8
0
 10
50.5
 20
-20
 11
47.5
 21
-20
  0
LINE
  8
0
 10
47.5
 20
-20
 11
47.5
 21
-10
  0
LINE
  8
0
 10
47.5
 20
-10
 11
50.5
 21
-10
  0
LINE
  8
0
 10
50.5
 20
-10
 11
50.5
 21
0
  0
LINE
  8
0
 10
50.5
 20
0
 11
47.5
 21
0
  0
LINE
  8
0
 10
47.5
 20
0
 11
47.5
 21
10
  0
LINE
  8
0
 10
47.5
 20
10
 11
50.5
 21
10
  0
LINE
  8
0
 10
50.5
 20
10
 11
50.5
 21
20
  0
LINE
  8
0
 10
50.5
 20
20
 11
47.5
 21
20
  0
LINE
  8
0
 10
47.5
 20
20
 11
47.5
 21
30
  0
LINE
  8
0
 10
47.5
 20
30
 11
50.5
 21
30
  0
LINE
  8
0
 10
50.5
 20
30
 11
50.5
 21
40
  0
LINE
  8
0
 10
50.5
 20
40
 11
35.625
 21
40
  0
LINE
  8
0
 10
35.625
 20
40
 11
35.625
 21
43
  0
LINE
  8
0
 10
35.625
 20
43
 11
23.75
 21
43
  0
LINE
  8
0
 10
23.75
 20
43
 11
23.75
 21
40
  0
LINE
  8
0
 10
23.75
 20
40
 11
11.875
 21
40
  0
LINE
  8
0
 10
11.875
 20
40
 11
11.875
 21
43
  0
LINE
  8
0
 10
11.875
 20
43
 11
0
 21
43
  0
LINE
  8
0
 10
0
 20
43
 11
0
 21
40
  0
LINE
  8
0
 10
0
 20
40
 11
-11.875
 21
40
  0
LINE
  8
0
 10
-11.875
 20
40
 11
-11.875
 21
43
  0
LINE
  8
0
 10
-11.875
 20
43
 11
-23.75
 21
43
  0
LINE
  8
0
 10
-23.75
 20
43
 11
-23.75
 21
40
  0
LINE
  8
0
 10
-23.75
 20
40
 11
-35.625
 21
40
  0
LINE
  8
0
 10
-35.625
 20
40
 11
-35.625
 21
43
  0
LINE
  8
0
 10
-35.625
 20
43
 11
-47.5
 21
43
  0
LINE
  8
0
 10
-47.5
 20
43
 11
-47.5
 21
30
  0
LINE
  8
0
 10
-47.5
 20
30
 11
-50.5
 21
30
  0
LINE
  8
0
 10
-50.5
 20
30
 11
-50.5
 21
20
  0
LINE
  8
0
 10
-50.5
 20
20
 11
-47.5
 21
20
  0
LINE
  8
0
 10
-47.5
 20
20
 11
-47.5
 21
10
  0
LINE
  8
0
 10
-47.5
 20
10
 11
-50.5
 21
10
  0
LINE
  8
0
 10
-50.5
 20
10
 11
-50.5
 21
0
  0
LINE
  8
0
 10
-50.5
 20
0
 11
-47.5
 21
0
  0
LINE
  8
0
 10
-47.5
 20
0
 11
-47.5
 21
-10
  0
LINE
  8
0
 10
-47.5
 20
-10
 11
-50.5
 21
-10
  0
LINE
  8
0
 10
-50.5
 20
-10
 11
-50.5
 21
-20
  0
LINE
  8
0
 10
-50.5
 20
-20
 11
-47.5
 21
-20
  0
LINE
  8
0
 10
-47.5
 20
-20
 11
-47.5
 21
-30
  0
LINE
  8
0
 10
-47.5
 20
-30
 11
-50.5
 21
-30
  0
LINE
  8
0
 10
-50.5
 20
-30
 11
-50.5
 21
-40
  0
LINE
  8
0
 10
-50.5
 20
-40
 11
-35.625
 21
-40
  0
LINE
  8
0
 10
-35.625
 20
-40
 11
-35.625
 21
-43
  0
LINE
  8
0
 10
-35.625
 20
-43
 11
-23.75
 21
-43
  0
LINE
  8
0
 10
-23.75
 20
-43
 11
-23.75
 21
-40
  0
LINE
  8
0
 10
157.5
 20
40
 11
62.5
 21
40
  0
LINE
  8
0
 10
62.5
 20
40
 11
62.5
 21
-40
  0
LINE
  8
0
 10
62.5
 20
-40
 11
157.5
 21
-40
  0
LINE
  8
0
 10
157.5
 20
-40
 11
157.5
 21
40
  0
LINE
  8
0
 10
78.75
 20
-127.5
 11
90.625
 21
-127.5
  0
LINE
  8
0
 10
90.625
 20
-127.5
 11
90.625
 21
-130.5
  0
LINE
  8
0
 10
90.625
 20
-130.5
 11
102.5
 21
-130.5
  0
LINE
  8
0
 10
102.5
 20
-130.5
 11
102.5
 21
-127.5
  0
LINE
  8
0
 10
102.5
 20
-127.5
 11
114.375
 21
-127.5
  0
LINE
  8
0
 10
114.375
 20
-127.5
 11
114.375
 21
-130.5
  0
LINE
  8
0
 10
114.375
 20
-130.5
 11
126.25
 21
-130.5
  0
LINE
  8
0
 10
126.25
 20
-130.5
 11
126.25
 21
-127.5
  0
LINE
  8
0
 10
126.25
 20
-127.5
 11
138.125
 21
-127.5
  0
LINE
  8
0
 10
138.125
 20
-127.5
 11
138.125
 21
-130.5
  0
LINE
  8
0
 10
138.125
 20
-130.5
 11
150
 21
-130.5
  0
LINE
  8
0
 10
150
 20
-130.5
 11
150
 21
-117.5
  0
LINE
  8
0
 10
150
 20
-117.5
 11
153
 21
-117.5
  0
LINE
  8
0
 10
153
 20
-117.5
 11
153
 21
-107.5
  0
LINE
  8
0
 10
153
 20
-107.5
 11
150
 21
-107.5
  0
LINE
  8
0
 10
150
 20
-107.5
 11
150
 21
-97.5
  0
LINE
  8
0
 10
150
 20
-97.5
 11
153
 21
-97.5
  0
LINE
  8
0
 10
153
 20
-97.5
 11
153
 21
-87.5
  0
LINE
  8
0
 10
153
 20
-87.5
 11
150
 21
-87.5
  0
LINE
  8
0
 10
150
 20
-87.5
 11
150
 21
-77.5
  0
LINE
  8
0
 10
150
 20
-77.5
 11
153
 21
-77.5
  0
LINE
  8
0
 10
153
 20
-77.5
 11
153
 21
-67.5
  0
LINE
  8
0
 10
153
 20
-67.5
 11
150
 21
-67.5
  0
LINE
  8
0
 10
150
 20
-67.5
 11
150
 21
-57.5
  0
LINE
  8
0
 10
150
 20
-57.5
 11
153
 21
-57.5
  0
LINE
  8
0
 10
153
 20
-57.5
 11
153
 21
-47.5
  0
LINE
  8
0
 10
153
 20
-47.5
 11
138.125
 21
-47.5
  0
LINE
  8
0
 10
138.125
 20
-47.5
 11
138.125
 21
-44.5
  0
LINE
  8
0
 10
138.125
 20
-44.5
 11
126.25
 21
-44.5
  0
LINE
  8
0
 10
126.25
 20
-44.5
 11
126.25
 21
-47.5
  0
LINE
  8
0
 10
126.25
 20
-47.5
 11
114.375
 21
-47.5
  0
LINE
  8
0
 10
114.375
 20
-47.5
 11
114.375
 21
-44.5
  0
LINE
  8
0
 10
114.375
 20
-44.5
 11
102.5
 21
-44.5
  0
LINE
  8
0
 10
102.5
 20
-44.5
 11
102.5
 21
-47.5
  0
LINE
  8
0
 10
102.5
 20
-47.5
 11
90.625
 21
-47.5
  0
LINE
  8
0
 10
90.625
 20
-47.5
 11
90.625
 21
-44.5
  0
LINE
  8
0
 10
90.625
 20
-44.5
 11
78.75
 21
-44.5
  0
LINE
  8
0
 10
78.75
 20
-44.5
 11
78.75
 21
-47.5
  0
LINE
  8
0
 10
78.75
 20
-47.5
 11
66.875
 21
-47.5
  0
LINE
  8
0
 10
66.875
 20
-47.5
 11
66.875
 21
-44.5
  0
LINE
  8
0
 10
66.875
 20
-44.5
 11
55
 21
-44.5
  0
LINE
  8
0
 10
55
 20
-44.5
 11
55
 21
-127.5
  0
LINE
  8
0
 10
55
 20
-127.5
 11
66.875
 21
-127.5
  0
LINE
  8
0
 10
66.875
 20
-127.5
 11
66.875
 21
-130.5
  0
LINE
  8
0
 10
66.875
 20
-130.5
 11
78.75
 21
-130.5
  0
LINE
  8
0
 10
78.75
 20
-130.5
 11
78.75
 21
-127.5
  0
LINE
  8
0
 10
-23.75
 20
-127.5
 11
-11.875
 21
-127.5
  0
LINE
  8
0
 10
-11.875
 20
-127.5
 11
-11.875
 21
-130.5
  0
LINE
  8
0
 10
-11.875
 20
-130.5
 11
0
 21
-130.5
  0
LINE
  8
0
 10
0
 20
-130.5
 11
0
 21
-127.5
  0
LINE
  8
0
 10
0
 20
-127.5
 11
11.875
 21
-127.5
  0
LINE
  8
0
 10
11.875
 20
-127.5
 11
11.875
 21
-130.5
  0
LINE
  8
0
 10
11.875
 20
-130.5
 11
23.75
 21
-130.5
  0
LINE
  8
0
 10
23.75
 20
-130.5
 11
23.75
 21
-127.5
  0
LINE
  8
0
 10
23.75
 20
-127.5
 11
35.625
 21
-127.5
  0
LINE
  8
0
 10
35.625
 20
-127.5
 11
35.625
 21
-130.5
  0
LINE
  8
0
 10
35.625
 20
-130.5
 11
47.5
 21
-130.5
  0
LINE
  8
0
 10
47.5
 20
-130.5
 11
47.5
 21
-117.5
  0
LINE
  8
0
 10
47.5
 20
-117.5
 11
50.5
 21
-117.5
  0
LINE
  8
0
 10
50.5
 20
-117.5
 11
50.5
 21
-107.5
  0
LINE
  8
0
 10
50.5
 20
-107.5
 11
47.5
 21
-107.5
  0
LINE
  8
0
 10
47.5
 20
-107.5
 11
47.5
 21
-97.5
  0
LINE
  8
0
 10
47.5
 20
-97.5
 11
50.5
 21
-97.5
  0
LINE
  8
0
 10
50.5
 20
-97.5
 11
50.5
 21
-87.5
  0
LINE
  8
0
 10
50.5
 20
-87.5
 11
47.5
 21
-87.5
  0
LINE
  8
0
 10
47.5
 20
-87.5
 11
47.5
 21
-77.5
  0
LINE
  8
0
 10
47.5
 20
-77.5
 11
50.5
 21
-77.5
  0
LINE
  8
0
 10
50.5
 20
-77.5
 11
50.5
 21
-67.5
  0
LINE
  8
0
 10
50.5
 20
-67.5
 11
47.5
 21
-67.5
  0
LINE
  8
0
 10
47.5
 20
-67.5
 11
47.5
 21
-57.5
  0
LINE
  8
0
 10
47.5
 20
-57.5
 11
50.5
 21
-57.5
  0
LINE
  8
0
 10
50.5
 20
-57.5
 11
50.5
 21
-47.5
  0
LINE
  8
0
 10
50.5
 20
-47.5
 11
35.625
 21
-47.5
  0
LINE
  8
0
 10
35.625
 20
-47.5
 11
35.625
 21
-44.5
  0
LINE
  8
0
 10
35.625
 20
-44.5
 11
23.75
 21
-44.5
  0
LINE
  8
0
 10
23.75
 20
-44.5
 11
23.75
 21
-47.5
  0
LINE
  8
0
 10
23.75
 20
-47.5
 11
11.875
 21
-47.5
  0
LINE
  8
0
 10
11.875
 20
-47.5
 11
11.875
 21
-44.5
  0
LINE
  8
0
 10
11.875
 20
-44.5
 11
0
 21
-44.5
  0
LINE
  8
0
 10
0
 20
-44.5
 11
0
 21
-47.5
  0
LINE
  8
0
 10
0
 20
-47.5
 11
-11.875
 21
-47.5
  0
LINE
  8
0
 10
-11.875
 20
-47.5
 11
-11.875
 21
-44.5
  0
LINE
  8
0
 10
-11.875
 20
-44.5
 11
-23.75
 21
-44.5
  0
LINE
  8
0
 10
-23.75
 20
-44.5
 11
-23.75
 21
-47.5
  0
LINE
  8
0
 10
-23.75
 20
-47.5
 11
-35.625
 21
-47.5
  0
LINE
  8
0
 10
-35.625
 20
-47.5
 11
-35.625
 21
-44.5
  0
LINE
  8
0
 10
-35.625
 20
-44.5
 11
-47.5
 21
-44.5
  0
LINE
  8
0
 10
-47.5
 20
-44.5
 11
-47.5
 21
-127.5
  0
LINE
  8
0
 10
-47.5
 20
-127.5
 11
-35.625
 21
-127.5
  0
LINE
  8
0
 10
-35.625
 20
-127.5
 11
-35.625
 21
-130.5
  0
LINE
  8
0
 10
-35.625
 20
-130.5
 11
-23.75
 21
-130.5
  0
LINE
  8
0
 10
-23.75
 20
-130.5
 11
-23.75
 21
-127.5
  0
ENDSEC
  0
SECTION
  2
OBJECTS
  0
DICTIONARY
  0
ENDSEC
  0
EOF
