solid OpenSCAD_Model
  facet normal -1 0 0
    outer loop
      vertex 0 32.8 0
      vertex 0 31.6 1.2
      vertex 0 32.8 12
    endloop
  endfacet
  facet normal -1 0 0
    outer loop
      vertex 0 32.8 0
      vertex 0 1.2 1.2
      vertex 0 31.6 1.2
    endloop
  endfacet
  facet normal -1 -0 0
    outer loop
      vertex 0 1.2 1.2
      vertex 0 0 0
      vertex 0 1.2 10.8
    endloop
  endfacet
  facet normal -1 0 0
    outer loop
      vertex 0 0 0
      vertex 0 1.2 1.2
      vertex 0 32.8 0
    endloop
  endfacet
  facet normal -1 0 0
    outer loop
      vertex 0 31.6 10.8
      vertex 0 32.8 12
      vertex 0 31.6 1.2
    endloop
  endfacet
  facet normal -1 0 0
    outer loop
      vertex 0 1.2 10.8
      vertex 0 32.8 12
      vertex 0 31.6 10.8
    endloop
  endfacet
  facet normal -1 0 0
    outer loop
      vertex 0 1.2 10.8
      vertex 0 0 12
      vertex 0 32.8 12
    endloop
  endfacet
  facet normal -1 0 0
    outer loop
      vertex 0 0 12
      vertex 0 1.2 10.8
      vertex 0 0 0
    endloop
  endfacet
  facet normal -0 0 1
    outer loop
      vertex 0 32.8 12
      vertex 13.3333 0 12
      vertex 13.3333 32.8 12
    endloop
  endfacet
  facet normal 0 0 1
    outer loop
      vertex 13.3333 0 12
      vertex 0 32.8 12
      vertex 0 0 12
    endloop
  endfacet
  facet normal 1 0 0
    outer loop
      vertex 13.3333 32.8 12
      vertex 13.3333 31.6 10.8
      vertex 13.3333 32.8 0
    endloop
  endfacet
  facet normal 1 0 0
    outer loop
      vertex 13.3333 32.8 12
      vertex 13.3333 1.2 10.8
      vertex 13.3333 31.6 10.8
    endloop
  endfacet
  facet normal 1 0 0
    outer loop
      vertex 13.3333 1.2 10.8
      vertex 13.3333 0 12
      vertex 13.3333 1.2 1.2
    endloop
  endfacet
  facet normal 1 -0 0
    outer loop
      vertex 13.3333 0 12
      vertex 13.3333 1.2 10.8
      vertex 13.3333 32.8 12
    endloop
  endfacet
  facet normal 1 -0 0
    outer loop
      vertex 13.3333 31.6 1.2
      vertex 13.3333 32.8 0
      vertex 13.3333 31.6 10.8
    endloop
  endfacet
  facet normal 1 -0 0
    outer loop
      vertex 13.3333 1.2 1.2
      vertex 13.3333 32.8 0
      vertex 13.3333 31.6 1.2
    endloop
  endfacet
  facet normal 1 0 0
    outer loop
      vertex 13.3333 1.2 1.2
      vertex 13.3333 0 0
      vertex 13.3333 32.8 0
    endloop
  endfacet
  facet normal 1 0 0
    outer loop
      vertex 13.3333 0 0
      vertex 13.3333 1.2 1.2
      vertex 13.3333 0 12
    endloop
  endfacet
  facet normal 0 1 -0
    outer loop
      vertex 13.3333 32.8 0
      vertex 0 32.8 12
      vertex 13.3333 32.8 12
    endloop
  endfacet
  facet normal 0 1 0
    outer loop
      vertex 0 32.8 12
      vertex 13.3333 32.8 0
      vertex 0 32.8 0
    endloop
  endfacet
  facet normal 0 0 -1
    outer loop
      vertex 0 0 0
      vertex 13.3333 32.8 0
      vertex 13.3333 0 0
    endloop
  endfacet
  facet normal -0 0 -1
    outer loop
      vertex 13.3333 32.8 0
      vertex 0 0 0
      vertex 0 32.8 0
    endloop
  endfacet
  facet normal 0 -1 0
    outer loop
      vertex 0 0 0
      vertex 13.3333 0 12
      vertex 0 0 12
    endloop
  endfacet
  facet normal 0 -1 -0
    outer loop
      vertex 13.3333 0 12
      vertex 0 0 0
      vertex 13.3333 0 0
    endloop
  endfacet
  facet normal 0 0 -1
    outer loop
      vertex 0 1.2 10.8
      vertex 13.3333 31.6 10.8
      vertex 13.3333 1.2 10.8
    endloop
  endfacet
  facet normal -0 0 -1
    outer loop
      vertex 13.3333 31.6 10.8
      vertex 0 1.2 10.8
      vertex 0 31.6 10.8
    endloop
  endfacet
  facet normal -0 0 1
    outer loop
      vertex 0 31.6 1.2
      vertex 13.3333 1.2 1.2
      vertex 13.3333 31.6 1.2
    endloop
  endfacet
  facet normal 0 0 1
    outer loop
      vertex 13.3333 1.2 1.2
      vertex 0 31.6 1.2
      vertex 0 1.2 1.2
    endloop
  endfacet
  facet normal 0 1 -0
    outer loop
      vertex 13.3333 1.2 1.2
      vertex 0 1.2 10.8
      vertex 13.3333 1.2 10.8
    endloop
  endfacet
  facet normal 0 1 0
    outer loop
      vertex 0 1.2 10.8
      vertex 13.3333 1.2 1.2
      vertex 0 1.2 1.2
    endloop
  endfacet
  facet normal 0 -1 0
    outer loop
      vertex 0 31.6 1.2
      vertex 13.3333 31.6 10.8
      vertex 0 31.6 10.8
    endloop
  endfacet
  facet normal 0 -1 -0
    outer loop
      vertex 13.3333 31.6 10.8
      vertex 0 31.6 1.2
      vertex 13.3333 31.6 1.2
    endloop
  endfacet
endsolid OpenSCAD_Model
