solid OpenSCAD_Model
  facet normal -1 0 0
    outer loop
      vertex 0 15.5 3.9
      vertex 0 16.4 0
      vertex 0 15.5 0.9
    endloop
  endfacet
  facet normal -1 0 0
    outer loop
      vertex 0 16.4 0
      vertex 0 0.9 0.9
      vertex 0 15.5 0.9
    endloop
  endfacet
  facet normal -1 -0 0
    outer loop
      vertex 0 0.9 0.9
      vertex 0 0 0
      vertex 0 0.9 3.9
    endloop
  endfacet
  facet normal -1 0 0
    outer loop
      vertex 0 0 0
      vertex 0 0.9 0.9
      vertex 0 16.4 0
    endloop
  endfacet
  facet normal -1 0 0
    outer loop
      vertex 0 16.4 0
      vertex 0 15.5 3.9
      vertex 0 16.4 13.5583
    endloop
  endfacet
  facet normal -1 0 0
    outer loop
      vertex 0 0.9 3.9
      vertex 0 16.4 13.5583
      vertex 0 15.5 3.9
    endloop
  endfacet
  facet normal -1 0 0
    outer loop
      vertex 0 0.9 3.9
      vertex 0 0 13.5583
      vertex 0 16.4 13.5583
    endloop
  endfacet
  facet normal -1 0 0
    outer loop
      vertex 0 0 13.5583
      vertex 0 0.9 3.9
      vertex 0 0 0
    endloop
  endfacet
  facet normal -0 0 1
    outer loop
      vertex 1.48333 16.4 4.8
      vertex 8.9 0 4.8
      vertex 8.9 16.4 4.8
    endloop
  endfacet
  facet normal 0 0 1
    outer loop
      vertex 8.9 0 4.8
      vertex 1.48333 16.4 4.8
      vertex 1.48333 0 4.8
    endloop
  endfacet
  facet normal 1 0 0
    outer loop
      vertex 8.9 16.4 4.8
      vertex 8.9 15.5 3.9
      vertex 8.9 16.4 0
    endloop
  endfacet
  facet normal 1 0 0
    outer loop
      vertex 8.9 16.4 4.8
      vertex 8.9 0.9 3.9
      vertex 8.9 15.5 3.9
    endloop
  endfacet
  facet normal 1 0 0
    outer loop
      vertex 8.9 0.9 3.9
      vertex 8.9 0 4.8
      vertex 8.9 0.9 0.9
    endloop
  endfacet
  facet normal 1 -0 0
    outer loop
      vertex 8.9 0 4.8
      vertex 8.9 0.9 3.9
      vertex 8.9 16.4 4.8
    endloop
  endfacet
  facet normal 1 -0 0
    outer loop
      vertex 8.9 15.5 0.9
      vertex 8.9 16.4 0
      vertex 8.9 15.5 3.9
    endloop
  endfacet
  facet normal 1 -0 0
    outer loop
      vertex 8.9 0.9 0.9
      vertex 8.9 16.4 0
      vertex 8.9 15.5 0.9
    endloop
  endfacet
  facet normal 1 0 0
    outer loop
      vertex 8.9 0.9 0.9
      vertex 8.9 0 0
      vertex 8.9 16.4 0
    endloop
  endfacet
  facet normal 1 0 0
    outer loop
      vertex 8.9 0 0
      vertex 8.9 0.9 0.9
      vertex 8.9 0 4.8
    endloop
  endfacet
  facet normal 0 0 -1
    outer loop
      vertex 0 0 0
      vertex 8.9 16.4 0
      vertex 8.9 0 0
    endloop
  endfacet
  facet normal -0 0 -1
    outer loop
      vertex 8.9 16.4 0
      vertex 0 0 0
      vertex 0 16.4 0
    endloop
  endfacet
  facet normal 0 -1 0
    outer loop
      vertex 0.695097 0 14.2985
      vertex 0.788236 0 14.2985
      vertex 0.741666 0 14.3
    endloop
  endfacet
  facet normal 0 -1 0
    outer loop
      vertex 0.64871 0 14.2942
      vertex 0.788236 0 14.2985
      vertex 0.695097 0 14.2985
    endloop
  endfacet
  facet normal 0 -1 0
    outer loop
      vertex 0.64871 0 14.2942
      vertex 0.834621 0 14.2942
      vertex 0.788236 0 14.2985
    endloop
  endfacet
  facet normal 0 -1 0
    outer loop
      vertex 0.602692 0 14.2869
      vertex 0.834621 0 14.2942
      vertex 0.64871 0 14.2942
    endloop
  endfacet
  facet normal 0 -1 0
    outer loop
      vertex 0.602692 0 14.2869
      vertex 0.880641 0 14.2869
      vertex 0.834621 0 14.2942
    endloop
  endfacet
  facet normal 0 -1 0
    outer loop
      vertex 0.557221 0 14.2767
      vertex 0.880641 0 14.2869
      vertex 0.602692 0 14.2869
    endloop
  endfacet
  facet normal 0 -1 0
    outer loop
      vertex 0.557221 0 14.2767
      vertex 0.926111 0 14.2767
      vertex 0.880641 0 14.2869
    endloop
  endfacet
  facet normal 0 -1 0
    outer loop
      vertex 0.512479 0 14.2637
      vertex 0.926111 0 14.2767
      vertex 0.557221 0 14.2767
    endloop
  endfacet
  facet normal 0 -1 0
    outer loop
      vertex 0.512479 0 14.2637
      vertex 0.970854 0 14.2637
      vertex 0.926111 0 14.2767
    endloop
  endfacet
  facet normal 0 -1 0
    outer loop
      vertex 0.46864 0 14.2479
      vertex 0.970854 0 14.2637
      vertex 0.512479 0 14.2637
    endloop
  endfacet
  facet normal 0 -1 0
    outer loop
      vertex 0.46864 0 14.2479
      vertex 1.01469 0 14.2479
      vertex 0.970854 0 14.2637
    endloop
  endfacet
  facet normal 0 -1 0
    outer loop
      vertex 0.425879 0 14.2294
      vertex 1.01469 0 14.2479
      vertex 0.46864 0 14.2479
    endloop
  endfacet
  facet normal 0 -1 0
    outer loop
      vertex 0.425879 0 14.2294
      vertex 1.05745 0 14.2294
      vertex 1.01469 0 14.2479
    endloop
  endfacet
  facet normal 0 -1 0
    outer loop
      vertex 0.384365 0 14.2083
      vertex 1.05745 0 14.2294
      vertex 0.425879 0 14.2294
    endloop
  endfacet
  facet normal 0 -1 0
    outer loop
      vertex 0.384365 0 14.2083
      vertex 1.09897 0 14.2083
      vertex 1.05745 0 14.2294
    endloop
  endfacet
  facet normal 0 -1 0
    outer loop
      vertex 0.344261 0 14.1845
      vertex 1.09897 0 14.2083
      vertex 0.384365 0 14.2083
    endloop
  endfacet
  facet normal 0 -1 0
    outer loop
      vertex 0.344261 0 14.1845
      vertex 1.13907 0 14.1845
      vertex 1.09897 0 14.2083
    endloop
  endfacet
  facet normal 0 -1 0
    outer loop
      vertex 0.305725 0 14.1584
      vertex 1.13907 0 14.1845
      vertex 0.344261 0 14.1845
    endloop
  endfacet
  facet normal 0 -1 0
    outer loop
      vertex 0.305725 0 14.1584
      vertex 1.17761 0 14.1584
      vertex 1.13907 0 14.1845
    endloop
  endfacet
  facet normal 0 -1 0
    outer loop
      vertex 0.26891 0 14.1298
      vertex 1.17761 0 14.1584
      vertex 0.305725 0 14.1584
    endloop
  endfacet
  facet normal 0 -1 0
    outer loop
      vertex 0.26891 0 14.1298
      vertex 1.21442 0 14.1298
      vertex 1.17761 0 14.1584
    endloop
  endfacet
  facet normal 0 -1 0
    outer loop
      vertex 0.23396 0 14.099
      vertex 1.21442 0 14.1298
      vertex 0.26891 0 14.1298
    endloop
  endfacet
  facet normal 0 -1 0
    outer loop
      vertex 0.23396 0 14.099
      vertex 1.24937 0 14.099
      vertex 1.21442 0 14.1298
    endloop
  endfacet
  facet normal 0 -1 0
    outer loop
      vertex 0.201015 0 14.066
      vertex 1.24937 0 14.099
      vertex 0.23396 0 14.099
    endloop
  endfacet
  facet normal 0 -1 0
    outer loop
      vertex 0.201015 0 14.066
      vertex 1.28232 0 14.066
      vertex 1.24937 0 14.099
    endloop
  endfacet
  facet normal 0 -1 0
    outer loop
      vertex 0.170202 0 14.0311
      vertex 1.28232 0 14.066
      vertex 0.201015 0 14.066
    endloop
  endfacet
  facet normal 0 -1 0
    outer loop
      vertex 0.170202 0 14.0311
      vertex 1.31313 0 14.0311
      vertex 1.28232 0 14.066
    endloop
  endfacet
  facet normal 0 -1 0
    outer loop
      vertex 0.141645 0 13.9943
      vertex 1.31313 0 14.0311
      vertex 0.170202 0 14.0311
    endloop
  endfacet
  facet normal 0 -1 0
    outer loop
      vertex 0.141645 0 13.9943
      vertex 1.34169 0 13.9943
      vertex 1.31313 0 14.0311
    endloop
  endfacet
  facet normal 0 -1 0
    outer loop
      vertex 0.115457 0 13.9557
      vertex 1.34169 0 13.9943
      vertex 0.141645 0 13.9943
    endloop
  endfacet
  facet normal 0 -1 0
    outer loop
      vertex 0.115457 0 13.9557
      vertex 1.36788 0 13.9557
      vertex 1.34169 0 13.9943
    endloop
  endfacet
  facet normal 0 -1 0
    outer loop
      vertex 0.0917387 0 13.9156
      vertex 1.36788 0 13.9557
      vertex 0.115457 0 13.9557
    endloop
  endfacet
  facet normal 0 -1 0
    outer loop
      vertex 0.0917387 0 13.9156
      vertex 1.39159 0 13.9156
      vertex 1.36788 0 13.9557
    endloop
  endfacet
  facet normal 0 -1 0
    outer loop
      vertex 0.0705862 0 13.8741
      vertex 1.39159 0 13.9156
      vertex 0.0917387 0 13.9156
    endloop
  endfacet
  facet normal 0 -1 0
    outer loop
      vertex 0.0705862 0 13.8741
      vertex 1.41275 0 13.8741
      vertex 1.39159 0 13.9156
    endloop
  endfacet
  facet normal 0 -1 0
    outer loop
      vertex 0.0520821 0 13.8314
      vertex 1.41275 0 13.8741
      vertex 0.0705862 0 13.8741
    endloop
  endfacet
  facet normal 0 -1 0
    outer loop
      vertex 0.0520821 0 13.8314
      vertex 1.43125 0 13.8314
      vertex 1.41275 0 13.8741
    endloop
  endfacet
  facet normal 0 -1 0
    outer loop
      vertex 0.0362997 0 13.7875
      vertex 1.43125 0 13.8314
      vertex 0.0520821 0 13.8314
    endloop
  endfacet
  facet normal 0 -1 0
    outer loop
      vertex 0.0362997 0 13.7875
      vertex 1.44703 0 13.7875
      vertex 1.43125 0 13.8314
    endloop
  endfacet
  facet normal 0 -1 0
    outer loop
      vertex 0.0233002 0 13.7428
      vertex 1.44703 0 13.7875
      vertex 0.0362997 0 13.7875
    endloop
  endfacet
  facet normal 0 -1 0
    outer loop
      vertex 0.0233002 0 13.7428
      vertex 1.46003 0 13.7428
      vertex 1.44703 0 13.7875
    endloop
  endfacet
  facet normal 0 -1 0
    outer loop
      vertex 0.0131369 0 13.6973
      vertex 1.46003 0 13.7428
      vertex 0.0233002 0 13.7428
    endloop
  endfacet
  facet normal 0 -1 0
    outer loop
      vertex 0.0131369 0 13.6973
      vertex 1.4702 0 13.6973
      vertex 1.46003 0 13.7428
    endloop
  endfacet
  facet normal 0 -1 0
    outer loop
      vertex 0.00584793 0 13.6513
      vertex 1.4702 0 13.6973
      vertex 0.0131369 0 13.6973
    endloop
  endfacet
  facet normal 0 -1 0
    outer loop
      vertex 0.00584793 0 13.6513
      vertex 1.47748 0 13.6513
      vertex 1.4702 0 13.6973
    endloop
  endfacet
  facet normal 0 -1 0
    outer loop
      vertex 0.00146294 0 13.6049
      vertex 1.47748 0 13.6513
      vertex 0.00584793 0 13.6513
    endloop
  endfacet
  facet normal 0 -1 0
    outer loop
      vertex 0.00146294 0 13.6049
      vertex 1.48187 0 13.6049
      vertex 1.47748 0 13.6513
    endloop
  endfacet
  facet normal 0 -1 0
    outer loop
      vertex 0 0 13.5583
      vertex 1.48187 0 13.6049
      vertex 0.00146294 0 13.6049
    endloop
  endfacet
  facet normal 0 -1 0
    outer loop
      vertex 0 0 13.5583
      vertex 1.48333 0 13.5583
      vertex 1.48187 0 13.6049
    endloop
  endfacet
  facet normal 0 -1 0
    outer loop
      vertex 0 0 13.5583
      vertex 1.48333 0 4.8
      vertex 1.48333 0 13.5583
    endloop
  endfacet
  facet normal 0 -1 0
    outer loop
      vertex 0 0 0
      vertex 1.48333 0 4.8
      vertex 0 0 13.5583
    endloop
  endfacet
  facet normal 0 -1 0
    outer loop
      vertex 8.9 0 0
      vertex 1.48333 0 4.8
      vertex 0 0 0
    endloop
  endfacet
  facet normal 0 -1 0
    outer loop
      vertex 1.48333 0 4.8
      vertex 8.9 0 0
      vertex 8.9 0 4.8
    endloop
  endfacet
  facet normal 0 1 0
    outer loop
      vertex 8.9 16.4 4.8
      vertex 8.9 16.4 0
      vertex 1.48333 16.4 4.8
    endloop
  endfacet
  facet normal 0 1 0
    outer loop
      vertex 0.788236 16.4 14.2985
      vertex 0.695097 16.4 14.2985
      vertex 0.741666 16.4 14.3
    endloop
  endfacet
  facet normal 0 1 0
    outer loop
      vertex 0.834621 16.4 14.2942
      vertex 0.695097 16.4 14.2985
      vertex 0.788236 16.4 14.2985
    endloop
  endfacet
  facet normal 0 1 0
    outer loop
      vertex 0.834621 16.4 14.2942
      vertex 0.64871 16.4 14.2942
      vertex 0.695097 16.4 14.2985
    endloop
  endfacet
  facet normal 0 1 0
    outer loop
      vertex 0.880641 16.4 14.2869
      vertex 0.64871 16.4 14.2942
      vertex 0.834621 16.4 14.2942
    endloop
  endfacet
  facet normal 0 1 0
    outer loop
      vertex 0.880641 16.4 14.2869
      vertex 0.602692 16.4 14.2869
      vertex 0.64871 16.4 14.2942
    endloop
  endfacet
  facet normal 0 1 0
    outer loop
      vertex 0.926111 16.4 14.2767
      vertex 0.602692 16.4 14.2869
      vertex 0.880641 16.4 14.2869
    endloop
  endfacet
  facet normal 0 1 0
    outer loop
      vertex 0.926111 16.4 14.2767
      vertex 0.557221 16.4 14.2767
      vertex 0.602692 16.4 14.2869
    endloop
  endfacet
  facet normal 0 1 0
    outer loop
      vertex 0.970854 16.4 14.2637
      vertex 0.557221 16.4 14.2767
      vertex 0.926111 16.4 14.2767
    endloop
  endfacet
  facet normal 0 1 0
    outer loop
      vertex 0.970854 16.4 14.2637
      vertex 0.512479 16.4 14.2637
      vertex 0.557221 16.4 14.2767
    endloop
  endfacet
  facet normal 0 1 0
    outer loop
      vertex 1.01469 16.4 14.2479
      vertex 0.512479 16.4 14.2637
      vertex 0.970854 16.4 14.2637
    endloop
  endfacet
  facet normal 0 1 0
    outer loop
      vertex 1.01469 16.4 14.2479
      vertex 0.46864 16.4 14.2479
      vertex 0.512479 16.4 14.2637
    endloop
  endfacet
  facet normal 0 1 0
    outer loop
      vertex 1.05745 16.4 14.2294
      vertex 0.46864 16.4 14.2479
      vertex 1.01469 16.4 14.2479
    endloop
  endfacet
  facet normal 0 1 0
    outer loop
      vertex 1.05745 16.4 14.2294
      vertex 0.425879 16.4 14.2294
      vertex 0.46864 16.4 14.2479
    endloop
  endfacet
  facet normal 0 1 0
    outer loop
      vertex 1.09897 16.4 14.2083
      vertex 0.425879 16.4 14.2294
      vertex 1.05745 16.4 14.2294
    endloop
  endfacet
  facet normal 0 1 0
    outer loop
      vertex 1.09897 16.4 14.2083
      vertex 0.384365 16.4 14.2083
      vertex 0.425879 16.4 14.2294
    endloop
  endfacet
  facet normal 0 1 0
    outer loop
      vertex 1.13907 16.4 14.1845
      vertex 0.384365 16.4 14.2083
      vertex 1.09897 16.4 14.2083
    endloop
  endfacet
  facet normal 0 1 0
    outer loop
      vertex 1.13907 16.4 14.1845
      vertex 0.344261 16.4 14.1845
      vertex 0.384365 16.4 14.2083
    endloop
  endfacet
  facet normal 0 1 0
    outer loop
      vertex 1.17761 16.4 14.1584
      vertex 0.344261 16.4 14.1845
      vertex 1.13907 16.4 14.1845
    endloop
  endfacet
  facet normal 0 1 0
    outer loop
      vertex 1.17761 16.4 14.1584
      vertex 0.305725 16.4 14.1584
      vertex 0.344261 16.4 14.1845
    endloop
  endfacet
  facet normal 0 1 0
    outer loop
      vertex 1.21442 16.4 14.1298
      vertex 0.305725 16.4 14.1584
      vertex 1.17761 16.4 14.1584
    endloop
  endfacet
  facet normal 0 1 0
    outer loop
      vertex 1.21442 16.4 14.1298
      vertex 0.26891 16.4 14.1298
      vertex 0.305725 16.4 14.1584
    endloop
  endfacet
  facet normal 0 1 0
    outer loop
      vertex 1.24937 16.4 14.099
      vertex 0.26891 16.4 14.1298
      vertex 1.21442 16.4 14.1298
    endloop
  endfacet
  facet normal 0 1 0
    outer loop
      vertex 1.24937 16.4 14.099
      vertex 0.23396 16.4 14.099
      vertex 0.26891 16.4 14.1298
    endloop
  endfacet
  facet normal 0 1 0
    outer loop
      vertex 1.28232 16.4 14.066
      vertex 0.23396 16.4 14.099
      vertex 1.24937 16.4 14.099
    endloop
  endfacet
  facet normal 0 1 0
    outer loop
      vertex 1.28232 16.4 14.066
      vertex 0.201015 16.4 14.066
      vertex 0.23396 16.4 14.099
    endloop
  endfacet
  facet normal 0 1 0
    outer loop
      vertex 1.31313 16.4 14.0311
      vertex 0.201015 16.4 14.066
      vertex 1.28232 16.4 14.066
    endloop
  endfacet
  facet normal 0 1 0
    outer loop
      vertex 1.31313 16.4 14.0311
      vertex 0.170202 16.4 14.0311
      vertex 0.201015 16.4 14.066
    endloop
  endfacet
  facet normal 0 1 0
    outer loop
      vertex 1.34169 16.4 13.9943
      vertex 0.170202 16.4 14.0311
      vertex 1.31313 16.4 14.0311
    endloop
  endfacet
  facet normal 0 1 0
    outer loop
      vertex 1.34169 16.4 13.9943
      vertex 0.141645 16.4 13.9943
      vertex 0.170202 16.4 14.0311
    endloop
  endfacet
  facet normal 0 1 0
    outer loop
      vertex 1.36788 16.4 13.9557
      vertex 0.141645 16.4 13.9943
      vertex 1.34169 16.4 13.9943
    endloop
  endfacet
  facet normal 0 1 0
    outer loop
      vertex 1.36788 16.4 13.9557
      vertex 0.115457 16.4 13.9557
      vertex 0.141645 16.4 13.9943
    endloop
  endfacet
  facet normal 0 1 0
    outer loop
      vertex 1.39159 16.4 13.9156
      vertex 0.115457 16.4 13.9557
      vertex 1.36788 16.4 13.9557
    endloop
  endfacet
  facet normal 0 1 0
    outer loop
      vertex 1.39159 16.4 13.9156
      vertex 0.0917387 16.4 13.9156
      vertex 0.115457 16.4 13.9557
    endloop
  endfacet
  facet normal 0 1 0
    outer loop
      vertex 1.41275 16.4 13.8741
      vertex 0.0917387 16.4 13.9156
      vertex 1.39159 16.4 13.9156
    endloop
  endfacet
  facet normal 0 1 0
    outer loop
      vertex 1.41275 16.4 13.8741
      vertex 0.0705862 16.4 13.8741
      vertex 0.0917387 16.4 13.9156
    endloop
  endfacet
  facet normal 0 1 0
    outer loop
      vertex 1.43125 16.4 13.8314
      vertex 0.0705862 16.4 13.8741
      vertex 1.41275 16.4 13.8741
    endloop
  endfacet
  facet normal 0 1 0
    outer loop
      vertex 1.43125 16.4 13.8314
      vertex 0.0520821 16.4 13.8314
      vertex 0.0705862 16.4 13.8741
    endloop
  endfacet
  facet normal 0 1 0
    outer loop
      vertex 1.44703 16.4 13.7875
      vertex 0.0520821 16.4 13.8314
      vertex 1.43125 16.4 13.8314
    endloop
  endfacet
  facet normal 0 1 0
    outer loop
      vertex 1.44703 16.4 13.7875
      vertex 0.0362997 16.4 13.7875
      vertex 0.0520821 16.4 13.8314
    endloop
  endfacet
  facet normal 0 1 0
    outer loop
      vertex 1.46003 16.4 13.7428
      vertex 0.0362997 16.4 13.7875
      vertex 1.44703 16.4 13.7875
    endloop
  endfacet
  facet normal 0 1 0
    outer loop
      vertex 1.46003 16.4 13.7428
      vertex 0.0233002 16.4 13.7428
      vertex 0.0362997 16.4 13.7875
    endloop
  endfacet
  facet normal 0 1 0
    outer loop
      vertex 1.4702 16.4 13.6973
      vertex 0.0233002 16.4 13.7428
      vertex 1.46003 16.4 13.7428
    endloop
  endfacet
  facet normal 0 1 0
    outer loop
      vertex 1.4702 16.4 13.6973
      vertex 0.0131369 16.4 13.6973
      vertex 0.0233002 16.4 13.7428
    endloop
  endfacet
  facet normal 0 1 0
    outer loop
      vertex 1.47748 16.4 13.6513
      vertex 0.0131369 16.4 13.6973
      vertex 1.4702 16.4 13.6973
    endloop
  endfacet
  facet normal 0 1 0
    outer loop
      vertex 1.47748 16.4 13.6513
      vertex 0.00584793 16.4 13.6513
      vertex 0.0131369 16.4 13.6973
    endloop
  endfacet
  facet normal 0 1 0
    outer loop
      vertex 1.48187 16.4 13.6049
      vertex 0.00584793 16.4 13.6513
      vertex 1.47748 16.4 13.6513
    endloop
  endfacet
  facet normal 0 1 0
    outer loop
      vertex 1.48187 16.4 13.6049
      vertex 0.00146294 16.4 13.6049
      vertex 0.00584793 16.4 13.6513
    endloop
  endfacet
  facet normal 0 1 0
    outer loop
      vertex 1.48333 16.4 13.5583
      vertex 0.00146294 16.4 13.6049
      vertex 1.48187 16.4 13.6049
    endloop
  endfacet
  facet normal 0 1 0
    outer loop
      vertex 1.48333 16.4 13.5583
      vertex 0 16.4 13.5583
      vertex 0.00146294 16.4 13.6049
    endloop
  endfacet
  facet normal 0 1 -0
    outer loop
      vertex 1.48333 16.4 4.8
      vertex 0 16.4 13.5583
      vertex 1.48333 16.4 13.5583
    endloop
  endfacet
  facet normal 0 1 0
    outer loop
      vertex 1.48333 16.4 4.8
      vertex 0 16.4 0
      vertex 0 16.4 13.5583
    endloop
  endfacet
  facet normal 0 1 0
    outer loop
      vertex 0 16.4 0
      vertex 1.48333 16.4 4.8
      vertex 8.9 16.4 0
    endloop
  endfacet
  facet normal 0 0 -1
    outer loop
      vertex 0 0.9 3.9
      vertex 8.9 15.5 3.9
      vertex 8.9 0.9 3.9
    endloop
  endfacet
  facet normal -0 0 -1
    outer loop
      vertex 8.9 15.5 3.9
      vertex 0 0.9 3.9
      vertex 0 15.5 3.9
    endloop
  endfacet
  facet normal -0 0 1
    outer loop
      vertex 0 15.5 0.9
      vertex 8.9 0.9 0.9
      vertex 8.9 15.5 0.9
    endloop
  endfacet
  facet normal 0 0 1
    outer loop
      vertex 8.9 0.9 0.9
      vertex 0 15.5 0.9
      vertex 0 0.9 0.9
    endloop
  endfacet
  facet normal 0 1 -0
    outer loop
      vertex 8.9 0.9 0.9
      vertex 0 0.9 3.9
      vertex 8.9 0.9 3.9
    endloop
  endfacet
  facet normal 0 1 0
    outer loop
      vertex 0 0.9 3.9
      vertex 8.9 0.9 0.9
      vertex 0 0.9 0.9
    endloop
  endfacet
  facet normal 0 -1 0
    outer loop
      vertex 0 15.5 0.9
      vertex 8.9 15.5 3.9
      vertex 0 15.5 3.9
    endloop
  endfacet
  facet normal 0 -1 -0
    outer loop
      vertex 8.9 15.5 3.9
      vertex 0 15.5 0.9
      vertex 8.9 15.5 0.9
    endloop
  endfacet
  facet normal 1 -0 0
    outer loop
      vertex 1.48333 0 13.5583
      vertex 1.48333 16.4 4.8
      vertex 1.48333 16.4 13.5583
    endloop
  endfacet
  facet normal 1 0 0
    outer loop
      vertex 1.48333 16.4 4.8
      vertex 1.48333 0 13.5583
      vertex 1.48333 0 4.8
    endloop
  endfacet
  facet normal 0.0313983 0 0.999507
    outer loop
      vertex 0.741666 16.4 14.3
      vertex 0.788236 0 14.2985
      vertex 0.788236 16.4 14.2985
    endloop
  endfacet
  facet normal 0.0313983 0 0.999507
    outer loop
      vertex 0.788236 0 14.2985
      vertex 0.741666 16.4 14.3
      vertex 0.741666 0 14.3
    endloop
  endfacet
  facet normal -0.999507 0 0.0313983
    outer loop
      vertex 0 0 13.5583
      vertex 0.00146294 16.4 13.6049
      vertex 0 16.4 13.5583
    endloop
  endfacet
  facet normal -0.999507 0 0.0313983
    outer loop
      vertex 0.00146294 16.4 13.6049
      vertex 0 0 13.5583
      vertex 0.00146294 0 13.6049
    endloop
  endfacet
  facet normal -0.975919 0 0.218133
    outer loop
      vertex 0.0131369 0 13.6973
      vertex 0.0233002 16.4 13.7428
      vertex 0.0131369 16.4 13.6973
    endloop
  endfacet
  facet normal -0.975919 0 0.218133
    outer loop
      vertex 0.0233002 16.4 13.7428
      vertex 0.0131369 0 13.6973
      vertex 0.0233002 0 13.7428
    endloop
  endfacet
  facet normal -0.156441 0 0.987687
    outer loop
      vertex 0.602692 16.4 14.2869
      vertex 0.64871 0 14.2942
      vertex 0.64871 16.4 14.2942
    endloop
  endfacet
  facet normal -0.156441 0 0.987687
    outer loop
      vertex 0.64871 0 14.2942
      vertex 0.602692 16.4 14.2869
      vertex 0.602692 0 14.2869
    endloop
  endfacet
  facet normal -0.509049 0 0.860737
    outer loop
      vertex 0.344261 16.4 14.1845
      vertex 0.384365 0 14.2083
      vertex 0.384365 16.4 14.2083
    endloop
  endfacet
  facet normal -0.509049 0 0.860737
    outer loop
      vertex 0.384365 0 14.2083
      vertex 0.344261 16.4 14.1845
      vertex 0.344261 0 14.1845
    endloop
  endfacet
  facet normal -0.0941117 0 0.995562
    outer loop
      vertex 0.64871 16.4 14.2942
      vertex 0.695097 0 14.2985
      vertex 0.695097 16.4 14.2985
    endloop
  endfacet
  facet normal -0.0941117 0 0.995562
    outer loop
      vertex 0.695097 0 14.2985
      vertex 0.64871 16.4 14.2942
      vertex 0.64871 0 14.2942
    endloop
  endfacet
  facet normal -0.995561 0 0.0941136
    outer loop
      vertex 0.00146294 0 13.6049
      vertex 0.00584793 16.4 13.6513
      vertex 0.00146294 16.4 13.6049
    endloop
  endfacet
  facet normal -0.995561 0 0.0941136
    outer loop
      vertex 0.00584793 16.4 13.6513
      vertex 0.00146294 0 13.6049
      vertex 0.00584793 0 13.6513
    endloop
  endfacet
  facet normal 0.975919 -0 0.218133
    outer loop
      vertex 1.46003 0 13.7428
      vertex 1.4702 16.4 13.6973
      vertex 1.46003 16.4 13.7428
    endloop
  endfacet
  facet normal 0.975919 0 0.218133
    outer loop
      vertex 1.4702 16.4 13.6973
      vertex 1.46003 0 13.7428
      vertex 1.4702 0 13.6973
    endloop
  endfacet
  facet normal 0.750117 -0 0.661305
    outer loop
      vertex 1.28232 0 14.066
      vertex 1.31313 16.4 14.0311
      vertex 1.28232 16.4 14.066
    endloop
  endfacet
  facet normal 0.750117 0 0.661305
    outer loop
      vertex 1.31313 16.4 14.0311
      vertex 1.28232 0 14.066
      vertex 1.31313 0 14.0311
    endloop
  endfacet
  facet normal 0.860743 -0 0.50904
    outer loop
      vertex 1.36788 0 13.9557
      vertex 1.39159 16.4 13.9156
      vertex 1.36788 16.4 13.9557
    endloop
  endfacet
  facet normal 0.860743 0 0.50904
    outer loop
      vertex 1.39159 16.4 13.9156
      vertex 1.36788 0 13.9557
      vertex 1.39159 0 13.9156
    endloop
  endfacet
  facet normal 0.995561 -0 0.0941136
    outer loop
      vertex 1.47748 0 13.6513
      vertex 1.48187 16.4 13.6049
      vertex 1.47748 16.4 13.6513
    endloop
  endfacet
  facet normal 0.995561 0 0.0941136
    outer loop
      vertex 1.48187 16.4 13.6049
      vertex 1.47748 0 13.6513
      vertex 1.48187 0 13.6049
    endloop
  endfacet
  facet normal 0.612903 0 0.790158
    outer loop
      vertex 1.17761 16.4 14.1584
      vertex 1.21442 0 14.1298
      vertex 1.21442 16.4 14.1298
    endloop
  endfacet
  facet normal 0.612903 0 0.790158
    outer loop
      vertex 1.21442 0 14.1298
      vertex 1.17761 16.4 14.1584
      vertex 1.17761 0 14.1584
    endloop
  endfacet
  facet normal 0.707097 0 0.707117
    outer loop
      vertex 1.24937 16.4 14.099
      vertex 1.28232 0 14.066
      vertex 1.28232 16.4 14.066
    endloop
  endfacet
  facet normal 0.707097 0 0.707117
    outer loop
      vertex 1.28232 0 14.066
      vertex 1.24937 16.4 14.099
      vertex 1.24937 0 14.099
    endloop
  endfacet
  facet normal 0.218133 0 0.975919
    outer loop
      vertex 0.880641 16.4 14.2869
      vertex 0.926111 0 14.2767
      vertex 0.926111 16.4 14.2767
    endloop
  endfacet
  facet normal 0.218133 0 0.975919
    outer loop
      vertex 0.926111 0 14.2767
      vertex 0.880641 16.4 14.2869
      vertex 0.880641 0 14.2869
    endloop
  endfacet
  facet normal 0.0941136 0 0.995561
    outer loop
      vertex 0.788236 16.4 14.2985
      vertex 0.834621 0 14.2942
      vertex 0.834621 16.4 14.2942
    endloop
  endfacet
  facet normal 0.0941136 0 0.995561
    outer loop
      vertex 0.834621 0 14.2942
      vertex 0.788236 16.4 14.2985
      vertex 0.788236 0 14.2985
    endloop
  endfacet
  facet normal -0.661305 0 0.750117
    outer loop
      vertex 0.23396 16.4 14.099
      vertex 0.26891 0 14.1298
      vertex 0.26891 16.4 14.1298
    endloop
  endfacet
  facet normal -0.661305 0 0.750117
    outer loop
      vertex 0.26891 0 14.1298
      vertex 0.23396 16.4 14.099
      vertex 0.23396 0 14.099
    endloop
  endfacet
  facet normal -0.56208 0 0.827083
    outer loop
      vertex 0.305725 16.4 14.1584
      vertex 0.344261 0 14.1845
      vertex 0.344261 16.4 14.1845
    endloop
  endfacet
  facet normal -0.56208 0 0.827083
    outer loop
      vertex 0.344261 0 14.1845
      vertex 0.305725 16.4 14.1584
      vertex 0.305725 0 14.1584
    endloop
  endfacet
  facet normal -0.453988 0 0.891008
    outer loop
      vertex 0.384365 16.4 14.2083
      vertex 0.425879 0 14.2294
      vertex 0.425879 16.4 14.2294
    endloop
  endfacet
  facet normal -0.453988 0 0.891008
    outer loop
      vertex 0.425879 0 14.2294
      vertex 0.384365 16.4 14.2083
      vertex 0.384365 0 14.2083
    endloop
  endfacet
  facet normal -0.338729 0 0.940884
    outer loop
      vertex 0.46864 16.4 14.2479
      vertex 0.512479 0 14.2637
      vertex 0.512479 16.4 14.2637
    endloop
  endfacet
  facet normal -0.338729 0 0.940884
    outer loop
      vertex 0.512479 0 14.2637
      vertex 0.46864 16.4 14.2479
      vertex 0.46864 0 14.2479
    endloop
  endfacet
  facet normal -0.218133 0 0.975919
    outer loop
      vertex 0.557221 16.4 14.2767
      vertex 0.602692 0 14.2869
      vertex 0.602692 16.4 14.2869
    endloop
  endfacet
  facet normal -0.218133 0 0.975919
    outer loop
      vertex 0.602692 0 14.2869
      vertex 0.557221 16.4 14.2767
      vertex 0.557221 0 14.2767
    endloop
  endfacet
  facet normal -0.031399 0 0.999507
    outer loop
      vertex 0.695097 16.4 14.2985
      vertex 0.741666 0 14.3
      vertex 0.741666 16.4 14.3
    endloop
  endfacet
  facet normal -0.031399 0 0.999507
    outer loop
      vertex 0.741666 0 14.3
      vertex 0.695097 16.4 14.2985
      vertex 0.695097 0 14.2985
    endloop
  endfacet
  facet normal -0.891008 0 0.453988
    outer loop
      vertex 0.0705862 0 13.8741
      vertex 0.0917387 16.4 13.9156
      vertex 0.0705862 16.4 13.8741
    endloop
  endfacet
  facet normal -0.891008 0 0.453988
    outer loop
      vertex 0.0917387 16.4 13.9156
      vertex 0.0705862 0 13.8741
      vertex 0.0917387 0 13.9156
    endloop
  endfacet
  facet normal -0.827076 0 0.562089
    outer loop
      vertex 0.115457 0 13.9557
      vertex 0.141645 16.4 13.9943
      vertex 0.115457 16.4 13.9557
    endloop
  endfacet
  facet normal -0.827076 0 0.562089
    outer loop
      vertex 0.141645 16.4 13.9943
      vertex 0.115457 0 13.9557
      vertex 0.141645 0 13.9943
    endloop
  endfacet
  facet normal -0.790158 0 0.612903
    outer loop
      vertex 0.141645 0 13.9943
      vertex 0.170202 16.4 14.0311
      vertex 0.141645 16.4 13.9943
    endloop
  endfacet
  facet normal -0.790158 0 0.612903
    outer loop
      vertex 0.170202 16.4 14.0311
      vertex 0.141645 0 13.9943
      vertex 0.170202 0 14.0311
    endloop
  endfacet
  facet normal -0.707107 0 0.707107
    outer loop
      vertex 0.201015 0 14.066
      vertex 0.23396 16.4 14.099
      vertex 0.201015 16.4 14.066
    endloop
  endfacet
  facet normal -0.707107 0 0.707107
    outer loop
      vertex 0.23396 16.4 14.099
      vertex 0.201015 0 14.066
      vertex 0.23396 0 14.099
    endloop
  endfacet
  facet normal -0.96029 0 0.279003
    outer loop
      vertex 0.0233002 0 13.7428
      vertex 0.0362997 16.4 13.7875
      vertex 0.0233002 16.4 13.7428
    endloop
  endfacet
  facet normal -0.96029 0 0.279003
    outer loop
      vertex 0.0362997 16.4 13.7875
      vertex 0.0233002 0 13.7428
      vertex 0.0362997 0 13.7875
    endloop
  endfacet
  facet normal -0.917752 0 0.397153
    outer loop
      vertex 0.0520821 0 13.8314
      vertex 0.0705862 16.4 13.8741
      vertex 0.0520821 16.4 13.8314
    endloop
  endfacet
  facet normal -0.917752 0 0.397153
    outer loop
      vertex 0.0705862 16.4 13.8741
      vertex 0.0520821 0 13.8314
      vertex 0.0705862 0 13.8741
    endloop
  endfacet
  facet normal -0.987688 0 0.156438
    outer loop
      vertex 0.00584793 0 13.6513
      vertex 0.0131369 16.4 13.6973
      vertex 0.00584793 16.4 13.6513
    endloop
  endfacet
  facet normal -0.987688 0 0.156438
    outer loop
      vertex 0.0131369 16.4 13.6973
      vertex 0.00584793 0 13.6513
      vertex 0.0131369 0 13.6973
    endloop
  endfacet
  facet normal 0.790158 -0 0.612903
    outer loop
      vertex 1.31313 0 14.0311
      vertex 1.34169 16.4 13.9943
      vertex 1.31313 16.4 14.0311
    endloop
  endfacet
  facet normal 0.790158 0 0.612903
    outer loop
      vertex 1.34169 16.4 13.9943
      vertex 1.31313 0 14.0311
      vertex 1.34169 0 13.9943
    endloop
  endfacet
  facet normal 0.891008 -0 0.453988
    outer loop
      vertex 1.39159 0 13.9156
      vertex 1.41275 16.4 13.8741
      vertex 1.39159 16.4 13.9156
    endloop
  endfacet
  facet normal 0.891008 0 0.453988
    outer loop
      vertex 1.41275 16.4 13.8741
      vertex 1.39159 0 13.9156
      vertex 1.41275 0 13.8741
    endloop
  endfacet
  facet normal 0.940884 -0 0.338729
    outer loop
      vertex 1.43125 0 13.8314
      vertex 1.44703 16.4 13.7875
      vertex 1.43125 16.4 13.8314
    endloop
  endfacet
  facet normal 0.940884 0 0.338729
    outer loop
      vertex 1.44703 16.4 13.7875
      vertex 1.43125 0 13.8314
      vertex 1.44703 0 13.7875
    endloop
  endfacet
  facet normal 0.96029 -0 0.279003
    outer loop
      vertex 1.44703 0 13.7875
      vertex 1.46003 16.4 13.7428
      vertex 1.44703 16.4 13.7875
    endloop
  endfacet
  facet normal 0.96029 0 0.279003
    outer loop
      vertex 1.46003 16.4 13.7428
      vertex 1.44703 0 13.7875
      vertex 1.46003 0 13.7428
    endloop
  endfacet
  facet normal 0.999507 -0 0.0313983
    outer loop
      vertex 1.48187 0 13.6049
      vertex 1.48333 16.4 13.5583
      vertex 1.48187 16.4 13.6049
    endloop
  endfacet
  facet normal 0.999507 0 0.0313983
    outer loop
      vertex 1.48333 16.4 13.5583
      vertex 1.48187 0 13.6049
      vertex 1.48333 0 13.5583
    endloop
  endfacet
  facet normal 0.562089 0 0.827076
    outer loop
      vertex 1.13907 16.4 14.1845
      vertex 1.17761 0 14.1584
      vertex 1.17761 16.4 14.1584
    endloop
  endfacet
  facet normal 0.562089 0 0.827076
    outer loop
      vertex 1.17761 0 14.1584
      vertex 1.13907 16.4 14.1845
      vertex 1.13907 0 14.1845
    endloop
  endfacet
  facet normal 0.453988 0 0.891008
    outer loop
      vertex 1.05745 16.4 14.2294
      vertex 1.09897 0 14.2083
      vertex 1.09897 16.4 14.2083
    endloop
  endfacet
  facet normal 0.453988 0 0.891008
    outer loop
      vertex 1.09897 0 14.2083
      vertex 1.05745 16.4 14.2294
      vertex 1.05745 0 14.2294
    endloop
  endfacet
  facet normal 0.50904 0 0.860743
    outer loop
      vertex 1.09897 16.4 14.2083
      vertex 1.13907 0 14.1845
      vertex 1.13907 16.4 14.1845
    endloop
  endfacet
  facet normal 0.50904 0 0.860743
    outer loop
      vertex 1.13907 0 14.1845
      vertex 1.09897 16.4 14.2083
      vertex 1.09897 0 14.2083
    endloop
  endfacet
  facet normal 0.661316 0 0.750108
    outer loop
      vertex 1.21442 16.4 14.1298
      vertex 1.24937 0 14.099
      vertex 1.24937 16.4 14.099
    endloop
  endfacet
  facet normal 0.661316 0 0.750108
    outer loop
      vertex 1.24937 0 14.099
      vertex 1.21442 16.4 14.1298
      vertex 1.21442 0 14.1298
    endloop
  endfacet
  facet normal 0.397153 0 0.917752
    outer loop
      vertex 1.01469 16.4 14.2479
      vertex 1.05745 0 14.2294
      vertex 1.05745 16.4 14.2294
    endloop
  endfacet
  facet normal 0.397153 0 0.917752
    outer loop
      vertex 1.05745 0 14.2294
      vertex 1.01469 16.4 14.2479
      vertex 1.01469 0 14.2479
    endloop
  endfacet
  facet normal 0.279003 0 0.96029
    outer loop
      vertex 0.926111 16.4 14.2767
      vertex 0.970854 0 14.2637
      vertex 0.970854 16.4 14.2637
    endloop
  endfacet
  facet normal 0.279003 0 0.96029
    outer loop
      vertex 0.970854 0 14.2637
      vertex 0.926111 16.4 14.2767
      vertex 0.926111 0 14.2767
    endloop
  endfacet
  facet normal 0.338729 0 0.940884
    outer loop
      vertex 0.970854 16.4 14.2637
      vertex 1.01469 0 14.2479
      vertex 1.01469 16.4 14.2479
    endloop
  endfacet
  facet normal 0.338729 0 0.940884
    outer loop
      vertex 1.01469 0 14.2479
      vertex 0.970854 16.4 14.2637
      vertex 0.970854 0 14.2637
    endloop
  endfacet
  facet normal 0.156438 0 0.987688
    outer loop
      vertex 0.834621 16.4 14.2942
      vertex 0.880641 0 14.2869
      vertex 0.880641 16.4 14.2869
    endloop
  endfacet
  facet normal 0.156438 0 0.987688
    outer loop
      vertex 0.880641 0 14.2869
      vertex 0.834621 16.4 14.2942
      vertex 0.834621 0 14.2942
    endloop
  endfacet
  facet normal -0.612913 0 0.790151
    outer loop
      vertex 0.26891 16.4 14.1298
      vertex 0.305725 0 14.1584
      vertex 0.305725 16.4 14.1584
    endloop
  endfacet
  facet normal -0.612913 0 0.790151
    outer loop
      vertex 0.305725 0 14.1584
      vertex 0.26891 16.4 14.1298
      vertex 0.26891 0 14.1298
    endloop
  endfacet
  facet normal -0.397146 0 0.917756
    outer loop
      vertex 0.425879 16.4 14.2294
      vertex 0.46864 0 14.2479
      vertex 0.46864 16.4 14.2479
    endloop
  endfacet
  facet normal -0.397146 0 0.917756
    outer loop
      vertex 0.46864 0 14.2479
      vertex 0.425879 16.4 14.2294
      vertex 0.425879 0 14.2294
    endloop
  endfacet
  facet normal -0.279003 0 0.96029
    outer loop
      vertex 0.512479 16.4 14.2637
      vertex 0.557221 0 14.2767
      vertex 0.557221 16.4 14.2767
    endloop
  endfacet
  facet normal -0.279003 0 0.96029
    outer loop
      vertex 0.557221 0 14.2767
      vertex 0.512479 16.4 14.2637
      vertex 0.512479 0 14.2637
    endloop
  endfacet
  facet normal -0.860743 0 0.50904
    outer loop
      vertex 0.0917387 0 13.9156
      vertex 0.115457 16.4 13.9557
      vertex 0.0917387 16.4 13.9156
    endloop
  endfacet
  facet normal -0.860743 0 0.50904
    outer loop
      vertex 0.115457 16.4 13.9557
      vertex 0.0917387 0 13.9156
      vertex 0.115457 0 13.9557
    endloop
  endfacet
  facet normal -0.750117 0 0.661305
    outer loop
      vertex 0.170202 0 14.0311
      vertex 0.201015 16.4 14.066
      vertex 0.170202 16.4 14.0311
    endloop
  endfacet
  facet normal -0.750117 0 0.661305
    outer loop
      vertex 0.201015 16.4 14.066
      vertex 0.170202 0 14.0311
      vertex 0.201015 0 14.066
    endloop
  endfacet
  facet normal -0.940884 0 0.338729
    outer loop
      vertex 0.0362997 0 13.7875
      vertex 0.0520821 16.4 13.8314
      vertex 0.0362997 16.4 13.7875
    endloop
  endfacet
  facet normal -0.940884 0 0.338729
    outer loop
      vertex 0.0520821 16.4 13.8314
      vertex 0.0362997 0 13.7875
      vertex 0.0520821 0 13.8314
    endloop
  endfacet
  facet normal 0.827076 -0 0.562089
    outer loop
      vertex 1.34169 0 13.9943
      vertex 1.36788 16.4 13.9557
      vertex 1.34169 16.4 13.9943
    endloop
  endfacet
  facet normal 0.827076 0 0.562089
    outer loop
      vertex 1.36788 16.4 13.9557
      vertex 1.34169 0 13.9943
      vertex 1.36788 0 13.9557
    endloop
  endfacet
  facet normal 0.917752 -0 0.397153
    outer loop
      vertex 1.41275 0 13.8741
      vertex 1.43125 16.4 13.8314
      vertex 1.41275 16.4 13.8741
    endloop
  endfacet
  facet normal 0.917752 0 0.397153
    outer loop
      vertex 1.43125 16.4 13.8314
      vertex 1.41275 0 13.8741
      vertex 1.43125 0 13.8314
    endloop
  endfacet
  facet normal 0.987688 -0 0.156438
    outer loop
      vertex 1.4702 0 13.6973
      vertex 1.47748 16.4 13.6513
      vertex 1.4702 16.4 13.6973
    endloop
  endfacet
  facet normal 0.987688 0 0.156438
    outer loop
      vertex 1.47748 16.4 13.6513
      vertex 1.4702 0 13.6973
      vertex 1.47748 0 13.6513
    endloop
  endfacet
endsolid OpenSCAD_Model
