  0
SECTION
  2
BLOCKS
  0
ENDSEC
  0
SECTION
  2
ENTITIES
  0
LINE
  8
0
 10
6.14999
 20
-21.5
 11
5.05624
 21
-21.5
  0
LINE
  8
0
 10
5.05624
 20
-21.5
 11
5.05624
 21
-15
  0
LINE
  8
0
 10
5.05624
 20
-15
 11
6.14999
 21
-15
  0
LINE
  8
0
 10
6.14999
 20
-15
 11
6.14999
 21
-14
  0
LINE
  8
0
 10
6.14999
 20
-14
 11
6
 21
-14
  0
LINE
  8
0
 10
6
 20
-14
 11
6
 21
-7
  0
LINE
  8
0
 10
6
 20
-7
 11
10.4425
 21
-7
  0
LINE
  8
0
 10
10.4425
 20
-7
 11
10.4425
 21
0
  0
LINE
  8
0
 10
10.4425
 20
0
 11
-10.4425
 21
0
  0
LINE
  8
0
 10
-10.4425
 20
0
 11
-10.4425
 21
-7
  0
LINE
  8
0
 10
-10.4425
 20
-7
 11
-6
 21
-7
  0
LINE
  8
0
 10
-6
 20
-7
 11
-6
 21
-14
  0
LINE
  8
0
 10
-6
 20
-14
 11
-6.14999
 21
-14
  0
LINE
  8
0
 10
-6.14999
 20
-14
 11
-6.14999
 21
-15
  0
LINE
  8
0
 10
-6.14999
 20
-15
 11
-5.05624
 21
-15
  0
LINE
  8
0
 10
-5.05624
 20
-15
 11
-5.05624
 21
-21.5
  0
LINE
  8
0
 10
-5.05624
 20
-21.5
 11
-6.14999
 21
-21.5
  0
LINE
  8
0
 10
-6.14999
 20
-21.5
 11
-6.14999
 21
-22.5
  0
LINE
  8
0
 10
-6.14999
 20
-22.5
 11
6.14999
 21
-22.5
  0
LINE
  8
0
 10
6.14999
 20
-22.5
 11
6.14999
 21
-21.5
  0
ENDSEC
  0
SECTION
  2
OBJECTS
  0
DICTIONARY
  0
ENDSEC
  0
EOF
