  0
SECTION
  2
BLOCKS
  0
ENDSEC
  0
SECTION
  2
ENTITIES
  0
LINE
  8
0
 10
-144
 20
-228
 11
-144
 21
-252
  0
LINE
  8
0
 10
-144
 20
-252
 11
-60
 21
-252
  0
LINE
  8
0
 10
-60
 20
-252
 11
-60
 21
-300
  0
LINE
  8
0
 10
-60
 20
-300
 11
-36
 21
-300
  0
LINE
  8
0
 10
-36
 20
-300
 11
-36
 21
-252
  0
LINE
  8
0
 10
-36
 20
-252
 11
36
 21
-252
  0
LINE
  8
0
 10
36
 20
-252
 11
36
 21
-330
  0
LINE
  8
0
 10
36
 20
-330
 11
60
 21
-330
  0
LINE
  8
0
 10
60
 20
-330
 11
60
 21
-252
  0
LINE
  8
0
 10
60
 20
-252
 11
144
 21
-252
  0
LINE
  8
0
 10
144
 20
-252
 11
144
 21
-228
  0
LINE
  8
0
 10
144
 20
-228
 11
120
 21
-228
  0
LINE
  8
0
 10
120
 20
-228
 11
120
 21
0
  0
LINE
  8
0
 10
120
 20
0
 11
119.763
 21
7.53485
  0
LINE
  8
0
 10
119.763
 20
7.53485
 11
119.054
 21
15.04
  0
LINE
  8
0
 10
119.054
 20
15.04
 11
117.874
 21
22.4857
  0
LINE
  8
0
 10
117.874
 20
22.4857
 11
116.23
 21
29.8428
  0
LINE
  8
0
 10
116.23
 20
29.8428
 11
114.127
 21
37.082
  0
LINE
  8
0
 10
114.127
 20
37.082
 11
111.573
 21
44.1749
  0
LINE
  8
0
 10
111.573
 20
44.1749
 11
108.579
 21
51.0935
  0
LINE
  8
0
 10
108.579
 20
51.0935
 11
105.157
 21
57.8104
  0
LINE
  8
0
 10
105.157
 20
57.8104
 11
101.319
 21
64.2992
  0
LINE
  8
0
 10
101.319
 20
64.2992
 11
97.082
 21
70.5342
  0
LINE
  8
0
 10
97.082
 20
70.5342
 11
92.4615
 21
76.4908
  0
LINE
  8
0
 10
92.4615
 20
76.4908
 11
87.4762
 21
82.1456
  0
LINE
  8
0
 10
87.4762
 20
82.1456
 11
82.1456
 21
87.4762
  0
LINE
  8
0
 10
82.1456
 20
87.4762
 11
76.4908
 21
92.4615
  0
LINE
  8
0
 10
76.4908
 20
92.4615
 11
70.5342
 21
97.082
  0
LINE
  8
0
 10
70.5342
 20
97.082
 11
64.2992
 21
101.319
  0
LINE
  8
0
 10
64.2992
 20
101.319
 11
57.8104
 21
105.157
  0
LINE
  8
0
 10
57.8104
 20
105.157
 11
51.0935
 21
108.579
  0
LINE
  8
0
 10
51.0935
 20
108.579
 11
44.1749
 21
111.573
  0
LINE
  8
0
 10
44.1749
 20
111.573
 11
37.082
 21
114.127
  0
LINE
  8
0
 10
37.082
 20
114.127
 11
29.8428
 21
116.23
  0
LINE
  8
0
 10
29.8428
 20
116.23
 11
22.4857
 21
117.874
  0
LINE
  8
0
 10
22.4857
 20
117.874
 11
15.04
 21
119.054
  0
LINE
  8
0
 10
15.04
 20
119.054
 11
7.53485
 21
119.763
  0
LINE
  8
0
 10
7.53485
 20
119.763
 11
0
 21
120
  0
LINE
  8
0
 10
0
 20
120
 11
-7.53485
 21
119.763
  0
LINE
  8
0
 10
-7.53485
 20
119.763
 11
-15.04
 21
119.054
  0
LINE
  8
0
 10
-15.04
 20
119.054
 11
-22.4857
 21
117.874
  0
LINE
  8
0
 10
-22.4857
 20
117.874
 11
-29.8428
 21
116.23
  0
LINE
  8
0
 10
-29.8428
 20
116.23
 11
-37.082
 21
114.127
  0
LINE
  8
0
 10
-37.082
 20
114.127
 11
-44.1749
 21
111.573
  0
LINE
  8
0
 10
-44.1749
 20
111.573
 11
-51.0935
 21
108.579
  0
LINE
  8
0
 10
-51.0935
 20
108.579
 11
-57.8104
 21
105.157
  0
LINE
  8
0
 10
-57.8104
 20
105.157
 11
-64.2992
 21
101.319
  0
LINE
  8
0
 10
-64.2992
 20
101.319
 11
-70.5342
 21
97.082
  0
LINE
  8
0
 10
-70.5342
 20
97.082
 11
-76.4908
 21
92.4615
  0
LINE
  8
0
 10
-76.4908
 20
92.4615
 11
-82.1456
 21
87.4762
  0
LINE
  8
0
 10
-82.1456
 20
87.4762
 11
-87.4762
 21
82.1456
  0
LINE
  8
0
 10
-87.4762
 20
82.1456
 11
-92.4615
 21
76.4908
  0
LINE
  8
0
 10
-92.4615
 20
76.4908
 11
-97.082
 21
70.5342
  0
LINE
  8
0
 10
-97.082
 20
70.5342
 11
-101.319
 21
64.2992
  0
LINE
  8
0
 10
-101.319
 20
64.2992
 11
-105.157
 21
57.8104
  0
LINE
  8
0
 10
-105.157
 20
57.8104
 11
-108.579
 21
51.0935
  0
LINE
  8
0
 10
-108.579
 20
51.0935
 11
-111.573
 21
44.1749
  0
LINE
  8
0
 10
-111.573
 20
44.1749
 11
-114.127
 21
37.082
  0
LINE
  8
0
 10
-114.127
 20
37.082
 11
-116.23
 21
29.8428
  0
LINE
  8
0
 10
-116.23
 20
29.8428
 11
-117.874
 21
22.4857
  0
LINE
  8
0
 10
-117.874
 20
22.4857
 11
-119.054
 21
15.04
  0
LINE
  8
0
 10
-119.054
 20
15.04
 11
-119.763
 21
7.53485
  0
LINE
  8
0
 10
-119.763
 20
7.53485
 11
-120
 21
0
  0
LINE
  8
0
 10
-120
 20
0
 11
-120
 21
-228
  0
LINE
  8
0
 10
-120
 20
-228
 11
-144
 21
-228
  0
LINE
  8
0
 10
35.2465
 20
-11.9763
 11
34.496
 21
-11.9053
  0
LINE
  8
0
 10
34.496
 20
-11.9053
 11
33.7515
 21
-11.7874
  0
LINE
  8
0
 10
33.7515
 20
-11.7874
 11
33.0157
 21
-11.623
  0
LINE
  8
0
 10
33.0157
 20
-11.623
 11
32.2918
 21
-11.4127
  0
LINE
  8
0
 10
32.2918
 20
-11.4127
 11
31.5825
 21
-11.1573
  0
LINE
  8
0
 10
31.5825
 20
-11.1573
 11
30.8907
 21
-10.8579
  0
LINE
  8
0
 10
30.8907
 20
-10.8579
 11
30.219
 21
-10.5156
  0
LINE
  8
0
 10
30.219
 20
-10.5156
 11
29.5701
 21
-10.1319
  0
LINE
  8
0
 10
29.5701
 20
-10.1319
 11
28.9466
 21
-9.70819
  0
LINE
  8
0
 10
28.9466
 20
-9.70819
 11
28.351
 21
-9.24615
  0
LINE
  8
0
 10
28.351
 20
-9.24615
 11
27.7855
 21
-8.74762
  0
LINE
  8
0
 10
27.7855
 20
-8.74762
 11
27.2524
 21
-8.21454
  0
LINE
  8
0
 10
27.2524
 20
-8.21454
 11
26.7538
 21
-7.64905
  0
LINE
  8
0
 10
26.7538
 20
-7.64905
 11
26.2918
 21
-7.05341
  0
LINE
  8
0
 10
26.2918
 20
-7.05341
 11
25.8681
 21
-6.42987
  0
LINE
  8
0
 10
25.8681
 20
-6.42987
 11
25.4844
 21
-5.78101
  0
LINE
  8
0
 10
25.4844
 20
-5.78101
 11
25.1421
 21
-5.10931
  0
LINE
  8
0
 10
25.1421
 20
-5.10931
 11
24.8427
 21
-4.41748
  0
LINE
  8
0
 10
24.8427
 20
-4.41748
 11
24.5873
 21
-3.70819
  0
LINE
  8
0
 10
24.5873
 20
-3.70819
 11
24.377
 21
-2.98425
  0
LINE
  8
0
 10
24.377
 20
-2.98425
 11
24.2126
 21
-2.24854
  0
LINE
  8
0
 10
24.2126
 20
-2.24854
 11
24.0947
 21
-1.50397
  0
LINE
  8
0
 10
24.0947
 20
-1.50397
 11
24.0237
 21
-0.753479
  0
LINE
  8
0
 10
24.0237
 20
-0.753479
 11
24
 21
0
  0
LINE
  8
0
 10
24
 20
0
 11
24.0237
 21
0.753479
  0
LINE
  8
0
 10
24.0237
 20
0.753479
 11
24.0947
 21
1.50397
  0
LINE
  8
0
 10
24.0947
 20
1.50397
 11
24.2126
 21
2.24854
  0
LINE
  8
0
 10
24.2126
 20
2.24854
 11
24.377
 21
2.98425
  0
LINE
  8
0
 10
24.377
 20
2.98425
 11
24.5873
 21
3.70819
  0
LINE
  8
0
 10
24.5873
 20
3.70819
 11
24.8427
 21
4.41748
  0
LINE
  8
0
 10
24.8427
 20
4.41748
 11
25.1421
 21
5.10931
  0
LINE
  8
0
 10
25.1421
 20
5.10931
 11
25.4844
 21
5.78101
  0
LINE
  8
0
 10
25.4844
 20
5.78101
 11
25.8681
 21
6.42987
  0
LINE
  8
0
 10
25.8681
 20
6.42987
 11
26.2918
 21
7.05341
  0
LINE
  8
0
 10
26.2918
 20
7.05341
 11
26.7538
 21
7.64905
  0
LINE
  8
0
 10
26.7538
 20
7.64905
 11
27.2524
 21
8.21454
  0
LINE
  8
0
 10
27.2524
 20
8.21454
 11
27.7855
 21
8.74762
  0
LINE
  8
0
 10
27.7855
 20
8.74762
 11
28.351
 21
9.24615
  0
LINE
  8
0
 10
28.351
 20
9.24615
 11
28.9466
 21
9.70819
  0
LINE
  8
0
 10
28.9466
 20
9.70819
 11
29.5701
 21
10.1319
  0
LINE
  8
0
 10
29.5701
 20
10.1319
 11
30.219
 21
10.5156
  0
LINE
  8
0
 10
30.219
 20
10.5156
 11
30.8907
 21
10.8579
  0
LINE
  8
0
 10
30.8907
 20
10.8579
 11
31.5825
 21
11.1573
  0
LINE
  8
0
 10
31.5825
 20
11.1573
 11
32.2918
 21
11.4127
  0
LINE
  8
0
 10
32.2918
 20
11.4127
 11
33.0157
 21
11.623
  0
LINE
  8
0
 10
33.0157
 20
11.623
 11
33.7515
 21
11.7874
  0
LINE
  8
0
 10
33.7515
 20
11.7874
 11
34.496
 21
11.9053
  0
LINE
  8
0
 10
34.496
 20
11.9053
 11
35.2465
 21
11.9763
  0
LINE
  8
0
 10
35.2465
 20
11.9763
 11
36
 21
12
  0
LINE
  8
0
 10
36
 20
12
 11
36.7535
 21
11.9763
  0
LINE
  8
0
 10
36.7535
 20
11.9763
 11
37.504
 21
11.9053
  0
LINE
  8
0
 10
37.504
 20
11.9053
 11
38.2485
 21
11.7874
  0
LINE
  8
0
 10
38.2485
 20
11.7874
 11
38.9843
 21
11.623
  0
LINE
  8
0
 10
38.9843
 20
11.623
 11
39.7082
 21
11.4127
  0
LINE
  8
0
 10
39.7082
 20
11.4127
 11
40.4175
 21
11.1573
  0
LINE
  8
0
 10
40.4175
 20
11.1573
 11
41.1093
 21
10.8579
  0
LINE
  8
0
 10
41.1093
 20
10.8579
 11
41.781
 21
10.5156
  0
LINE
  8
0
 10
41.781
 20
10.5156
 11
42.4299
 21
10.1319
  0
LINE
  8
0
 10
42.4299
 20
10.1319
 11
43.0534
 21
9.70819
  0
LINE
  8
0
 10
43.0534
 20
9.70819
 11
43.649
 21
9.24615
  0
LINE
  8
0
 10
43.649
 20
9.24615
 11
44.2145
 21
8.74762
  0
LINE
  8
0
 10
44.2145
 20
8.74762
 11
44.7476
 21
8.21454
  0
LINE
  8
0
 10
44.7476
 20
8.21454
 11
45.2462
 21
7.64905
  0
LINE
  8
0
 10
45.2462
 20
7.64905
 11
45.7082
 21
7.05341
  0
LINE
  8
0
 10
45.7082
 20
7.05341
 11
46.1319
 21
6.42987
  0
LINE
  8
0
 10
46.1319
 20
6.42987
 11
46.5156
 21
5.78101
  0
LINE
  8
0
 10
46.5156
 20
5.78101
 11
46.8579
 21
5.10931
  0
LINE
  8
0
 10
46.8579
 20
5.10931
 11
47.1573
 21
4.41748
  0
LINE
  8
0
 10
47.1573
 20
4.41748
 11
47.4127
 21
3.70819
  0
LINE
  8
0
 10
47.4127
 20
3.70819
 11
47.623
 21
2.98425
  0
LINE
  8
0
 10
47.623
 20
2.98425
 11
47.7874
 21
2.24854
  0
LINE
  8
0
 10
47.7874
 20
2.24854
 11
47.9053
 21
1.50397
  0
LINE
  8
0
 10
47.9053
 20
1.50397
 11
47.9763
 21
0.753479
  0
LINE
  8
0
 10
47.9763
 20
0.753479
 11
48
 21
0
  0
LINE
  8
0
 10
48
 20
0
 11
47.9763
 21
-0.753479
  0
LINE
  8
0
 10
47.9763
 20
-0.753479
 11
47.9053
 21
-1.50397
  0
LINE
  8
0
 10
47.9053
 20
-1.50397
 11
47.7874
 21
-2.24854
  0
LINE
  8
0
 10
47.7874
 20
-2.24854
 11
47.623
 21
-2.98425
  0
LINE
  8
0
 10
47.623
 20
-2.98425
 11
47.4127
 21
-3.70819
  0
LINE
  8
0
 10
47.4127
 20
-3.70819
 11
47.1573
 21
-4.41748
  0
LINE
  8
0
 10
47.1573
 20
-4.41748
 11
46.8579
 21
-5.10931
  0
LINE
  8
0
 10
46.8579
 20
-5.10931
 11
46.5156
 21
-5.78101
  0
LINE
  8
0
 10
46.5156
 20
-5.78101
 11
46.1319
 21
-6.42987
  0
LINE
  8
0
 10
46.1319
 20
-6.42987
 11
45.7082
 21
-7.05341
  0
LINE
  8
0
 10
45.7082
 20
-7.05341
 11
45.2462
 21
-7.64905
  0
LINE
  8
0
 10
45.2462
 20
-7.64905
 11
44.7476
 21
-8.21454
  0
LINE
  8
0
 10
44.7476
 20
-8.21454
 11
44.2145
 21
-8.74762
  0
LINE
  8
0
 10
44.2145
 20
-8.74762
 11
43.649
 21
-9.24615
  0
LINE
  8
0
 10
43.649
 20
-9.24615
 11
43.0534
 21
-9.70819
  0
LINE
  8
0
 10
43.0534
 20
-9.70819
 11
42.4299
 21
-10.1319
  0
LINE
  8
0
 10
42.4299
 20
-10.1319
 11
41.781
 21
-10.5156
  0
LINE
  8
0
 10
41.781
 20
-10.5156
 11
41.1093
 21
-10.8579
  0
LINE
  8
0
 10
41.1093
 20
-10.8579
 11
40.4175
 21
-11.1573
  0
LINE
  8
0
 10
40.4175
 20
-11.1573
 11
39.7082
 21
-11.4127
  0
LINE
  8
0
 10
39.7082
 20
-11.4127
 11
38.9843
 21
-11.623
  0
LINE
  8
0
 10
38.9843
 20
-11.623
 11
38.2485
 21
-11.7874
  0
LINE
  8
0
 10
38.2485
 20
-11.7874
 11
37.504
 21
-11.9053
  0
LINE
  8
0
 10
37.504
 20
-11.9053
 11
36.7535
 21
-11.9763
  0
LINE
  8
0
 10
36.7535
 20
-11.9763
 11
36
 21
-12
  0
LINE
  8
0
 10
36
 20
-12
 11
35.2465
 21
-11.9763
  0
LINE
  8
0
 10
-96
 20
-228
 11
-96
 21
-180
  0
LINE
  8
0
 10
-96
 20
-180
 11
96
 21
-180
  0
LINE
  8
0
 10
96
 20
-180
 11
96
 21
-228
  0
LINE
  8
0
 10
96
 20
-228
 11
-96
 21
-228
  0
LINE
  8
0
 10
-95.243
 20
12.032
 11
-94.2996
 21
17.9886
  0
LINE
  8
0
 10
-94.2996
 20
17.9886
 11
-92.9839
 21
23.8742
  0
LINE
  8
0
 10
-92.9839
 20
23.8742
 11
-91.3014
 21
29.6656
  0
LINE
  8
0
 10
-91.3014
 20
29.6656
 11
-89.2585
 21
35.3399
  0
LINE
  8
0
 10
-89.2585
 20
35.3399
 11
-86.8633
 21
40.8748
  0
LINE
  8
0
 10
-86.8633
 20
40.8748
 11
-84.1254
 21
46.2484
  0
LINE
  8
0
 10
-84.1254
 20
46.2484
 11
-81.0554
 21
51.4393
  0
LINE
  8
0
 10
-81.0554
 20
51.4393
 11
-77.6656
 21
56.4274
  0
LINE
  8
0
 10
-77.6656
 20
56.4274
 11
-73.9692
 21
61.1927
  0
LINE
  8
0
 10
-73.9692
 20
61.1927
 11
-69.981
 21
65.7165
  0
LINE
  8
0
 10
-69.981
 20
65.7165
 11
-65.7165
 21
69.981
  0
LINE
  8
0
 10
-65.7165
 20
69.981
 11
-61.1927
 21
73.9692
  0
LINE
  8
0
 10
-61.1927
 20
73.9692
 11
-56.4274
 21
77.6656
  0
LINE
  8
0
 10
-56.4274
 20
77.6656
 11
-51.4393
 21
81.0554
  0
LINE
  8
0
 10
-51.4393
 20
81.0554
 11
-46.2484
 21
84.1254
  0
LINE
  8
0
 10
-46.2484
 20
84.1254
 11
-40.8748
 21
86.8633
  0
LINE
  8
0
 10
-40.8748
 20
86.8633
 11
-35.3399
 21
89.2585
  0
LINE
  8
0
 10
-35.3399
 20
89.2585
 11
-29.6656
 21
91.3014
  0
LINE
  8
0
 10
-29.6656
 20
91.3014
 11
-23.8742
 21
92.9839
  0
LINE
  8
0
 10
-23.8742
 20
92.9839
 11
-17.9886
 21
94.2996
  0
LINE
  8
0
 10
-17.9886
 20
94.2996
 11
-12.032
 21
95.243
  0
LINE
  8
0
 10
-12.032
 20
95.243
 11
-6.02783
 21
95.8105
  0
LINE
  8
0
 10
-6.02783
 20
95.8105
 11
0
 21
96
  0
LINE
  8
0
 10
0
 20
96
 11
6.02783
 21
95.8105
  0
LINE
  8
0
 10
6.02783
 20
95.8105
 11
12.032
 21
95.243
  0
LINE
  8
0
 10
12.032
 20
95.243
 11
17.9886
 21
94.2996
  0
LINE
  8
0
 10
17.9886
 20
94.2996
 11
23.8742
 21
92.9839
  0
LINE
  8
0
 10
23.8742
 20
92.9839
 11
29.6656
 21
91.3014
  0
LINE
  8
0
 10
29.6656
 20
91.3014
 11
35.3399
 21
89.2585
  0
LINE
  8
0
 10
35.3399
 20
89.2585
 11
40.8748
 21
86.8633
  0
LINE
  8
0
 10
40.8748
 20
86.8633
 11
46.2484
 21
84.1254
  0
LINE
  8
0
 10
46.2484
 20
84.1254
 11
51.4393
 21
81.0554
  0
LINE
  8
0
 10
51.4393
 20
81.0554
 11
56.4274
 21
77.6656
  0
LINE
  8
0
 10
56.4274
 20
77.6656
 11
61.1927
 21
73.9692
  0
LINE
  8
0
 10
61.1927
 20
73.9692
 11
65.7165
 21
69.981
  0
LINE
  8
0
 10
65.7165
 20
69.981
 11
69.981
 21
65.7165
  0
LINE
  8
0
 10
69.981
 20
65.7165
 11
73.9692
 21
61.1927
  0
LINE
  8
0
 10
73.9692
 20
61.1927
 11
77.6656
 21
56.4274
  0
LINE
  8
0
 10
77.6656
 20
56.4274
 11
81.0554
 21
51.4393
  0
LINE
  8
0
 10
81.0554
 20
51.4393
 11
84.1254
 21
46.2484
  0
LINE
  8
0
 10
84.1254
 20
46.2484
 11
86.8633
 21
40.8748
  0
LINE
  8
0
 10
86.8633
 20
40.8748
 11
89.2585
 21
35.3399
  0
LINE
  8
0
 10
89.2585
 20
35.3399
 11
91.3014
 21
29.6656
  0
LINE
  8
0
 10
91.3014
 20
29.6656
 11
92.9839
 21
23.8742
  0
LINE
  8
0
 10
92.9839
 20
23.8742
 11
93.9207
 21
19.6836
  0
LINE
  8
0
 10
93.9207
 20
19.6836
 11
59.9969
 21
0.0977783
  0
LINE
  8
0
 10
59.9969
 20
0.0977783
 11
59.9526
 21
1.50696
  0
LINE
  8
0
 10
59.9526
 20
1.50696
 11
59.8107
 21
3.008
  0
LINE
  8
0
 10
59.8107
 20
3.008
 11
59.5749
 21
4.49713
  0
LINE
  8
0
 10
59.5749
 20
4.49713
 11
59.246
 21
5.96851
  0
LINE
  8
0
 10
59.246
 20
5.96851
 11
58.8253
 21
7.41638
  0
LINE
  8
0
 10
58.8253
 20
7.41638
 11
58.3146
 21
8.83496
  0
LINE
  8
0
 10
58.3146
 20
8.83496
 11
57.7158
 21
10.2187
  0
LINE
  8
0
 10
57.7158
 20
10.2187
 11
57.0313
 21
11.5621
  0
LINE
  8
0
 10
57.0313
 20
11.5621
 11
56.2639
 21
12.8598
  0
LINE
  8
0
 10
56.2639
 20
12.8598
 11
55.4164
 21
14.1068
  0
LINE
  8
0
 10
55.4164
 20
14.1068
 11
54.4923
 21
15.2982
  0
LINE
  8
0
 10
54.4923
 20
15.2982
 11
53.4952
 21
16.4291
  0
LINE
  8
0
 10
53.4952
 20
16.4291
 11
52.4291
 21
17.4952
  0
LINE
  8
0
 10
52.4291
 20
17.4952
 11
51.2982
 21
18.4923
  0
LINE
  8
0
 10
51.2982
 20
18.4923
 11
50.1068
 21
19.4164
  0
LINE
  8
0
 10
50.1068
 20
19.4164
 11
48.8598
 21
20.2639
  0
LINE
  8
0
 10
48.8598
 20
20.2639
 11
47.5621
 21
21.0313
  0
LINE
  8
0
 10
47.5621
 20
21.0313
 11
46.2187
 21
21.7158
  0
LINE
  8
0
 10
46.2187
 20
21.7158
 11
44.835
 21
22.3146
  0
LINE
  8
0
 10
44.835
 20
22.3146
 11
43.4164
 21
22.8253
  0
LINE
  8
0
 10
43.4164
 20
22.8253
 11
41.9685
 21
23.246
  0
LINE
  8
0
 10
41.9685
 20
23.246
 11
40.4971
 21
23.5749
  0
LINE
  8
0
 10
40.4971
 20
23.5749
 11
39.008
 21
23.8107
  0
LINE
  8
0
 10
39.008
 20
23.8107
 11
37.507
 21
23.9526
  0
LINE
  8
0
 10
37.507
 20
23.9526
 11
36
 21
24
  0
LINE
  8
0
 10
36
 20
24
 11
34.493
 21
23.9526
  0
LINE
  8
0
 10
34.493
 20
23.9526
 11
32.992
 21
23.8107
  0
LINE
  8
0
 10
32.992
 20
23.8107
 11
31.5029
 21
23.5749
  0
LINE
  8
0
 10
31.5029
 20
23.5749
 11
30.0315
 21
23.246
  0
LINE
  8
0
 10
30.0315
 20
23.246
 11
28.5836
 21
22.8253
  0
LINE
  8
0
 10
28.5836
 20
22.8253
 11
27.165
 21
22.3146
  0
LINE
  8
0
 10
27.165
 20
22.3146
 11
25.7813
 21
21.7158
  0
LINE
  8
0
 10
25.7813
 20
21.7158
 11
24.4379
 21
21.0313
  0
LINE
  8
0
 10
24.4379
 20
21.0313
 11
23.1402
 21
20.2639
  0
LINE
  8
0
 10
23.1402
 20
20.2639
 11
21.8932
 21
19.4164
  0
LINE
  8
0
 10
21.8932
 20
19.4164
 11
20.7018
 21
18.4923
  0
LINE
  8
0
 10
20.7018
 20
18.4923
 11
19.5709
 21
17.4952
  0
LINE
  8
0
 10
19.5709
 20
17.4952
 11
18.5048
 21
16.4291
  0
LINE
  8
0
 10
18.5048
 20
16.4291
 11
17.5077
 21
15.2982
  0
LINE
  8
0
 10
17.5077
 20
15.2982
 11
16.5836
 21
14.1068
  0
LINE
  8
0
 10
16.5836
 20
14.1068
 11
15.7361
 21
12.8598
  0
LINE
  8
0
 10
15.7361
 20
12.8598
 11
14.9687
 21
11.5621
  0
LINE
  8
0
 10
14.9687
 20
11.5621
 11
14.2842
 21
10.2187
  0
LINE
  8
0
 10
14.2842
 20
10.2187
 11
13.6854
 21
8.83496
  0
LINE
  8
0
 10
13.6854
 20
8.83496
 11
13.1747
 21
7.41638
  0
LINE
  8
0
 10
13.1747
 20
7.41638
 11
12.754
 21
5.96851
  0
LINE
  8
0
 10
12.754
 20
5.96851
 11
12.4251
 21
4.49713
  0
LINE
  8
0
 10
12.4251
 20
4.49713
 11
12.1893
 21
3.008
  0
LINE
  8
0
 10
12.1893
 20
3.008
 11
12.0474
 21
1.50696
  0
LINE
  8
0
 10
12.0474
 20
1.50696
 11
12
 21
0
  0
LINE
  8
0
 10
12
 20
0
 11
12.0474
 21
-1.50696
  0
LINE
  8
0
 10
12.0474
 20
-1.50696
 11
12.1893
 21
-3.008
  0
LINE
  8
0
 10
12.1893
 20
-3.008
 11
12.4251
 21
-4.49713
  0
LINE
  8
0
 10
12.4251
 20
-4.49713
 11
12.754
 21
-5.96851
  0
LINE
  8
0
 10
12.754
 20
-5.96851
 11
13.1747
 21
-7.41638
  0
LINE
  8
0
 10
13.1747
 20
-7.41638
 11
13.6854
 21
-8.83496
  0
LINE
  8
0
 10
13.6854
 20
-8.83496
 11
14.2842
 21
-10.2187
  0
LINE
  8
0
 10
14.2842
 20
-10.2187
 11
14.9687
 21
-11.5621
  0
LINE
  8
0
 10
14.9687
 20
-11.5621
 11
15.7361
 21
-12.8598
  0
LINE
  8
0
 10
15.7361
 20
-12.8598
 11
16.5836
 21
-14.1068
  0
LINE
  8
0
 10
16.5836
 20
-14.1068
 11
17.5077
 21
-15.2982
  0
LINE
  8
0
 10
17.5077
 20
-15.2982
 11
18.5048
 21
-16.4291
  0
LINE
  8
0
 10
18.5048
 20
-16.4291
 11
19.5709
 21
-17.4952
  0
LINE
  8
0
 10
19.5709
 20
-17.4952
 11
20.7018
 21
-18.4923
  0
LINE
  8
0
 10
20.7018
 20
-18.4923
 11
21.8932
 21
-19.4164
  0
LINE
  8
0
 10
21.8932
 20
-19.4164
 11
23.1402
 21
-20.2639
  0
LINE
  8
0
 10
23.1402
 20
-20.2639
 11
24.4379
 21
-21.0313
  0
LINE
  8
0
 10
24.4379
 20
-21.0313
 11
25.7813
 21
-21.7158
  0
LINE
  8
0
 10
25.7813
 20
-21.7158
 11
27.165
 21
-22.3146
  0
LINE
  8
0
 10
27.165
 20
-22.3146
 11
28.5836
 21
-22.8253
  0
LINE
  8
0
 10
28.5836
 20
-22.8253
 11
30.0315
 21
-23.246
  0
LINE
  8
0
 10
30.0315
 20
-23.246
 11
31.5029
 21
-23.5749
  0
LINE
  8
0
 10
31.5029
 20
-23.5749
 11
32.992
 21
-23.8107
  0
LINE
  8
0
 10
32.992
 20
-23.8107
 11
34.493
 21
-23.9526
  0
LINE
  8
0
 10
34.493
 20
-23.9526
 11
36
 21
-24
  0
LINE
  8
0
 10
36
 20
-24
 11
37.507
 21
-23.9526
  0
LINE
  8
0
 10
37.507
 20
-23.9526
 11
39.008
 21
-23.8107
  0
LINE
  8
0
 10
39.008
 20
-23.8107
 11
40.4971
 21
-23.5749
  0
LINE
  8
0
 10
40.4971
 20
-23.5749
 11
41.9685
 21
-23.246
  0
LINE
  8
0
 10
41.9685
 20
-23.246
 11
43.4164
 21
-22.8253
  0
LINE
  8
0
 10
43.4164
 20
-22.8253
 11
44.835
 21
-22.3146
  0
LINE
  8
0
 10
44.835
 20
-22.3146
 11
46.2187
 21
-21.7158
  0
LINE
  8
0
 10
46.2187
 20
-21.7158
 11
47.5621
 21
-21.0313
  0
LINE
  8
0
 10
47.5621
 20
-21.0313
 11
48.8598
 21
-20.2639
  0
LINE
  8
0
 10
48.8598
 20
-20.2639
 11
49.5955
 21
-19.7639
  0
LINE
  8
0
 10
49.5955
 20
-19.7639
 11
95.7307
 21
6.87225
  0
LINE
  8
0
 10
95.7307
 20
6.87225
 11
95.8105
 21
6.02783
  0
LINE
  8
0
 10
95.8105
 20
6.02783
 11
96
 21
0
  0
LINE
  8
0
 10
96
 20
0
 11
96
 21
-156
  0
LINE
  8
0
 10
96
 20
-156
 11
-96
 21
-156
  0
LINE
  8
0
 10
-96
 20
-156
 11
-96
 21
0
  0
LINE
  8
0
 10
-96
 20
0
 11
-95.8105
 21
6.02783
  0
LINE
  8
0
 10
-95.8105
 20
6.02783
 11
-95.243
 21
12.032
  0
ENDSEC
  0
SECTION
  2
OBJECTS
  0
DICTIONARY
  0
ENDSEC
  0
EOF
