  0
SECTION
  2
BLOCKS
  0
ENDSEC
  0
SECTION
  2
ENTITIES
  0
LINE
  8
0
 10
1.2558
 20
-19.9605
 11
2.50665
 21
-19.8423
  0
LINE
  8
0
 10
2.50665
 20
-19.8423
 11
3.74762
 21
-19.6457
  0
LINE
  8
0
 10
3.74762
 20
-19.6457
 11
4.97379
 21
-19.3717
  0
LINE
  8
0
 10
4.97379
 20
-19.3717
 11
6.18033
 21
-19.0211
  0
LINE
  8
0
 10
6.18033
 20
-19.0211
 11
7.36249
 21
-18.5955
  0
LINE
  8
0
 10
7.36249
 20
-18.5955
 11
8.51558
 21
-18.0965
  0
LINE
  8
0
 10
8.51558
 20
-18.0965
 11
9.63507
 21
-17.5261
  0
LINE
  8
0
 10
9.63507
 20
-17.5261
 11
10.7165
 21
-16.8866
  0
LINE
  8
0
 10
10.7165
 20
-16.8866
 11
11.7557
 21
-16.1803
  0
LINE
  8
0
 10
11.7557
 20
-16.1803
 11
12.7485
 21
-15.4103
  0
LINE
  8
0
 10
12.7485
 20
-15.4103
 11
13.6909
 21
-14.5794
  0
LINE
  8
0
 10
13.6909
 20
-14.5794
 11
14.5794
 21
-13.6909
  0
LINE
  8
0
 10
14.5794
 20
-13.6909
 11
15.4103
 21
-12.7485
  0
LINE
  8
0
 10
15.4103
 20
-12.7485
 11
16.1803
 21
-11.7557
  0
LINE
  8
0
 10
16.1803
 20
-11.7557
 11
16.8866
 21
-10.7165
  0
LINE
  8
0
 10
16.8866
 20
-10.7165
 11
17.5261
 21
-9.63507
  0
LINE
  8
0
 10
17.5261
 20
-9.63507
 11
18.0965
 21
-8.51558
  0
LINE
  8
0
 10
18.0965
 20
-8.51558
 11
18.5955
 21
-7.36249
  0
LINE
  8
0
 10
18.5955
 20
-7.36249
 11
19.0211
 21
-6.18033
  0
LINE
  8
0
 10
19.0211
 20
-6.18033
 11
19.3717
 21
-4.97379
  0
LINE
  8
0
 10
19.3717
 20
-4.97379
 11
19.6457
 21
-3.74762
  0
LINE
  8
0
 10
19.6457
 20
-3.74762
 11
19.8423
 21
-2.50665
  0
LINE
  8
0
 10
19.8423
 20
-2.50665
 11
19.9605
 21
-1.2558
  0
LINE
  8
0
 10
19.9605
 20
-1.2558
 11
20
 21
0
  0
LINE
  8
0
 10
20
 20
0
 11
19.9605
 21
1.2558
  0
LINE
  8
0
 10
19.9605
 20
1.2558
 11
19.8423
 21
2.50665
  0
LINE
  8
0
 10
19.8423
 20
2.50665
 11
19.6457
 21
3.74762
  0
LINE
  8
0
 10
19.6457
 20
3.74762
 11
19.3717
 21
4.97379
  0
LINE
  8
0
 10
19.3717
 20
4.97379
 11
19.0211
 21
6.18033
  0
LINE
  8
0
 10
19.0211
 20
6.18033
 11
18.5955
 21
7.36249
  0
LINE
  8
0
 10
18.5955
 20
7.36249
 11
18.0965
 21
8.51558
  0
LINE
  8
0
 10
18.0965
 20
8.51558
 11
17.5261
 21
9.63507
  0
LINE
  8
0
 10
17.5261
 20
9.63507
 11
8.76306
 21
24.8175
  0
LINE
  8
0
 10
8.76306
 20
24.8175
 11
8.44327
 21
25.3583
  0
LINE
  8
0
 10
8.44327
 20
25.3583
 11
8.09016
 21
25.8778
  0
LINE
  8
0
 10
8.09016
 20
25.8778
 11
7.70512
 21
26.3742
  0
LINE
  8
0
 10
7.70512
 20
26.3742
 11
7.28967
 21
26.8455
  0
LINE
  8
0
 10
7.28967
 20
26.8455
 11
6.84546
 21
27.2897
  0
LINE
  8
0
 10
6.84546
 20
27.2897
 11
6.37424
 21
27.7051
  0
LINE
  8
0
 10
6.37424
 20
27.7051
 11
5.87784
 21
28.0902
  0
LINE
  8
0
 10
5.87784
 20
28.0902
 11
5.35826
 21
28.4433
  0
LINE
  8
0
 10
5.35826
 20
28.4433
 11
4.81754
 21
28.7631
  0
LINE
  8
0
 10
4.81754
 20
28.7631
 11
4.25778
 21
29.0483
  0
LINE
  8
0
 10
4.25778
 20
29.0483
 11
3.68124
 21
29.2978
  0
LINE
  8
0
 10
3.68124
 20
29.2978
 11
3.09016
 21
29.5106
  0
LINE
  8
0
 10
3.09016
 20
29.5106
 11
2.48689
 21
29.6858
  0
LINE
  8
0
 10
2.48689
 20
29.6858
 11
1.87381
 21
29.8229
  0
LINE
  8
0
 10
1.87381
 20
29.8229
 11
1.25333
 21
29.9211
  0
LINE
  8
0
 10
1.25333
 20
29.9211
 11
0.627899
 21
29.9803
  0
LINE
  8
0
 10
0.627899
 20
29.9803
 11
0
 21
30
  0
LINE
  8
0
 10
0
 20
30
 11
-0.627899
 21
29.9803
  0
LINE
  8
0
 10
-0.627899
 20
29.9803
 11
-1.25333
 21
29.9211
  0
LINE
  8
0
 10
-1.25333
 20
29.9211
 11
-1.87381
 21
29.8229
  0
LINE
  8
0
 10
-1.87381
 20
29.8229
 11
-2.48689
 21
29.6858
  0
LINE
  8
0
 10
-2.48689
 20
29.6858
 11
-3.09016
 21
29.5106
  0
LINE
  8
0
 10
-3.09016
 20
29.5106
 11
-3.68124
 21
29.2978
  0
LINE
  8
0
 10
-3.68124
 20
29.2978
 11
-4.25778
 21
29.0483
  0
LINE
  8
0
 10
-4.25778
 20
29.0483
 11
-4.81754
 21
28.7631
  0
LINE
  8
0
 10
-4.81754
 20
28.7631
 11
-5.35826
 21
28.4433
  0
LINE
  8
0
 10
-5.35826
 20
28.4433
 11
-5.87784
 21
28.0902
  0
LINE
  8
0
 10
-5.87784
 20
28.0902
 11
-6.37424
 21
27.7051
  0
LINE
  8
0
 10
-6.37424
 20
27.7051
 11
-6.84546
 21
27.2897
  0
LINE
  8
0
 10
-6.84546
 20
27.2897
 11
-7.28967
 21
26.8455
  0
LINE
  8
0
 10
-7.28967
 20
26.8455
 11
-7.70512
 21
26.3742
  0
LINE
  8
0
 10
-7.70512
 20
26.3742
 11
-8.09016
 21
25.8778
  0
LINE
  8
0
 10
-8.09016
 20
25.8778
 11
-8.44327
 21
25.3583
  0
LINE
  8
0
 10
-8.44327
 20
25.3583
 11
-8.76306
 21
24.8175
  0
LINE
  8
0
 10
-8.76306
 20
24.8175
 11
-17.5261
 21
9.63507
  0
LINE
  8
0
 10
-17.5261
 20
9.63507
 11
-18.0965
 21
8.51558
  0
LINE
  8
0
 10
-18.0965
 20
8.51558
 11
-18.5955
 21
7.36249
  0
LINE
  8
0
 10
-18.5955
 20
7.36249
 11
-19.0211
 21
6.18033
  0
LINE
  8
0
 10
-19.0211
 20
6.18033
 11
-19.3717
 21
4.97379
  0
LINE
  8
0
 10
-19.3717
 20
4.97379
 11
-19.6457
 21
3.74762
  0
LINE
  8
0
 10
-19.6457
 20
3.74762
 11
-19.8423
 21
2.50665
  0
LINE
  8
0
 10
-19.8423
 20
2.50665
 11
-19.9605
 21
1.2558
  0
LINE
  8
0
 10
-19.9605
 20
1.2558
 11
-20
 21
0
  0
LINE
  8
0
 10
-20
 20
0
 11
-19.9605
 21
-1.2558
  0
LINE
  8
0
 10
-19.9605
 20
-1.2558
 11
-19.8423
 21
-2.50665
  0
LINE
  8
0
 10
-19.8423
 20
-2.50665
 11
-19.6457
 21
-3.74762
  0
LINE
  8
0
 10
-19.6457
 20
-3.74762
 11
-19.3717
 21
-4.97379
  0
LINE
  8
0
 10
-19.3717
 20
-4.97379
 11
-19.0211
 21
-6.18033
  0
LINE
  8
0
 10
-19.0211
 20
-6.18033
 11
-18.5955
 21
-7.36249
  0
LINE
  8
0
 10
-18.5955
 20
-7.36249
 11
-18.0965
 21
-8.51558
  0
LINE
  8
0
 10
-18.0965
 20
-8.51558
 11
-17.5261
 21
-9.63507
  0
LINE
  8
0
 10
-17.5261
 20
-9.63507
 11
-16.8866
 21
-10.7165
  0
LINE
  8
0
 10
-16.8866
 20
-10.7165
 11
-16.1803
 21
-11.7557
  0
LINE
  8
0
 10
-16.1803
 20
-11.7557
 11
-15.4103
 21
-12.7485
  0
LINE
  8
0
 10
-15.4103
 20
-12.7485
 11
-14.5794
 21
-13.6909
  0
LINE
  8
0
 10
-14.5794
 20
-13.6909
 11
-13.6909
 21
-14.5794
  0
LINE
  8
0
 10
-13.6909
 20
-14.5794
 11
-12.7485
 21
-15.4103
  0
LINE
  8
0
 10
-12.7485
 20
-15.4103
 11
-11.7557
 21
-16.1803
  0
LINE
  8
0
 10
-11.7557
 20
-16.1803
 11
-10.7165
 21
-16.8866
  0
LINE
  8
0
 10
-10.7165
 20
-16.8866
 11
-9.63507
 21
-17.5261
  0
LINE
  8
0
 10
-9.63507
 20
-17.5261
 11
-8.51558
 21
-18.0965
  0
LINE
  8
0
 10
-8.51558
 20
-18.0965
 11
-7.36249
 21
-18.5955
  0
LINE
  8
0
 10
-7.36249
 20
-18.5955
 11
-6.18033
 21
-19.0211
  0
LINE
  8
0
 10
-6.18033
 20
-19.0211
 11
-4.97379
 21
-19.3717
  0
LINE
  8
0
 10
-4.97379
 20
-19.3717
 11
-3.74762
 21
-19.6457
  0
LINE
  8
0
 10
-3.74762
 20
-19.6457
 11
-2.50665
 21
-19.8423
  0
LINE
  8
0
 10
-2.50665
 20
-19.8423
 11
-1.2558
 21
-19.9605
  0
LINE
  8
0
 10
-1.2558
 20
-19.9605
 11
0
 21
-20
  0
LINE
  8
0
 10
0
 20
-20
 11
1.2558
 21
-19.9605
  0
LINE
  8
0
 10
-0.18837
 20
17.0059
 11
-0.375992
 21
17.0237
  0
LINE
  8
0
 10
-0.375992
 20
17.0237
 11
-0.562134
 21
17.0531
  0
LINE
  8
0
 10
-0.562134
 20
17.0531
 11
-0.746063
 21
17.0942
  0
LINE
  8
0
 10
-0.746063
 20
17.0942
 11
-0.927048
 21
17.1468
  0
LINE
  8
0
 10
-0.927048
 20
17.1468
 11
-1.10437
 21
17.2107
  0
LINE
  8
0
 10
-1.10437
 20
17.2107
 11
-1.27733
 21
17.2855
  0
LINE
  8
0
 10
-1.27733
 20
17.2855
 11
-1.44525
 21
17.3711
  0
LINE
  8
0
 10
-1.44525
 20
17.3711
 11
-1.60747
 21
17.467
  0
LINE
  8
0
 10
-1.60747
 20
17.467
 11
-1.76335
 21
17.5729
  0
LINE
  8
0
 10
-1.76335
 20
17.5729
 11
-1.91226
 21
17.6884
  0
LINE
  8
0
 10
-1.91226
 20
17.6884
 11
-2.05363
 21
17.8131
  0
LINE
  8
0
 10
-2.05363
 20
17.8131
 11
-2.1869
 21
17.9464
  0
LINE
  8
0
 10
-2.1869
 20
17.9464
 11
-2.31154
 21
18.0877
  0
LINE
  8
0
 10
-2.31154
 20
18.0877
 11
-2.42705
 21
18.2366
  0
LINE
  8
0
 10
-2.42705
 20
18.2366
 11
-2.53297
 21
18.3925
  0
LINE
  8
0
 10
-2.53297
 20
18.3925
 11
-2.62891
 21
18.5547
  0
LINE
  8
0
 10
-2.62891
 20
18.5547
 11
-2.71448
 21
18.7227
  0
LINE
  8
0
 10
-2.71448
 20
18.7227
 11
-2.78932
 21
18.8956
  0
LINE
  8
0
 10
-2.78932
 20
18.8956
 11
-2.85316
 21
19.0729
  0
LINE
  8
0
 10
-2.85316
 20
19.0729
 11
-2.90575
 21
19.2539
  0
LINE
  8
0
 10
-2.90575
 20
19.2539
 11
-2.94685
 21
19.4379
  0
LINE
  8
0
 10
-2.94685
 20
19.4379
 11
-2.97633
 21
19.624
  0
LINE
  8
0
 10
-2.97633
 20
19.624
 11
-2.99408
 21
19.8116
  0
LINE
  8
0
 10
-2.99408
 20
19.8116
 11
-3
 21
20
  0
LINE
  8
0
 10
-3
 20
20
 11
-2.99408
 21
20.1884
  0
LINE
  8
0
 10
-2.99408
 20
20.1884
 11
-2.97633
 21
20.376
  0
LINE
  8
0
 10
-2.97633
 20
20.376
 11
-2.94685
 21
20.5621
  0
LINE
  8
0
 10
-2.94685
 20
20.5621
 11
-2.90575
 21
20.7461
  0
LINE
  8
0
 10
-2.90575
 20
20.7461
 11
-2.85316
 21
20.927
  0
LINE
  8
0
 10
-2.85316
 20
20.927
 11
-2.78932
 21
21.1044
  0
LINE
  8
0
 10
-2.78932
 20
21.1044
 11
-2.71448
 21
21.2773
  0
LINE
  8
0
 10
-2.71448
 20
21.2773
 11
-2.62891
 21
21.4453
  0
LINE
  8
0
 10
-2.62891
 20
21.4453
 11
-2.53297
 21
21.6075
  0
LINE
  8
0
 10
-2.53297
 20
21.6075
 11
-2.42705
 21
21.7634
  0
LINE
  8
0
 10
-2.42705
 20
21.7634
 11
-2.31154
 21
21.9123
  0
LINE
  8
0
 10
-2.31154
 20
21.9123
 11
-2.1869
 21
22.0536
  0
LINE
  8
0
 10
-2.1869
 20
22.0536
 11
-2.05363
 21
22.1869
  0
LINE
  8
0
 10
-2.05363
 20
22.1869
 11
-1.91226
 21
22.3115
  0
LINE
  8
0
 10
-1.91226
 20
22.3115
 11
-1.76335
 21
22.427
  0
LINE
  8
0
 10
-1.76335
 20
22.427
 11
-1.60747
 21
22.533
  0
LINE
  8
0
 10
-1.60747
 20
22.533
 11
-1.44525
 21
22.6289
  0
LINE
  8
0
 10
-1.44525
 20
22.6289
 11
-1.27733
 21
22.7145
  0
LINE
  8
0
 10
-1.27733
 20
22.7145
 11
-1.10437
 21
22.7893
  0
LINE
  8
0
 10
-1.10437
 20
22.7893
 11
-0.927048
 21
22.8532
  0
LINE
  8
0
 10
-0.927048
 20
22.8532
 11
-0.746063
 21
22.9057
  0
LINE
  8
0
 10
-0.746063
 20
22.9057
 11
-0.562134
 21
22.9469
  0
LINE
  8
0
 10
-0.562134
 20
22.9469
 11
-0.375992
 21
22.9763
  0
LINE
  8
0
 10
-0.375992
 20
22.9763
 11
-0.18837
 21
22.9941
  0
LINE
  8
0
 10
-0.18837
 20
22.9941
 11
0
 21
23
  0
LINE
  8
0
 10
0
 20
23
 11
0.18837
 21
22.9941
  0
LINE
  8
0
 10
0.18837
 20
22.9941
 11
0.375992
 21
22.9763
  0
LINE
  8
0
 10
0.375992
 20
22.9763
 11
0.562134
 21
22.9469
  0
LINE
  8
0
 10
0.562134
 20
22.9469
 11
0.746063
 21
22.9057
  0
LINE
  8
0
 10
0.746063
 20
22.9057
 11
0.927048
 21
22.8532
  0
LINE
  8
0
 10
0.927048
 20
22.8532
 11
1.10437
 21
22.7893
  0
LINE
  8
0
 10
1.10437
 20
22.7893
 11
1.27733
 21
22.7145
  0
LINE
  8
0
 10
1.27733
 20
22.7145
 11
1.44525
 21
22.6289
  0
LINE
  8
0
 10
1.44525
 20
22.6289
 11
1.60747
 21
22.533
  0
LINE
  8
0
 10
1.60747
 20
22.533
 11
1.76335
 21
22.427
  0
LINE
  8
0
 10
1.76335
 20
22.427
 11
1.91226
 21
22.3115
  0
LINE
  8
0
 10
1.91226
 20
22.3115
 11
2.05363
 21
22.1869
  0
LINE
  8
0
 10
2.05363
 20
22.1869
 11
2.1869
 21
22.0536
  0
LINE
  8
0
 10
2.1869
 20
22.0536
 11
2.31154
 21
21.9123
  0
LINE
  8
0
 10
2.31154
 20
21.9123
 11
2.42705
 21
21.7634
  0
LINE
  8
0
 10
2.42705
 20
21.7634
 11
2.53297
 21
21.6075
  0
LINE
  8
0
 10
2.53297
 20
21.6075
 11
2.62891
 21
21.4453
  0
LINE
  8
0
 10
2.62891
 20
21.4453
 11
2.71448
 21
21.2773
  0
LINE
  8
0
 10
2.71448
 20
21.2773
 11
2.78932
 21
21.1044
  0
LINE
  8
0
 10
2.78932
 20
21.1044
 11
2.85316
 21
20.927
  0
LINE
  8
0
 10
2.85316
 20
20.927
 11
2.90575
 21
20.7461
  0
LINE
  8
0
 10
2.90575
 20
20.7461
 11
2.94685
 21
20.5621
  0
LINE
  8
0
 10
2.94685
 20
20.5621
 11
2.97633
 21
20.376
  0
LINE
  8
0
 10
2.97633
 20
20.376
 11
2.99408
 21
20.1884
  0
LINE
  8
0
 10
2.99408
 20
20.1884
 11
3
 21
20
  0
LINE
  8
0
 10
3
 20
20
 11
2.99408
 21
19.8116
  0
LINE
  8
0
 10
2.99408
 20
19.8116
 11
2.97633
 21
19.624
  0
LINE
  8
0
 10
2.97633
 20
19.624
 11
2.94685
 21
19.4379
  0
LINE
  8
0
 10
2.94685
 20
19.4379
 11
2.90575
 21
19.2539
  0
LINE
  8
0
 10
2.90575
 20
19.2539
 11
2.85316
 21
19.0729
  0
LINE
  8
0
 10
2.85316
 20
19.0729
 11
2.78932
 21
18.8956
  0
LINE
  8
0
 10
2.78932
 20
18.8956
 11
2.71448
 21
18.7227
  0
LINE
  8
0
 10
2.71448
 20
18.7227
 11
2.62891
 21
18.5547
  0
LINE
  8
0
 10
2.62891
 20
18.5547
 11
2.53297
 21
18.3925
  0
LINE
  8
0
 10
2.53297
 20
18.3925
 11
2.42705
 21
18.2366
  0
LINE
  8
0
 10
2.42705
 20
18.2366
 11
2.31154
 21
18.0877
  0
LINE
  8
0
 10
2.31154
 20
18.0877
 11
2.1869
 21
17.9464
  0
LINE
  8
0
 10
2.1869
 20
17.9464
 11
2.05363
 21
17.8131
  0
LINE
  8
0
 10
2.05363
 20
17.8131
 11
1.91226
 21
17.6884
  0
LINE
  8
0
 10
1.91226
 20
17.6884
 11
1.76335
 21
17.5729
  0
LINE
  8
0
 10
1.76335
 20
17.5729
 11
1.60747
 21
17.467
  0
LINE
  8
0
 10
1.60747
 20
17.467
 11
1.44525
 21
17.3711
  0
LINE
  8
0
 10
1.44525
 20
17.3711
 11
1.27733
 21
17.2855
  0
LINE
  8
0
 10
1.27733
 20
17.2855
 11
1.10437
 21
17.2107
  0
LINE
  8
0
 10
1.10437
 20
17.2107
 11
0.927048
 21
17.1468
  0
LINE
  8
0
 10
0.927048
 20
17.1468
 11
0.746063
 21
17.0942
  0
LINE
  8
0
 10
0.746063
 20
17.0942
 11
0.562134
 21
17.0531
  0
LINE
  8
0
 10
0.562134
 20
17.0531
 11
0.375992
 21
17.0237
  0
LINE
  8
0
 10
0.375992
 20
17.0237
 11
0.18837
 21
17.0059
  0
LINE
  8
0
 10
0.18837
 20
17.0059
 11
0
 21
17
  0
LINE
  8
0
 10
0
 20
17
 11
-0.18837
 21
17.0059
  0
LINE
  8
0
 10
-15.1399
 20
-3.9375
 11
-15.1399
 21
6.1745
  0
LINE
  8
0
 10
-15.1399
 20
6.1745
 11
-12.5159
 21
6.1745
  0
LINE
  8
0
 10
-12.5159
 20
6.1745
 11
-12.5159
 21
-3.9375
  0
LINE
  8
0
 10
-12.5159
 20
-3.9375
 11
-15.1399
 21
-3.9375
  0
LINE
  8
0
 10
-10.094
 20
-3.9375
 11
-10.094
 21
6.1745
  0
LINE
  8
0
 10
-10.094
 20
6.1745
 11
-3.05402
 21
6.1745
  0
LINE
  8
0
 10
-3.05402
 20
6.1745
 11
-3.05402
 21
4.25449
  0
LINE
  8
0
 10
-3.05402
 20
4.25449
 11
-7.47002
 21
4.25449
  0
LINE
  8
0
 10
-7.47002
 20
4.25449
 11
-7.47002
 21
2.27049
  0
LINE
  8
0
 10
-7.47002
 20
2.27049
 11
-3.31001
 21
2.27049
  0
LINE
  8
0
 10
-3.31001
 20
2.27049
 11
-3.31001
 21
0.35051
  0
LINE
  8
0
 10
-3.31001
 20
0.35051
 11
-7.47002
 21
0.35051
  0
LINE
  8
0
 10
-7.47002
 20
0.35051
 11
-7.47002
 21
-2.01749
  0
LINE
  8
0
 10
-7.47002
 20
-2.01749
 11
-2.92601
 21
-2.01749
  0
LINE
  8
0
 10
-2.92601
 20
-2.01749
 11
-2.92601
 21
-3.9375
  0
LINE
  8
0
 10
-2.92601
 20
-3.9375
 11
-10.094
 21
-3.9375
  0
LINE
  8
0
 10
-0.829361
 20
-3.9375
 11
-0.829361
 21
6.1745
  0
LINE
  8
0
 10
-0.829361
 20
6.1745
 11
6.21062
 21
6.1745
  0
LINE
  8
0
 10
6.21062
 20
6.1745
 11
6.21062
 21
4.25449
  0
LINE
  8
0
 10
6.21062
 20
4.25449
 11
1.79462
 21
4.25449
  0
LINE
  8
0
 10
1.79462
 20
4.25449
 11
1.79462
 21
2.27049
  0
LINE
  8
0
 10
1.79462
 20
2.27049
 11
5.95462
 21
2.27049
  0
LINE
  8
0
 10
5.95462
 20
2.27049
 11
5.95462
 21
0.35051
  0
LINE
  8
0
 10
5.95462
 20
0.35051
 11
1.79462
 21
0.35051
  0
LINE
  8
0
 10
1.79462
 20
0.35051
 11
1.79462
 21
-2.01749
  0
LINE
  8
0
 10
1.79462
 20
-2.01749
 11
6.33862
 21
-2.01749
  0
LINE
  8
0
 10
6.33862
 20
-2.01749
 11
6.33862
 21
-3.9375
  0
LINE
  8
0
 10
6.33862
 20
-3.9375
 11
-0.829361
 21
-3.9375
  0
LINE
  8
0
 10
8.43527
 20
-3.9375
 11
8.43527
 21
6.1745
  0
LINE
  8
0
 10
8.43527
 20
6.1745
 11
15.4753
 21
6.1745
  0
LINE
  8
0
 10
15.4753
 20
6.1745
 11
15.4753
 21
4.25449
  0
LINE
  8
0
 10
15.4753
 20
4.25449
 11
11.0593
 21
4.25449
  0
LINE
  8
0
 10
11.0593
 20
4.25449
 11
11.0593
 21
2.27049
  0
LINE
  8
0
 10
11.0593
 20
2.27049
 11
15.2193
 21
2.27049
  0
LINE
  8
0
 10
15.2193
 20
2.27049
 11
15.2193
 21
0.35051
  0
LINE
  8
0
 10
15.2193
 20
0.35051
 11
11.0593
 21
0.35051
  0
LINE
  8
0
 10
11.0593
 20
0.35051
 11
11.0593
 21
-2.01749
  0
LINE
  8
0
 10
11.0593
 20
-2.01749
 11
15.6033
 21
-2.01749
  0
LINE
  8
0
 10
15.6033
 20
-2.01749
 11
15.6033
 21
-3.9375
  0
LINE
  8
0
 10
15.6033
 20
-3.9375
 11
8.43527
 21
-3.9375
  0
LINE
  8
0
 10
5.50328
 20
-10.4062
 11
5.50328
 21
-5.35025
  0
LINE
  8
0
 10
5.50328
 20
-5.35025
 11
7.14827
 21
-5.35025
  0
LINE
  8
0
 10
7.14827
 20
-5.35025
 11
8.31627
 21
-8.06424
  0
LINE
  8
0
 10
8.31627
 20
-8.06424
 11
9.49028
 21
-5.35025
  0
LINE
  8
0
 10
9.49028
 20
-5.35025
 11
11.1353
 21
-5.35025
  0
LINE
  8
0
 10
11.1353
 20
-5.35025
 11
11.1353
 21
-10.4062
  0
LINE
  8
0
 10
11.1353
 20
-10.4062
 11
9.91928
 21
-10.4062
  0
LINE
  8
0
 10
9.91928
 20
-10.4062
 11
9.91928
 21
-6.71227
  0
LINE
  8
0
 10
9.91928
 20
-6.71227
 11
8.73828
 21
-9.44624
  0
LINE
  8
0
 10
8.73828
 20
-9.44624
 11
7.90027
 21
-9.44624
  0
LINE
  8
0
 10
7.90027
 20
-9.44624
 11
6.71927
 21
-6.71227
  0
LINE
  8
0
 10
6.71927
 20
-6.71227
 11
6.71927
 21
-10.4062
  0
LINE
  8
0
 10
6.71927
 20
-10.4062
 11
5.50328
 21
-10.4062
  0
LINE
  8
0
 10
-0.345169
 20
-10.4062
 11
1.53181
 21
-5.35025
  0
LINE
  8
0
 10
1.53181
 20
-5.35025
 11
3.08981
 21
-5.35025
  0
LINE
  8
0
 10
3.08981
 20
-5.35025
 11
4.96681
 21
-10.4062
  0
LINE
  8
0
 10
4.96681
 20
-10.4062
 11
3.65282
 21
-10.4062
  0
LINE
  8
0
 10
3.65282
 20
-10.4062
 11
3.33382
 21
-9.51024
  0
LINE
  8
0
 10
3.33382
 20
-9.51024
 11
1.29082
 21
-9.51024
  0
LINE
  8
0
 10
1.29082
 20
-9.51024
 11
0.968811
 21
-10.4062
  0
LINE
  8
0
 10
0.968811
 20
-10.4062
 11
-0.345169
 21
-10.4062
  0
LINE
  8
0
 10
2.31281
 20
-6.53625
 11
1.61681
 21
-8.55025
  0
LINE
  8
0
 10
1.61681
 20
-8.55025
 11
3.00481
 21
-8.55025
  0
LINE
  8
0
 10
3.00481
 20
-8.55025
 11
2.31281
 21
-6.53625
  0
LINE
  8
0
 10
-5.47034
 20
-10.4062
 11
-5.47034
 21
-5.35025
  0
LINE
  8
0
 10
-5.47034
 20
-5.35025
 11
-4.02835
 21
-5.35025
  0
LINE
  8
0
 10
-4.02835
 20
-5.35025
 11
-2.14235
 21
-8.81824
  0
LINE
  8
0
 10
-2.14235
 20
-8.81824
 11
-2.14235
 21
-5.35025
  0
LINE
  8
0
 10
-2.14235
 20
-5.35025
 11
-0.926346
 21
-5.35025
  0
LINE
  8
0
 10
-0.926346
 20
-5.35025
 11
-0.926346
 21
-10.4062
  0
LINE
  8
0
 10
-0.926346
 20
-10.4062
 11
-2.36835
 21
-10.4062
  0
LINE
  8
0
 10
-2.36835
 20
-10.4062
 11
-4.25435
 21
-6.93826
  0
LINE
  8
0
 10
-4.25435
 20
-6.93826
 11
-4.25435
 21
-10.4062
  0
LINE
  8
0
 10
-4.25435
 20
-10.4062
 11
-5.47034
 21
-10.4062
  0
LINE
  8
0
 10
-8.96474
 20
-10.5311
 11
-9.12617
 21
-10.5218
  0
LINE
  8
0
 10
-9.12617
 20
-10.5218
 11
-9.28088
 21
-10.5062
  0
LINE
  8
0
 10
-9.28088
 20
-10.5062
 11
-9.42885
 21
-10.4843
  0
LINE
  8
0
 10
-9.42885
 20
-10.4843
 11
-9.57008
 21
-10.4563
  0
LINE
  8
0
 10
-9.57008
 20
-10.4563
 11
-9.70459
 21
-10.422
  0
LINE
  8
0
 10
-9.70459
 20
-10.422
 11
-9.83237
 21
-10.3814
  0
LINE
  8
0
 10
-9.83237
 20
-10.3814
 11
-9.9534
 21
-10.3347
  0
LINE
  8
0
 10
-9.9534
 20
-10.3347
 11
-10.0677
 21
-10.2817
  0
LINE
  8
0
 10
-10.0677
 20
-10.2817
 11
-10.1753
 21
-10.2224
  0
LINE
  8
0
 10
-10.1753
 20
-10.2224
 11
-10.2761
 21
-10.1569
  0
LINE
  8
0
 10
-10.2761
 20
-10.1569
 11
-10.3702
 21
-10.0852
  0
LINE
  8
0
 10
-10.3702
 20
-10.0852
 11
-10.4576
 21
-10.0072
  0
LINE
  8
0
 10
-10.4576
 20
-10.0072
 11
-10.5382
 21
-9.92276
  0
LINE
  8
0
 10
-10.5382
 20
-9.92276
 11
-10.6124
 21
-9.83176
  0
LINE
  8
0
 10
-10.6124
 20
-9.83176
 11
-10.6801
 21
-9.73425
  0
LINE
  8
0
 10
-10.6801
 20
-9.73425
 11
-10.7414
 21
-9.63025
  0
LINE
  8
0
 10
-10.7414
 20
-9.63025
 11
-10.7962
 21
-9.51973
  0
LINE
  8
0
 10
-10.7962
 20
-9.51973
 11
-10.8446
 21
-9.40269
  0
LINE
  8
0
 10
-10.8446
 20
-9.40269
 11
-10.8865
 21
-9.27916
  0
LINE
  8
0
 10
-10.8865
 20
-9.27916
 11
-10.922
 21
-9.14911
  0
LINE
  8
0
 10
-10.922
 20
-9.14911
 11
-10.951
 21
-9.01256
  0
LINE
  8
0
 10
-10.951
 20
-9.01256
 11
-10.9735
 21
-8.86949
  0
LINE
  8
0
 10
-10.9735
 20
-8.86949
 11
-10.9897
 21
-8.71991
  0
LINE
  8
0
 10
-10.9897
 20
-8.71991
 11
-10.9993
 21
-8.56383
  0
LINE
  8
0
 10
-10.9993
 20
-8.56383
 11
-11.0026
 21
-8.40125
  0
LINE
  8
0
 10
-11.0026
 20
-8.40125
 11
-11.0026
 21
-5.35025
  0
LINE
  8
0
 10
-11.0026
 20
-5.35025
 11
-9.72256
 21
-5.35025
  0
LINE
  8
0
 10
-9.72256
 20
-5.35025
 11
-9.72256
 21
-8.40125
  0
LINE
  8
0
 10
-9.72256
 20
-8.40125
 11
-9.72128
 21
-8.49619
  0
LINE
  8
0
 10
-9.72128
 20
-8.49619
 11
-9.71744
 21
-8.58687
  0
LINE
  8
0
 10
-9.71744
 20
-8.58687
 11
-9.71101
 21
-8.67329
  0
LINE
  8
0
 10
-9.71101
 20
-8.67329
 11
-9.70203
 21
-8.75546
  0
LINE
  8
0
 10
-9.70203
 20
-8.75546
 11
-9.69048
 21
-8.83337
  0
LINE
  8
0
 10
-9.69048
 20
-8.83337
 11
-9.67635
 21
-8.90701
  0
LINE
  8
0
 10
-9.67635
 20
-8.90701
 11
-9.65965
 21
-8.97639
  0
LINE
  8
0
 10
-9.65965
 20
-8.97639
 11
-9.6404
 21
-9.04152
  0
LINE
  8
0
 10
-9.6404
 20
-9.04152
 11
-9.61856
 21
-9.10239
  0
LINE
  8
0
 10
-9.61856
 20
-9.10239
 11
-9.59416
 21
-9.159
  0
LINE
  8
0
 10
-9.59416
 20
-9.159
 11
-9.5672
 21
-9.21133
  0
LINE
  8
0
 10
-9.5672
 20
-9.21133
 11
-9.53767
 21
-9.25941
  0
LINE
  8
0
 10
-9.53767
 20
-9.25941
 11
-9.50557
 21
-9.30324
  0
LINE
  8
0
 10
-9.50557
 20
-9.30324
 11
-9.47057
 21
-9.34334
  0
LINE
  8
0
 10
-9.47057
 20
-9.34334
 11
-9.4323
 21
-9.38022
  0
LINE
  8
0
 10
-9.4323
 20
-9.38022
 11
-9.39078
 21
-9.41389
  0
LINE
  8
0
 10
-9.39078
 20
-9.41389
 11
-9.34599
 21
-9.44435
  0
LINE
  8
0
 10
-9.34599
 20
-9.44435
 11
-9.29797
 21
-9.47162
  0
LINE
  8
0
 10
-9.29797
 20
-9.47162
 11
-9.24669
 21
-9.49567
  0
LINE
  8
0
 10
-9.24669
 20
-9.49567
 11
-9.19214
 21
-9.51651
  0
LINE
  8
0
 10
-9.19214
 20
-9.51651
 11
-9.13435
 21
-9.53415
  0
LINE
  8
0
 10
-9.13435
 20
-9.53415
 11
-9.0733
 21
-9.54858
  0
LINE
  8
0
 10
-9.0733
 20
-9.54858
 11
-9.009
 21
-9.55981
  0
LINE
  8
0
 10
-9.009
 20
-9.55981
 11
-8.94145
 21
-9.56783
  0
LINE
  8
0
 10
-8.94145
 20
-9.56783
 11
-8.87064
 21
-9.57263
  0
LINE
  8
0
 10
-8.87064
 20
-9.57263
 11
-8.79657
 21
-9.57425
  0
LINE
  8
0
 10
-8.79657
 20
-9.57425
 11
-8.72191
 21
-9.57263
  0
LINE
  8
0
 10
-8.72191
 20
-9.57263
 11
-8.65056
 21
-9.56783
  0
LINE
  8
0
 10
-8.65056
 20
-9.56783
 11
-8.5825
 21
-9.55981
  0
LINE
  8
0
 10
-8.5825
 20
-9.55981
 11
-8.51776
 21
-9.54858
  0
LINE
  8
0
 10
-8.51776
 20
-9.54858
 11
-8.4563
 21
-9.53415
  0
LINE
  8
0
 10
-8.4563
 20
-9.53415
 11
-8.39816
 21
-9.51651
  0
LINE
  8
0
 10
-8.39816
 20
-9.51651
 11
-8.34331
 21
-9.49567
  0
LINE
  8
0
 10
-8.34331
 20
-9.49567
 11
-8.29176
 21
-9.47162
  0
LINE
  8
0
 10
-8.29176
 20
-9.47162
 11
-8.24353
 21
-9.44435
  0
LINE
  8
0
 10
-8.24353
 20
-9.44435
 11
-8.19858
 21
-9.41389
  0
LINE
  8
0
 10
-8.19858
 20
-9.41389
 11
-8.15694
 21
-9.38022
  0
LINE
  8
0
 10
-8.15694
 20
-9.38022
 11
-8.11861
 21
-9.34334
  0
LINE
  8
0
 10
-8.11861
 20
-9.34334
 11
-8.08357
 21
-9.30324
  0
LINE
  8
0
 10
-8.08357
 20
-9.30324
 11
-8.05147
 21
-9.25941
  0
LINE
  8
0
 10
-8.05147
 20
-9.25941
 11
-8.02194
 21
-9.21133
  0
LINE
  8
0
 10
-8.02194
 20
-9.21133
 11
-7.99498
 21
-9.159
  0
LINE
  8
0
 10
-7.99498
 20
-9.159
 11
-7.97058
 21
-9.10239
  0
LINE
  8
0
 10
-7.97058
 20
-9.10239
 11
-7.94875
 21
-9.04152
  0
LINE
  8
0
 10
-7.94875
 20
-9.04152
 11
-7.92949
 21
-8.97639
  0
LINE
  8
0
 10
-7.92949
 20
-8.97639
 11
-7.9128
 21
-8.90701
  0
LINE
  8
0
 10
-7.9128
 20
-8.90701
 11
-7.89867
 21
-8.83337
  0
LINE
  8
0
 10
-7.89867
 20
-8.83337
 11
-7.88712
 21
-8.75546
  0
LINE
  8
0
 10
-7.88712
 20
-8.75546
 11
-7.87813
 21
-8.67329
  0
LINE
  8
0
 10
-7.87813
 20
-8.67329
 11
-7.8717
 21
-8.58687
  0
LINE
  8
0
 10
-7.8717
 20
-8.58687
 11
-7.86786
 21
-8.49619
  0
LINE
  8
0
 10
-7.86786
 20
-8.49619
 11
-7.86658
 21
-8.40125
  0
LINE
  8
0
 10
-7.86658
 20
-8.40125
 11
-7.86658
 21
-5.35025
  0
LINE
  8
0
 10
-7.86658
 20
-5.35025
 11
-6.58656
 21
-5.35025
  0
LINE
  8
0
 10
-6.58656
 20
-5.35025
 11
-6.58656
 21
-8.40125
  0
LINE
  8
0
 10
-6.58656
 20
-8.40125
 11
-6.5898
 21
-8.56383
  0
LINE
  8
0
 10
-6.5898
 20
-8.56383
 11
-6.59949
 21
-8.71991
  0
LINE
  8
0
 10
-6.59949
 20
-8.71991
 11
-6.61565
 21
-8.86949
  0
LINE
  8
0
 10
-6.61565
 20
-8.86949
 11
-6.63826
 21
-9.01256
  0
LINE
  8
0
 10
-6.63826
 20
-9.01256
 11
-6.66734
 21
-9.14911
  0
LINE
  8
0
 10
-6.66734
 20
-9.14911
 11
-6.70288
 21
-9.27916
  0
LINE
  8
0
 10
-6.70288
 20
-9.27916
 11
-6.74487
 21
-9.40269
  0
LINE
  8
0
 10
-6.74487
 20
-9.40269
 11
-6.79333
 21
-9.51973
  0
LINE
  8
0
 10
-6.79333
 20
-9.51973
 11
-6.84827
 21
-9.63025
  0
LINE
  8
0
 10
-6.84827
 20
-9.63025
 11
-6.90965
 21
-9.73425
  0
LINE
  8
0
 10
-6.90965
 20
-9.73425
 11
-6.97749
 21
-9.83176
  0
LINE
  8
0
 10
-6.97749
 20
-9.83176
 11
-7.0518
 21
-9.92276
  0
LINE
  8
0
 10
-7.0518
 20
-9.92276
 11
-7.13257
 21
-10.0072
  0
LINE
  8
0
 10
-7.13257
 20
-10.0072
 11
-7.21982
 21
-10.0852
  0
LINE
  8
0
 10
-7.21982
 20
-10.0852
 11
-7.31384
 21
-10.1569
  0
LINE
  8
0
 10
-7.31384
 20
-10.1569
 11
-7.41467
 21
-10.2224
  0
LINE
  8
0
 10
-7.41467
 20
-10.2224
 11
-7.52229
 21
-10.2817
  0
LINE
  8
0
 10
-7.52229
 20
-10.2817
 11
-7.63672
 21
-10.3347
  0
LINE
  8
0
 10
-7.63672
 20
-10.3347
 11
-7.75792
 21
-10.3814
  0
LINE
  8
0
 10
-7.75792
 20
-10.3814
 11
-7.88593
 21
-10.422
  0
LINE
  8
0
 10
-7.88593
 20
-10.422
 11
-8.02071
 21
-10.4563
  0
LINE
  8
0
 10
-8.02071
 20
-10.4563
 11
-8.16229
 21
-10.4843
  0
LINE
  8
0
 10
-8.16229
 20
-10.4843
 11
-8.31068
 21
-10.5062
  0
LINE
  8
0
 10
-8.31068
 20
-10.5062
 11
-8.46585
 21
-10.5218
  0
LINE
  8
0
 10
-8.46585
 20
-10.5218
 11
-8.62781
 21
-10.5311
  0
LINE
  8
0
 10
-8.62781
 20
-10.5311
 11
-8.79657
 21
-10.5342
  0
LINE
  8
0
 10
-8.79657
 20
-10.5342
 11
-8.96474
 21
-10.5311
  0
ENDSEC
  0
SECTION
  2
OBJECTS
  0
DICTIONARY
  0
ENDSEC
  0
EOF
