solid OpenSCAD_Model
  facet normal 1 -0 0
    outer loop
      vertex 0 0 30
      vertex 0 5 0
      vertex 0 5 30
    endloop
  endfacet
  facet normal 1 0 0
    outer loop
      vertex 0 5 0
      vertex 0 0 30
      vertex 0 0 0
    endloop
  endfacet
  facet normal 0 0 1
    outer loop
      vertex 2.6 15 30
      vertex 0 5 30
      vertex 2.6 5 30
    endloop
  endfacet
  facet normal 0 0 1
    outer loop
      vertex -5 -5 30
      vertex 0 5 30
      vertex -5 15 30
    endloop
  endfacet
  facet normal -0 0 1
    outer loop
      vertex -5 15 30
      vertex 0 5 30
      vertex 2.6 15 30
    endloop
  endfacet
  facet normal 0 0 1
    outer loop
      vertex 2.11418 1.14805 30
      vertex 4.88582 1.14805 30
      vertex 4.07402 2.77164 30
    endloop
  endfacet
  facet normal -0 0 1
    outer loop
      vertex 4.88582 0 30
      vertex 15 -5 30
      vertex 15 0 30
    endloop
  endfacet
  facet normal 0 0 1
    outer loop
      vertex 2.11418 1.14805 30
      vertex 4.07402 2.77164 30
      vertex 2.92597 2.77164 30
    endloop
  endfacet
  facet normal 0 0 1
    outer loop
      vertex 4.88582 1.14805 30
      vertex 2.11418 1.14805 30
      vertex 4.88582 0 30
    endloop
  endfacet
  facet normal 0 0 1
    outer loop
      vertex 2.11418 0 30
      vertex 4.88582 0 30
      vertex 2.11418 1.14805 30
    endloop
  endfacet
  facet normal 0 0 1
    outer loop
      vertex -5 -5 30
      vertex 4.88582 0 30
      vertex 2.11418 0 30
    endloop
  endfacet
  facet normal 0 0 1
    outer loop
      vertex -5 -5 30
      vertex 2.11418 0 30
      vertex 0 0 30
    endloop
  endfacet
  facet normal 0 0 1
    outer loop
      vertex 4.88582 0 30
      vertex -5 -5 30
      vertex 15 -5 30
    endloop
  endfacet
  facet normal 0 0 1
    outer loop
      vertex 0 5 30
      vertex -5 -5 30
      vertex 0 0 30
    endloop
  endfacet
  facet normal 0 0 -1
    outer loop
      vertex 15 -5 0
      vertex 4.88582 0 0
      vertex 15 0 0
    endloop
  endfacet
  facet normal 0 0 -1
    outer loop
      vertex 2.11418 1.14805 0
      vertex 4.88582 1.14805 0
      vertex 4.88582 0 0
    endloop
  endfacet
  facet normal 0 0 -1
    outer loop
      vertex 4.88582 1.14805 0
      vertex 2.11418 1.14805 0
      vertex 4.07402 2.77164 0
    endloop
  endfacet
  facet normal 0 0 -1
    outer loop
      vertex 2.11418 1.14805 0
      vertex 4.88582 0 0
      vertex 2.11418 0 0
    endloop
  endfacet
  facet normal 0 0 -1
    outer loop
      vertex -5 -5 0
      vertex 4.88582 0 0
      vertex 15 -5 0
    endloop
  endfacet
  facet normal -0 0 -1
    outer loop
      vertex 4.88582 0 0
      vertex -5 -5 0
      vertex 2.11418 0 0
    endloop
  endfacet
  facet normal -0 0 -1
    outer loop
      vertex 0 0 0
      vertex -5 -5 0
      vertex 0 5 0
    endloop
  endfacet
  facet normal -0 0 -1
    outer loop
      vertex 2.11418 0 0
      vertex -5 -5 0
      vertex 0 0 0
    endloop
  endfacet
  facet normal -0 0 -1
    outer loop
      vertex 4.07402 2.77164 0
      vertex 2.11418 1.14805 0
      vertex 2.92597 2.77164 0
    endloop
  endfacet
  facet normal 0 0 -1
    outer loop
      vertex 0 5 0
      vertex 2.6 15 0
      vertex 2.6 5 0
    endloop
  endfacet
  facet normal 0 0 -1
    outer loop
      vertex -5 15 0
      vertex 0 5 0
      vertex -5 -5 0
    endloop
  endfacet
  facet normal 0 0 -1
    outer loop
      vertex 0 5 0
      vertex -5 15 0
      vertex 2.6 15 0
    endloop
  endfacet
  facet normal 0 1 -0
    outer loop
      vertex 2.11418 0 0
      vertex 0 0 30
      vertex 2.11418 0 30
    endloop
  endfacet
  facet normal 0 1 0
    outer loop
      vertex 0 0 30
      vertex 2.11418 0 0
      vertex 0 0 0
    endloop
  endfacet
  facet normal 0 1 -0
    outer loop
      vertex 15 0 0
      vertex 4.88582 0 30
      vertex 15 0 30
    endloop
  endfacet
  facet normal 0 1 0
    outer loop
      vertex 4.88582 0 30
      vertex 15 0 0
      vertex 4.88582 0 0
    endloop
  endfacet
  facet normal 0.894427 0.447214 0
    outer loop
      vertex 4.88582 1.14805 30
      vertex 4.07402 2.77164 0
      vertex 4.07402 2.77164 30
    endloop
  endfacet
  facet normal 0.894427 0.447214 0
    outer loop
      vertex 4.07402 2.77164 0
      vertex 4.88582 1.14805 30
      vertex 4.88582 1.14805 0
    endloop
  endfacet
  facet normal -1 0 0
    outer loop
      vertex 2.11418 0 0
      vertex 2.11418 1.14805 30
      vertex 2.11418 1.14805 0
    endloop
  endfacet
  facet normal -1 -0 0
    outer loop
      vertex 2.11418 1.14805 30
      vertex 2.11418 0 0
      vertex 2.11418 0 30
    endloop
  endfacet
  facet normal 0 1 -0
    outer loop
      vertex 4.07402 2.77164 0
      vertex 2.92597 2.77164 30
      vertex 4.07402 2.77164 30
    endloop
  endfacet
  facet normal 0 1 0
    outer loop
      vertex 2.92597 2.77164 30
      vertex 4.07402 2.77164 0
      vertex 2.92597 2.77164 0
    endloop
  endfacet
  facet normal -0.894427 0.447214 0
    outer loop
      vertex 2.11418 1.14805 0
      vertex 2.92597 2.77164 30
      vertex 2.92597 2.77164 0
    endloop
  endfacet
  facet normal -0.894427 0.447214 0
    outer loop
      vertex 2.92597 2.77164 30
      vertex 2.11418 1.14805 0
      vertex 2.11418 1.14805 30
    endloop
  endfacet
  facet normal 1 -0 0
    outer loop
      vertex 4.88582 0 30
      vertex 4.88582 1.14805 0
      vertex 4.88582 1.14805 30
    endloop
  endfacet
  facet normal 1 0 0
    outer loop
      vertex 4.88582 1.14805 0
      vertex 4.88582 0 30
      vertex 4.88582 0 0
    endloop
  endfacet
  facet normal 1 -0 0
    outer loop
      vertex 2.6 5 30
      vertex 2.6 15 0
      vertex 2.6 15 30
    endloop
  endfacet
  facet normal 1 0 0
    outer loop
      vertex 2.6 15 0
      vertex 2.6 5 30
      vertex 2.6 5 0
    endloop
  endfacet
  facet normal 0 -1 0
    outer loop
      vertex 0 5 0
      vertex 2.6 5 30
      vertex 0 5 30
    endloop
  endfacet
  facet normal 0 -1 -0
    outer loop
      vertex 2.6 5 30
      vertex 0 5 0
      vertex 2.6 5 0
    endloop
  endfacet
  facet normal -1 0 0
    outer loop
      vertex -5 -5 0
      vertex -5 15 30
      vertex -5 15 0
    endloop
  endfacet
  facet normal -1 -0 0
    outer loop
      vertex -5 15 30
      vertex -5 -5 0
      vertex -5 -5 30
    endloop
  endfacet
  facet normal 1 -0 0
    outer loop
      vertex 15 -5 30
      vertex 15 0 0
      vertex 15 0 30
    endloop
  endfacet
  facet normal 1 0 0
    outer loop
      vertex 15 0 0
      vertex 15 -5 30
      vertex 15 -5 0
    endloop
  endfacet
  facet normal 0 -1 0
    outer loop
      vertex -5 -5 0
      vertex 15 -5 30
      vertex -5 -5 30
    endloop
  endfacet
  facet normal 0 -1 -0
    outer loop
      vertex 15 -5 30
      vertex -5 -5 0
      vertex 15 -5 0
    endloop
  endfacet
  facet normal 0 1 -0
    outer loop
      vertex 2.6 15 0
      vertex -5 15 30
      vertex 2.6 15 30
    endloop
  endfacet
  facet normal 0 1 0
    outer loop
      vertex -5 15 30
      vertex 2.6 15 0
      vertex -5 15 0
    endloop
  endfacet
endsolid OpenSCAD_Model
