solid OpenSCAD_Model
  facet normal 0 0 -1
    outer loop
      vertex 55.2793 8.41623 0
      vertex 58.7132 7.49612 0
      vertex 58.2964 5.94099 0
    endloop
  endfacet
  facet normal -0 -0 -1
    outer loop
      vertex 45 0 0
      vertex 45 -8 0
      vertex 30 0 0
    endloop
  endfacet
  facet normal 0 0 -1
    outer loop
      vertex 45 0 0
      vertex 55.2793 8.41623 0
      vertex 58.2964 5.94099 0
    endloop
  endfacet
  facet normal 0 -0 -1
    outer loop
      vertex 60.8575 6.92155 0
      vertex 63.6539 6.17227 0
      vertex 60.4408 5.36642 0
    endloop
  endfacet
  facet normal 0 0 -1
    outer loop
      vertex 51.0838 28.8069 0
      vertex 66.3999 16.4207 0
      vertex 59.9632 12.1615 0
    endloop
  endfacet
  facet normal 0 0 -1
    outer loop
      vertex 58.2964 5.94099 0
      vertex 60.4408 5.36642 0
      vertex 62 0 0
    endloop
  endfacet
  facet normal 0 0 -1
    outer loop
      vertex 60.4408 5.36642 0
      vertex 63.6539 6.17227 0
      vertex 62 0 0
    endloop
  endfacet
  facet normal 0 0 -1
    outer loop
      vertex 45 0 0
      vertex 58.2964 5.94099 0
      vertex 62 0 0
    endloop
  endfacet
  facet normal -0 0 -1
    outer loop
      vertex 56.1127 11.5265 0
      vertex 55.2793 8.41623 0
      vertex 48.1881 18 0
    endloop
  endfacet
  facet normal -0 0 -1
    outer loop
      vertex 59.9632 12.1615 0
      vertex 56.1127 11.5265 0
      vertex 48.1881 18 0
    endloop
  endfacet
  facet normal 0 0 -1
    outer loop
      vertex 59.9632 12.1615 0
      vertex 66.3999 16.4207 0
      vertex 62.1076 11.587 0
    endloop
  endfacet
  facet normal 0 0 -1
    outer loop
      vertex 56.1127 11.5265 0
      vertex 59.9632 12.1615 0
      vertex 59.5465 10.6064 0
    endloop
  endfacet
  facet normal 0 0 -1
    outer loop
      vertex 51.0838 28.8069 0
      vertex 76.1979 22.0776 0
      vertex 66.3999 16.4207 0
    endloop
  endfacet
  facet normal 0 -0 -1
    outer loop
      vertex 62.1076 11.587 0
      vertex 64.4872 9.28253 0
      vertex 61.6909 10.0318 0
    endloop
  endfacet
  facet normal 0 0 -1
    outer loop
      vertex 62.1076 11.587 0
      vertex 66.3999 16.4207 0
      vertex 64.4872 9.28253 0
    endloop
  endfacet
  facet normal 0 0 -1
    outer loop
      vertex 66.3999 16.4207 0
      vertex 76.1979 22.0776 0
      vertex 74.1273 14.3502 0
    endloop
  endfacet
  facet normal 0 0 -1
    outer loop
      vertex 48.1881 18 0
      vertex 51.0838 28.8069 0
      vertex 59.9632 12.1615 0
    endloop
  endfacet
  facet normal 0 0 -1
    outer loop
      vertex 10.61 9.32999 0
      vertex 30 0 0
      vertex 12.22 5.77498 0
    endloop
  endfacet
  facet normal 0 -0 -1
    outer loop
      vertex 48.1881 18 0
      vertex 55.2793 8.41623 0
      vertex 45 0 0
    endloop
  endfacet
  facet normal 0 0 -1
    outer loop
      vertex 0 0 0
      vertex 5.78001 5.77498 0
      vertex 5.78001 3.55501 0
    endloop
  endfacet
  facet normal 0 0 -1
    outer loop
      vertex 7.39001 0 0
      vertex 5.78001 3.55501 0
      vertex 7.39001 3.55501 0
    endloop
  endfacet
  facet normal 0 0 -1
    outer loop
      vertex 5.78001 5.77498 0
      vertex 7.39001 9.32999 0
      vertex 7.39001 5.77498 0
    endloop
  endfacet
  facet normal 0 0 -1
    outer loop
      vertex 0 0 0
      vertex 5.78001 3.55501 0
      vertex 7.39001 0 0
    endloop
  endfacet
  facet normal 0 0 -1
    outer loop
      vertex 0 0 0
      vertex 0 18 0
      vertex 5.78001 5.77498 0
    endloop
  endfacet
  facet normal 0 0 -1
    outer loop
      vertex 0 18 0
      vertex 10.61 9.32999 0
      vertex 7.39001 9.32999 0
    endloop
  endfacet
  facet normal 0 0 -1
    outer loop
      vertex 0 18 0
      vertex 7.39001 9.32999 0
      vertex 5.78001 5.77498 0
    endloop
  endfacet
  facet normal 0 0 -1
    outer loop
      vertex 10.61 9.32999 0
      vertex 48.1881 18 0
      vertex 30 0 0
    endloop
  endfacet
  facet normal 0 0 -1
    outer loop
      vertex 10.61 9.32999 0
      vertex 0 18 0
      vertex 48.1881 18 0
    endloop
  endfacet
  facet normal 0 0 -1
    outer loop
      vertex 10.61 5.77498 0
      vertex 10.61 9.32999 0
      vertex 12.22 5.77498 0
    endloop
  endfacet
  facet normal 0 0 -1
    outer loop
      vertex 48.1881 18 0
      vertex 45 0 0
      vertex 30 0 0
    endloop
  endfacet
  facet normal 0 0 -1
    outer loop
      vertex 10.61 3.55501 0
      vertex 12.22 3.55501 0
      vertex 10.61 0 0
    endloop
  endfacet
  facet normal 0 -0 -1
    outer loop
      vertex 12.22 3.55501 0
      vertex 30 0 0
      vertex 10.61 0 0
    endloop
  endfacet
  facet normal 0 0 -1
    outer loop
      vertex 12.22 5.77498 0
      vertex 30 0 0
      vertex 12.22 3.55501 0
    endloop
  endfacet
  facet normal 0 0 -1
    outer loop
      vertex 30 0 0
      vertex 45 -8 0
      vertex 30 -8 0
    endloop
  endfacet
  facet normal 0 -0 1
    outer loop
      vertex 58.2964 5.94099 8
      vertex 58.7132 7.49612 8
      vertex 55.2793 8.41623 8
    endloop
  endfacet
  facet normal -0 0 1
    outer loop
      vertex 30 0 8
      vertex 45 -8 8
      vertex 45 0 8
    endloop
  endfacet
  facet normal 0 0 1
    outer loop
      vertex 58.2964 5.94099 8
      vertex 55.2793 8.41623 8
      vertex 45 0 8
    endloop
  endfacet
  facet normal 0 0 1
    outer loop
      vertex 60.4408 5.36642 8
      vertex 63.6539 6.17227 8
      vertex 60.8575 6.92155 8
    endloop
  endfacet
  facet normal 0 -0 1
    outer loop
      vertex 59.9632 12.1615 8
      vertex 66.3999 16.4207 8
      vertex 51.0838 28.8069 8
    endloop
  endfacet
  facet normal 0 0 1
    outer loop
      vertex 62 0 8
      vertex 60.4408 5.36642 8
      vertex 58.2964 5.94099 8
    endloop
  endfacet
  facet normal 0 -0 1
    outer loop
      vertex 62 0 8
      vertex 63.6539 6.17227 8
      vertex 60.4408 5.36642 8
    endloop
  endfacet
  facet normal 0 0 1
    outer loop
      vertex 62 0 8
      vertex 58.2964 5.94099 8
      vertex 45 0 8
    endloop
  endfacet
  facet normal 0 0 1
    outer loop
      vertex 48.1881 18 8
      vertex 55.2793 8.41623 8
      vertex 56.1127 11.5265 8
    endloop
  endfacet
  facet normal 0 0 1
    outer loop
      vertex 48.1881 18 8
      vertex 56.1127 11.5265 8
      vertex 59.9632 12.1615 8
    endloop
  endfacet
  facet normal 0 -0 1
    outer loop
      vertex 62.1076 11.587 8
      vertex 66.3999 16.4207 8
      vertex 59.9632 12.1615 8
    endloop
  endfacet
  facet normal 0 -0 1
    outer loop
      vertex 59.5465 10.6064 8
      vertex 59.9632 12.1615 8
      vertex 56.1127 11.5265 8
    endloop
  endfacet
  facet normal 0 -0 1
    outer loop
      vertex 66.3999 16.4207 8
      vertex 76.1979 22.0776 8
      vertex 51.0838 28.8069 8
    endloop
  endfacet
  facet normal -0 0 1
    outer loop
      vertex 61.6909 10.0318 8
      vertex 64.4872 9.28253 8
      vertex 62.1076 11.587 8
    endloop
  endfacet
  facet normal 0 -0 1
    outer loop
      vertex 64.4872 9.28253 8
      vertex 66.3999 16.4207 8
      vertex 62.1076 11.587 8
    endloop
  endfacet
  facet normal 0 -0 1
    outer loop
      vertex 74.1273 14.3502 8
      vertex 76.1979 22.0776 8
      vertex 66.3999 16.4207 8
    endloop
  endfacet
  facet normal 0 0 1
    outer loop
      vertex 59.9632 12.1615 8
      vertex 51.0838 28.8069 8
      vertex 48.1881 18 8
    endloop
  endfacet
  facet normal -0 -0 1
    outer loop
      vertex 12.22 5.77498 8
      vertex 30 0 8
      vertex 10.61 9.32999 8
    endloop
  endfacet
  facet normal 0 0 1
    outer loop
      vertex 45 0 8
      vertex 55.2793 8.41623 8
      vertex 48.1881 18 8
    endloop
  endfacet
  facet normal 0 -0 1
    outer loop
      vertex 5.78001 3.55501 8
      vertex 5.78001 5.77498 8
      vertex 0 0 8
    endloop
  endfacet
  facet normal 0 0 1
    outer loop
      vertex 7.39001 3.55501 8
      vertex 5.78001 3.55501 8
      vertex 7.39001 0 8
    endloop
  endfacet
  facet normal 0 -0 1
    outer loop
      vertex 7.39001 5.77498 8
      vertex 7.39001 9.32999 8
      vertex 5.78001 5.77498 8
    endloop
  endfacet
  facet normal 0 0 1
    outer loop
      vertex 7.39001 0 8
      vertex 5.78001 3.55501 8
      vertex 0 0 8
    endloop
  endfacet
  facet normal 0 0 1
    outer loop
      vertex 5.78001 5.77498 8
      vertex 0 18 8
      vertex 0 0 8
    endloop
  endfacet
  facet normal 0 -0 1
    outer loop
      vertex 7.39001 9.32999 8
      vertex 10.61 9.32999 8
      vertex 0 18 8
    endloop
  endfacet
  facet normal 0 -0 1
    outer loop
      vertex 5.78001 5.77498 8
      vertex 7.39001 9.32999 8
      vertex 0 18 8
    endloop
  endfacet
  facet normal 0 -0 1
    outer loop
      vertex 30 0 8
      vertex 48.1881 18 8
      vertex 10.61 9.32999 8
    endloop
  endfacet
  facet normal 0 0 1
    outer loop
      vertex 48.1881 18 8
      vertex 0 18 8
      vertex 10.61 9.32999 8
    endloop
  endfacet
  facet normal 0 0 1
    outer loop
      vertex 12.22 5.77498 8
      vertex 10.61 9.32999 8
      vertex 10.61 5.77498 8
    endloop
  endfacet
  facet normal 0 0 1
    outer loop
      vertex 30 0 8
      vertex 45 0 8
      vertex 48.1881 18 8
    endloop
  endfacet
  facet normal 0 0 1
    outer loop
      vertex 10.61 0 8
      vertex 12.22 3.55501 8
      vertex 10.61 3.55501 8
    endloop
  endfacet
  facet normal 0 0 1
    outer loop
      vertex 10.61 0 8
      vertex 30 0 8
      vertex 12.22 3.55501 8
    endloop
  endfacet
  facet normal -0 0 1
    outer loop
      vertex 12.22 3.55501 8
      vertex 30 0 8
      vertex 12.22 5.77498 8
    endloop
  endfacet
  facet normal 0 0 1
    outer loop
      vertex 30 -8 8
      vertex 45 -8 8
      vertex 30 0 8
    endloop
  endfacet
  facet normal 1 0 0
    outer loop
      vertex 45 0 0
      vertex 45 -8 8
      vertex 45 -8 0
    endloop
  endfacet
  facet normal 1 0 -0
    outer loop
      vertex 45 0 0
      vertex 45 0 8
      vertex 45 -8 8
    endloop
  endfacet
  facet normal 0 -1 0
    outer loop
      vertex 62 0 0
      vertex 45 0 8
      vertex 45 0 0
    endloop
  endfacet
  facet normal 0 -1 0
    outer loop
      vertex 62 0 0
      vertex 62 0 8
      vertex 45 0 8
    endloop
  endfacet
  facet normal 0.965926 -0.258819 0
    outer loop
      vertex 63.6539 6.17227 0
      vertex 62 0 8
      vertex 62 0 0
    endloop
  endfacet
  facet normal 0.965926 -0.258819 0
    outer loop
      vertex 63.6539 6.17227 0
      vertex 63.6539 6.17227 8
      vertex 62 0 8
    endloop
  endfacet
  facet normal 0.258818 0.965926 0
    outer loop
      vertex 60.8575 6.92155 0
      vertex 63.6539 6.17227 8
      vertex 63.6539 6.17227 0
    endloop
  endfacet
  facet normal 0.258818 0.965926 -0
    outer loop
      vertex 60.8575 6.92155 0
      vertex 60.8575 6.92155 8
      vertex 63.6539 6.17227 8
    endloop
  endfacet
  facet normal -0.965925 0.258823 0
    outer loop
      vertex 60.4408 5.36642 0
      vertex 60.8575 6.92155 8
      vertex 60.8575 6.92155 0
    endloop
  endfacet
  facet normal -0.965925 0.258823 0
    outer loop
      vertex 60.4408 5.36642 0
      vertex 60.4408 5.36642 8
      vertex 60.8575 6.92155 8
    endloop
  endfacet
  facet normal 0.258818 0.965926 0
    outer loop
      vertex 58.2964 5.94099 0
      vertex 60.4408 5.36642 8
      vertex 60.4408 5.36642 0
    endloop
  endfacet
  facet normal 0.258818 0.965926 -0
    outer loop
      vertex 58.2964 5.94099 0
      vertex 58.2964 5.94099 8
      vertex 60.4408 5.36642 8
    endloop
  endfacet
  facet normal 0.965925 -0.258823 0
    outer loop
      vertex 58.7132 7.49612 0
      vertex 58.2964 5.94099 8
      vertex 58.2964 5.94099 0
    endloop
  endfacet
  facet normal 0.965925 -0.258823 0
    outer loop
      vertex 58.7132 7.49612 0
      vertex 58.7132 7.49612 8
      vertex 58.2964 5.94099 8
    endloop
  endfacet
  facet normal 0.25882 0.965926 0
    outer loop
      vertex 55.2793 8.41623 0
      vertex 58.7132 7.49612 8
      vertex 58.7132 7.49612 0
    endloop
  endfacet
  facet normal 0.25882 0.965926 -0
    outer loop
      vertex 55.2793 8.41623 0
      vertex 55.2793 8.41623 8
      vertex 58.7132 7.49612 8
    endloop
  endfacet
  facet normal 0.965926 -0.258818 0
    outer loop
      vertex 56.1127 11.5265 0
      vertex 55.2793 8.41623 8
      vertex 55.2793 8.41623 0
    endloop
  endfacet
  facet normal 0.965926 -0.258818 0
    outer loop
      vertex 56.1127 11.5265 0
      vertex 56.1127 11.5265 8
      vertex 55.2793 8.41623 8
    endloop
  endfacet
  facet normal -0.25882 -0.965926 0
    outer loop
      vertex 59.5465 10.6064 0
      vertex 56.1127 11.5265 8
      vertex 56.1127 11.5265 0
    endloop
  endfacet
  facet normal -0.25882 -0.965926 0
    outer loop
      vertex 59.5465 10.6064 0
      vertex 59.5465 10.6064 8
      vertex 56.1127 11.5265 8
    endloop
  endfacet
  facet normal 0.965925 -0.25882 0
    outer loop
      vertex 59.9632 12.1615 0
      vertex 59.5465 10.6064 8
      vertex 59.5465 10.6064 0
    endloop
  endfacet
  facet normal 0.965925 -0.25882 0
    outer loop
      vertex 59.9632 12.1615 0
      vertex 59.9632 12.1615 8
      vertex 59.5465 10.6064 8
    endloop
  endfacet
  facet normal -0.25882 -0.965926 0
    outer loop
      vertex 62.1076 11.587 0
      vertex 59.9632 12.1615 8
      vertex 59.9632 12.1615 0
    endloop
  endfacet
  facet normal -0.25882 -0.965926 0
    outer loop
      vertex 62.1076 11.587 0
      vertex 62.1076 11.587 8
      vertex 59.9632 12.1615 8
    endloop
  endfacet
  facet normal -0.965928 0.258812 0
    outer loop
      vertex 61.6909 10.0318 0
      vertex 62.1076 11.587 8
      vertex 62.1076 11.587 0
    endloop
  endfacet
  facet normal -0.965928 0.258812 0
    outer loop
      vertex 61.6909 10.0318 0
      vertex 61.6909 10.0318 8
      vertex 62.1076 11.587 8
    endloop
  endfacet
  facet normal -0.258818 -0.965926 0
    outer loop
      vertex 64.4872 9.28253 0
      vertex 61.6909 10.0318 8
      vertex 61.6909 10.0318 0
    endloop
  endfacet
  facet normal -0.258818 -0.965926 0
    outer loop
      vertex 64.4872 9.28253 0
      vertex 64.4872 9.28253 8
      vertex 61.6909 10.0318 8
    endloop
  endfacet
  facet normal 0.965926 -0.258819 0
    outer loop
      vertex 66.3999 16.4207 0
      vertex 64.4872 9.28253 8
      vertex 64.4872 9.28253 0
    endloop
  endfacet
  facet normal 0.965926 -0.258819 0
    outer loop
      vertex 66.3999 16.4207 0
      vertex 66.3999 16.4207 8
      vertex 64.4872 9.28253 8
    endloop
  endfacet
  facet normal -0.25882 -0.965926 0
    outer loop
      vertex 74.1273 14.3502 0
      vertex 66.3999 16.4207 8
      vertex 66.3999 16.4207 0
    endloop
  endfacet
  facet normal -0.25882 -0.965926 0
    outer loop
      vertex 74.1273 14.3502 0
      vertex 74.1273 14.3502 8
      vertex 66.3999 16.4207 8
    endloop
  endfacet
  facet normal 0.965926 -0.258819 0
    outer loop
      vertex 76.1979 22.0776 0
      vertex 74.1273 14.3502 8
      vertex 74.1273 14.3502 0
    endloop
  endfacet
  facet normal 0.965926 -0.258819 0
    outer loop
      vertex 76.1979 22.0776 0
      vertex 76.1979 22.0776 8
      vertex 74.1273 14.3502 8
    endloop
  endfacet
  facet normal 0.258819 0.965926 0
    outer loop
      vertex 51.0838 28.8069 0
      vertex 76.1979 22.0776 8
      vertex 76.1979 22.0776 0
    endloop
  endfacet
  facet normal 0.258819 0.965926 -0
    outer loop
      vertex 51.0838 28.8069 0
      vertex 51.0838 28.8069 8
      vertex 76.1979 22.0776 8
    endloop
  endfacet
  facet normal -0.965926 0.258819 0
    outer loop
      vertex 48.1881 18 0
      vertex 51.0838 28.8069 8
      vertex 51.0838 28.8069 0
    endloop
  endfacet
  facet normal -0.965926 0.258819 0
    outer loop
      vertex 48.1881 18 0
      vertex 48.1881 18 8
      vertex 51.0838 28.8069 8
    endloop
  endfacet
  facet normal 0 1 0
    outer loop
      vertex 0 18 0
      vertex 48.1881 18 8
      vertex 48.1881 18 0
    endloop
  endfacet
  facet normal 0 1 0
    outer loop
      vertex 0 18 0
      vertex 0 18 8
      vertex 48.1881 18 8
    endloop
  endfacet
  facet normal -1 0 0
    outer loop
      vertex 0 0 0
      vertex 0 18 8
      vertex 0 18 0
    endloop
  endfacet
  facet normal -1 0 0
    outer loop
      vertex 0 0 0
      vertex 0 0 8
      vertex 0 18 8
    endloop
  endfacet
  facet normal 0 -1 0
    outer loop
      vertex 7.39001 0 0
      vertex 0 0 8
      vertex 0 0 0
    endloop
  endfacet
  facet normal 0 -1 0
    outer loop
      vertex 7.39001 0 0
      vertex 7.39001 0 8
      vertex 0 0 8
    endloop
  endfacet
  facet normal 1 0 0
    outer loop
      vertex 7.39001 3.55501 0
      vertex 7.39001 0 8
      vertex 7.39001 0 0
    endloop
  endfacet
  facet normal 1 0 -0
    outer loop
      vertex 7.39001 3.55501 0
      vertex 7.39001 3.55501 8
      vertex 7.39001 0 8
    endloop
  endfacet
  facet normal 0 1 0
    outer loop
      vertex 5.78001 3.55501 0
      vertex 7.39001 3.55501 8
      vertex 7.39001 3.55501 0
    endloop
  endfacet
  facet normal 0 1 0
    outer loop
      vertex 5.78001 3.55501 0
      vertex 5.78001 3.55501 8
      vertex 7.39001 3.55501 8
    endloop
  endfacet
  facet normal 1 0 0
    outer loop
      vertex 5.78001 5.77498 0
      vertex 5.78001 3.55501 8
      vertex 5.78001 3.55501 0
    endloop
  endfacet
  facet normal 1 0 -0
    outer loop
      vertex 5.78001 5.77498 0
      vertex 5.78001 5.77498 8
      vertex 5.78001 3.55501 8
    endloop
  endfacet
  facet normal 0 -1 0
    outer loop
      vertex 7.39001 5.77498 0
      vertex 5.78001 5.77498 8
      vertex 5.78001 5.77498 0
    endloop
  endfacet
  facet normal 0 -1 0
    outer loop
      vertex 7.39001 5.77498 0
      vertex 7.39001 5.77498 8
      vertex 5.78001 5.77498 8
    endloop
  endfacet
  facet normal 1 0 0
    outer loop
      vertex 7.39001 9.32999 0
      vertex 7.39001 5.77498 8
      vertex 7.39001 5.77498 0
    endloop
  endfacet
  facet normal 1 0 -0
    outer loop
      vertex 7.39001 9.32999 0
      vertex 7.39001 9.32999 8
      vertex 7.39001 5.77498 8
    endloop
  endfacet
  facet normal 0 -1 0
    outer loop
      vertex 10.61 9.32999 0
      vertex 7.39001 9.32999 8
      vertex 7.39001 9.32999 0
    endloop
  endfacet
  facet normal 0 -1 0
    outer loop
      vertex 10.61 9.32999 0
      vertex 10.61 9.32999 8
      vertex 7.39001 9.32999 8
    endloop
  endfacet
  facet normal -1 0 0
    outer loop
      vertex 10.61 5.77498 0
      vertex 10.61 9.32999 8
      vertex 10.61 9.32999 0
    endloop
  endfacet
  facet normal -1 0 0
    outer loop
      vertex 10.61 5.77498 0
      vertex 10.61 5.77498 8
      vertex 10.61 9.32999 8
    endloop
  endfacet
  facet normal 0 -1 0
    outer loop
      vertex 12.22 5.77498 0
      vertex 10.61 5.77498 8
      vertex 10.61 5.77498 0
    endloop
  endfacet
  facet normal 0 -1 0
    outer loop
      vertex 12.22 5.77498 0
      vertex 12.22 5.77498 8
      vertex 10.61 5.77498 8
    endloop
  endfacet
  facet normal -1 0 0
    outer loop
      vertex 12.22 3.55501 0
      vertex 12.22 5.77498 8
      vertex 12.22 5.77498 0
    endloop
  endfacet
  facet normal -1 0 0
    outer loop
      vertex 12.22 3.55501 0
      vertex 12.22 3.55501 8
      vertex 12.22 5.77498 8
    endloop
  endfacet
  facet normal 0 1 0
    outer loop
      vertex 10.61 3.55501 0
      vertex 12.22 3.55501 8
      vertex 12.22 3.55501 0
    endloop
  endfacet
  facet normal 0 1 0
    outer loop
      vertex 10.61 3.55501 0
      vertex 10.61 3.55501 8
      vertex 12.22 3.55501 8
    endloop
  endfacet
  facet normal -1 0 0
    outer loop
      vertex 10.61 0 0
      vertex 10.61 3.55501 8
      vertex 10.61 3.55501 0
    endloop
  endfacet
  facet normal -1 0 0
    outer loop
      vertex 10.61 0 0
      vertex 10.61 0 8
      vertex 10.61 3.55501 8
    endloop
  endfacet
  facet normal 0 -1 0
    outer loop
      vertex 30 0 0
      vertex 10.61 0 8
      vertex 10.61 0 0
    endloop
  endfacet
  facet normal 0 -1 0
    outer loop
      vertex 30 0 0
      vertex 30 0 8
      vertex 10.61 0 8
    endloop
  endfacet
  facet normal -1 0 0
    outer loop
      vertex 30 -8 0
      vertex 30 0 8
      vertex 30 0 0
    endloop
  endfacet
  facet normal -1 0 0
    outer loop
      vertex 30 -8 0
      vertex 30 -8 8
      vertex 30 0 8
    endloop
  endfacet
  facet normal 0 -1 0
    outer loop
      vertex 45 -8 0
      vertex 30 -8 8
      vertex 30 -8 0
    endloop
  endfacet
  facet normal 0 -1 0
    outer loop
      vertex 45 -8 0
      vertex 45 -8 8
      vertex 30 -8 8
    endloop
  endfacet
endsolid OpenSCAD_Model
