solid OpenSCAD_Model
  facet normal -0.585255 -0.0926952 0.805534
    outer loop
      vertex -11.612 -10.25 6.97302
      vertex -12.3713 -10.25 6.42132
      vertex -12.2675 -10.9055 6.42132
    endloop
  endfacet
  facet normal -0.723906 0.368849 0.583018
    outer loop
      vertex -12.4125 11.8212 5.66197
      vertex -12.7922 11.076 5.66197
      vertex -11.9662 11.4969 6.42132
    endloop
  endfacet
  facet normal -0.148952 0.940447 0.305569
    outer loop
      vertex -10.25 13.2131 4.7693
      vertex -11.1656 13.068 4.7693
      vertex -10.25 12.923 5.66197
    endloop
  endfacet
  facet normal -0.141869 0.278435 0.94992
    outer loop
      vertex -10.6709 11.5453 6.97302
      vertex -11.0505 11.3519 6.97302
      vertex -10.395 10.6963 7.26306
    endloop
  endfacet
  facet normal -0.707107 0.707107 0
    outer loop
      vertex -12.6472 11.9916 0
      vertex -11.9916 12.6472 4.7693
      vertex -11.9916 12.6472 0
    endloop
  endfacet
  facet normal -0.707107 0.707107 0
    outer loop
      vertex -11.9916 12.6472 4.7693
      vertex -12.6472 11.9916 0
      vertex -12.6472 11.9916 4.7693
    endloop
  endfacet
  facet normal 0.269012 0.527966 0.805534
    outer loop
      vertex 11.4969 11.9662 6.42132
      vertex 10.9055 12.2675 6.42132
      vertex 11.0505 11.3519 6.97302
    endloop
  endfacet
  facet normal 0 -0.951057 0.309015
    outer loop
      vertex -5.25 -13.2131 4.7693
      vertex 5.25 -13.0894 5.15
      vertex -5.25 -13.0894 5.15
    endloop
  endfacet
  facet normal 0 -0.951057 0.309015
    outer loop
      vertex 5.25 -13.0894 5.15
      vertex -5.25 -13.2131 4.7693
      vertex 5.25 -13.2131 4.7693
    endloop
  endfacet
  facet normal 0 -0.951056 0.309017
    outer loop
      vertex -5.25 -13.0894 5.15
      vertex -10.25 -12.923 5.66197
      vertex -8.25 -13.0894 5.15
    endloop
  endfacet
  facet normal -2.01713e-07 -0.951057 0.309016
    outer loop
      vertex -10.25 -13.2131 4.7693
      vertex -8.25 -13.0894 5.15
      vertex -10.25 -12.923 5.66197
    endloop
  endfacet
  facet normal 0 -0.951057 0.309015
    outer loop
      vertex -8.25 -13.0894 5.15
      vertex -10.25 -13.2131 4.7693
      vertex -8.25 -13.2131 4.7693
    endloop
  endfacet
  facet normal 0 -0.951056 0.309017
    outer loop
      vertex -10.25 -12.923 5.66197
      vertex -5.25 -13.0894 5.15
      vertex 10.25 -12.923 5.66197
    endloop
  endfacet
  facet normal 0 -0.951056 0.309017
    outer loop
      vertex 5.25 -13.0894 5.15
      vertex 10.25 -12.923 5.66197
      vertex -5.25 -13.0894 5.15
    endloop
  endfacet
  facet normal 0 -0.951056 0.309017
    outer loop
      vertex 8.25 -13.0894 5.15
      vertex 10.25 -12.923 5.66197
      vertex 5.25 -13.0894 5.15
    endloop
  endfacet
  facet normal 0 -0.951057 0.309015
    outer loop
      vertex 10.25 -13.2131 4.7693
      vertex 8.25 -13.0894 5.15
      vertex 8.25 -13.2131 4.7693
    endloop
  endfacet
  facet normal 2.01713e-07 -0.951057 0.309016
    outer loop
      vertex 8.25 -13.0894 5.15
      vertex 10.25 -13.2131 4.7693
      vertex 10.25 -12.923 5.66197
    endloop
  endfacet
  facet normal 0.809017 -0 0.587786
    outer loop
      vertex 12.3713 -10.25 6.42132
      vertex 12.923 10.25 5.66197
      vertex 12.3713 10.25 6.42132
    endloop
  endfacet
  facet normal 0.809017 0 0.587786
    outer loop
      vertex 12.923 10.25 5.66197
      vertex 12.3713 -10.25 6.42132
      vertex 12.923 -10.25 5.66197
    endloop
  endfacet
  facet normal 0.0488852 -0.308647 0.94992
    outer loop
      vertex 10.395 -10.6963 7.26306
      vertex 10.25 -11.612 6.97302
      vertex 10.6709 -11.5453 6.97302
    endloop
  endfacet
  facet normal 0.891006 -0.453991 0
    outer loop
      vertex 12.6472 -11.9916 4.7693
      vertex 13.068 -11.1656 0
      vertex 13.068 -11.1656 4.7693
    endloop
  endfacet
  facet normal 0.891006 -0.453991 0
    outer loop
      vertex 13.068 -11.1656 0
      vertex 12.6472 -11.9916 4.7693
      vertex 12.6472 -11.9916 0
    endloop
  endfacet
  facet normal -0.453991 0.891006 0
    outer loop
      vertex -11.1656 13.068 0
      vertex -11.9916 12.6472 4.7693
      vertex -11.1656 13.068 4.7693
    endloop
  endfacet
  facet normal -0.453991 0.891006 0
    outer loop
      vertex -11.9916 12.6472 4.7693
      vertex -11.1656 13.068 0
      vertex -11.9916 12.6472 0
    endloop
  endfacet
  facet normal 0.278434 -0.14187 0.94992
    outer loop
      vertex 10.6963 -10.395 7.26306
      vertex 10.6297 -10.5258 7.26306
      vertex 11.3519 -11.0505 6.97302
    endloop
  endfacet
  facet normal -0.269012 -0.527966 0.805534
    outer loop
      vertex -11.0505 -11.3519 6.97302
      vertex -11.4969 -11.9662 6.42132
      vertex -10.9055 -12.2675 6.42132
    endloop
  endfacet
  facet normal 0.0488848 -0.308647 0.94992
    outer loop
      vertex 10.25 -10.7193 7.26306
      vertex 10.25 -11.612 6.97302
      vertex 10.395 -10.6963 7.26306
    endloop
  endfacet
  facet normal 0.585254 -0.0926957 0.805534
    outer loop
      vertex 11.612 -10.25 6.97302
      vertex 11.5453 -10.6709 6.97302
      vertex 12.2675 -10.9055 6.42132
    endloop
  endfacet
  facet normal 0.368849 0.723906 0.583018
    outer loop
      vertex 11.8212 12.4125 5.66197
      vertex 11.076 12.7922 5.66197
      vertex 11.4969 11.9662 6.42132
    endloop
  endfacet
  facet normal -0.527966 -0.269012 0.805534
    outer loop
      vertex -11.3519 -11.0505 6.97302
      vertex -12.2675 -10.9055 6.42132
      vertex -11.9662 -11.4969 6.42132
    endloop
  endfacet
  facet normal -0.156434 0.987688 0
    outer loop
      vertex -10.25 13.2131 0
      vertex -11.1656 13.068 4.7693
      vertex -10.25 13.2131 4.7693
    endloop
  endfacet
  facet normal -0.156434 0.987688 0
    outer loop
      vertex -11.1656 13.068 4.7693
      vertex -10.25 13.2131 0
      vertex -11.1656 13.068 0
    endloop
  endfacet
  facet normal -0.891006 0.453991 0
    outer loop
      vertex -13.068 11.1656 0
      vertex -12.6472 11.9916 4.7693
      vertex -12.6472 11.9916 0
    endloop
  endfacet
  facet normal -0.891006 0.453991 0
    outer loop
      vertex -12.6472 11.9916 4.7693
      vertex -13.068 11.1656 0
      vertex -13.068 11.1656 4.7693
    endloop
  endfacet
  facet normal -1 0 0
    outer loop
      vertex -13.2131 -10.25 0
      vertex -13.2131 10.25 4.7693
      vertex -13.2131 10.25 0
    endloop
  endfacet
  facet normal -1 -0 0
    outer loop
      vertex -13.2131 10.25 4.7693
      vertex -13.2131 -10.25 0
      vertex -13.2131 -10.25 4.7693
    endloop
  endfacet
  facet normal -0.987688 0.156434 0
    outer loop
      vertex -13.2131 10.25 0
      vertex -13.068 11.1656 4.7693
      vertex -13.068 11.1656 0
    endloop
  endfacet
  facet normal -0.987688 0.156434 0
    outer loop
      vertex -13.068 11.1656 4.7693
      vertex -13.2131 10.25 0
      vertex -13.2131 10.25 4.7693
    endloop
  endfacet
  facet normal -0.141869 -0.278435 0.94992
    outer loop
      vertex -10.395 -10.6963 7.26306
      vertex -11.0505 -11.3519 6.97302
      vertex -10.6709 -11.5453 6.97302
    endloop
  endfacet
  facet normal 0 -0.809017 0.587786
    outer loop
      vertex -10.25 -12.923 5.66197
      vertex 10.25 -12.3713 6.42132
      vertex -10.25 -12.3713 6.42132
    endloop
  endfacet
  facet normal 0 -0.809017 0.587786
    outer loop
      vertex 10.25 -12.3713 6.42132
      vertex -10.25 -12.923 5.66197
      vertex 10.25 -12.923 5.66197
    endloop
  endfacet
  facet normal 0.891006 0.453991 0
    outer loop
      vertex 13.068 11.1656 4.7693
      vertex 12.6472 11.9916 0
      vertex 12.6472 11.9916 4.7693
    endloop
  endfacet
  facet normal 0.891006 0.453991 0
    outer loop
      vertex 12.6472 11.9916 0
      vertex 13.068 11.1656 4.7693
      vertex 13.068 11.1656 0
    endloop
  endfacet
  facet normal 0.156434 0.987688 -0
    outer loop
      vertex 11.1656 13.068 0
      vertex 10.25 13.2131 4.7693
      vertex 11.1656 13.068 4.7693
    endloop
  endfacet
  facet normal 0.156434 0.987688 0
    outer loop
      vertex 10.25 13.2131 4.7693
      vertex 11.1656 13.068 0
      vertex 10.25 13.2131 0
    endloop
  endfacet
  facet normal -0.0488848 0.308647 0.94992
    outer loop
      vertex -10.25 11.612 6.97302
      vertex -10.395 10.6963 7.26306
      vertex -10.25 10.7193 7.26306
    endloop
  endfacet
  facet normal -0.0926952 -0.585255 0.805534
    outer loop
      vertex -10.25 -11.612 6.97302
      vertex -10.9055 -12.2675 6.42132
      vertex -10.25 -12.3713 6.42132
    endloop
  endfacet
  facet normal 0 -1 0
    outer loop
      vertex -10.25 -13.2131 0
      vertex -8.25 -13.2131 4.7693
      vertex -10.25 -13.2131 4.7693
    endloop
  endfacet
  facet normal 0 -1 -0
    outer loop
      vertex -8.25 -13.2131 4.7693
      vertex -10.25 -13.2131 0
      vertex -8.25 -13.2131 0
    endloop
  endfacet
  facet normal 0 -1 0
    outer loop
      vertex 8.25 -13.2131 0
      vertex 10.25 -13.2131 4.7693
      vertex 8.25 -13.2131 4.7693
    endloop
  endfacet
  facet normal 0 -1 -0
    outer loop
      vertex 10.25 -13.2131 4.7693
      vertex 8.25 -13.2131 0
      vertex 10.25 -13.2131 0
    endloop
  endfacet
  facet normal 0 -1 0
    outer loop
      vertex -5.25 -13.2131 0
      vertex 5.25 -13.2131 4.7693
      vertex -5.25 -13.2131 4.7693
    endloop
  endfacet
  facet normal 0 -1 -0
    outer loop
      vertex 5.25 -13.2131 4.7693
      vertex -5.25 -13.2131 0
      vertex 5.25 -13.2131 0
    endloop
  endfacet
  facet normal 0.802456 -0.127097 0.583019
    outer loop
      vertex 12.923 -10.25 5.66197
      vertex 12.2675 -10.9055 6.42132
      vertex 12.7922 -11.076 5.66197
    endloop
  endfacet
  facet normal -0.278435 -0.141869 0.94992
    outer loop
      vertex -10.6963 -10.395 7.26306
      vertex -11.5453 -10.6709 6.97302
      vertex -11.3519 -11.0505 6.97302
    endloop
  endfacet
  facet normal -0.278434 -0.14187 0.94992
    outer loop
      vertex -10.6963 -10.395 7.26306
      vertex -11.3519 -11.0505 6.97302
      vertex -10.6297 -10.5258 7.26306
    endloop
  endfacet
  facet normal 0 0.951057 0.309016
    outer loop
      vertex -4.75 13.2131 4.7693
      vertex -10.25 12.923 5.66197
      vertex -4.75 12.923 5.66197
    endloop
  endfacet
  facet normal 0 0.951057 0.309016
    outer loop
      vertex -10.25 12.923 5.66197
      vertex -4.75 13.2131 4.7693
      vertex -10.25 13.2131 4.7693
    endloop
  endfacet
  facet normal 0 0.951057 0.309016
    outer loop
      vertex 10.25 13.2131 4.7693
      vertex 4.75 12.923 5.66197
      vertex 10.25 12.923 5.66197
    endloop
  endfacet
  facet normal 0 0.951057 0.309016
    outer loop
      vertex 4.75 12.923 5.66197
      vertex 10.25 13.2131 4.7693
      vertex 4.75 13.2131 4.7693
    endloop
  endfacet
  facet normal -0.574495 -0.574495 0.583018
    outer loop
      vertex -11.9662 -11.4969 6.42132
      vertex -11.8212 -12.4125 5.66197
      vertex -11.4969 -11.9662 6.42132
    endloop
  endfacet
  facet normal -0.574495 -0.574495 0.583018
    outer loop
      vertex -11.8212 -12.4125 5.66197
      vertex -11.9662 -11.4969 6.42132
      vertex -12.4125 -11.8212 5.66197
    endloop
  endfacet
  facet normal -0.585255 0.0926952 0.805534
    outer loop
      vertex -12.2675 10.9055 6.42132
      vertex -12.3713 10.25 6.42132
      vertex -11.612 10.25 6.97302
    endloop
  endfacet
  facet normal -0.527966 0.269012 0.805534
    outer loop
      vertex -11.3519 11.0505 6.97302
      vertex -12.2675 10.9055 6.42132
      vertex -11.5453 10.6709 6.97302
    endloop
  endfacet
  facet normal -0.148952 -0.940447 0.305569
    outer loop
      vertex -10.25 -12.923 5.66197
      vertex -11.1656 -13.068 4.7693
      vertex -10.25 -13.2131 4.7693
    endloop
  endfacet
  facet normal 0.0926952 -0.585255 0.805534
    outer loop
      vertex 10.25 -11.612 6.97302
      vertex 10.25 -12.3713 6.42132
      vertex 10.9055 -12.2675 6.42132
    endloop
  endfacet
  facet normal 0.673286 0.673286 0.30557
    outer loop
      vertex 11.8212 12.4125 5.66197
      vertex 12.6472 11.9916 4.7693
      vertex 11.9916 12.6472 4.7693
    endloop
  endfacet
  facet normal 0.673286 0.673286 0.30557
    outer loop
      vertex 12.6472 11.9916 4.7693
      vertex 11.8212 12.4125 5.66197
      vertex 12.4125 11.8212 5.66197
    endloop
  endfacet
  facet normal 0.269012 0.527966 0.805534
    outer loop
      vertex 10.9055 12.2675 6.42132
      vertex 10.6709 11.5453 6.97302
      vertex 11.0505 11.3519 6.97302
    endloop
  endfacet
  facet normal 0.951057 -0 0.309016
    outer loop
      vertex 12.923 -10.25 5.66197
      vertex 13.2131 10.25 4.7693
      vertex 12.923 10.25 5.66197
    endloop
  endfacet
  facet normal 0.951057 0 0.309016
    outer loop
      vertex 13.2131 10.25 4.7693
      vertex 12.923 -10.25 5.66197
      vertex 13.2131 -10.25 4.7693
    endloop
  endfacet
  facet normal 0.707107 0.707107 0
    outer loop
      vertex 12.6472 11.9916 4.7693
      vertex 11.9916 12.6472 0
      vertex 11.9916 12.6472 4.7693
    endloop
  endfacet
  facet normal 0.707107 0.707107 0
    outer loop
      vertex 11.9916 12.6472 0
      vertex 12.6472 11.9916 4.7693
      vertex 12.6472 11.9916 0
    endloop
  endfacet
  facet normal 0 1 -0
    outer loop
      vertex -4.75 13.2131 0
      vertex -10.25 13.2131 4.7693
      vertex -4.75 13.2131 4.7693
    endloop
  endfacet
  facet normal 0 1 0
    outer loop
      vertex -10.25 13.2131 4.7693
      vertex -4.75 13.2131 0
      vertex -10.25 13.2131 0
    endloop
  endfacet
  facet normal 0 1 -0
    outer loop
      vertex 10.25 13.2131 0
      vertex 4.75 13.2131 4.7693
      vertex 10.25 13.2131 4.7693
    endloop
  endfacet
  facet normal 0 1 0
    outer loop
      vertex 4.75 13.2131 4.7693
      vertex 10.25 13.2131 0
      vertex 4.75 13.2131 0
    endloop
  endfacet
  facet normal 0.587786 0 0.809017
    outer loop
      vertex 11.612 10.25 6.97302
      vertex 12.3713 -10.25 6.42132
      vertex 12.3713 10.25 6.42132
    endloop
  endfacet
  facet normal 0.587786 0 0.809017
    outer loop
      vertex 12.3713 -10.25 6.42132
      vertex 11.612 10.25 6.97302
      vertex 11.612 -10.25 6.97302
    endloop
  endfacet
  facet normal -0 0.309016 0.951057
    outer loop
      vertex -10.25 11.612 6.97302
      vertex 10.25 10.7193 7.26306
      vertex 10.25 11.612 6.97302
    endloop
  endfacet
  facet normal 0 0.309016 0.951057
    outer loop
      vertex 10.25 10.7193 7.26306
      vertex -10.25 11.612 6.97302
      vertex -10.25 10.7193 7.26306
    endloop
  endfacet
  facet normal 0 0.809017 0.587786
    outer loop
      vertex 10.25 12.923 5.66197
      vertex 4.75 12.3713 6.42132
      vertex 10.25 12.3713 6.42132
    endloop
  endfacet
  facet normal 0 0.809017 0.587786
    outer loop
      vertex 4.75 12.3713 6.42132
      vertex 10.25 12.923 5.66197
      vertex 4.75 12.923 5.66197
    endloop
  endfacet
  facet normal 0 0.809017 0.587786
    outer loop
      vertex -4.75 12.923 5.66197
      vertex -10.25 12.3713 6.42132
      vertex -4.75 12.3713 6.42132
    endloop
  endfacet
  facet normal 0 0.809017 0.587786
    outer loop
      vertex -10.25 12.3713 6.42132
      vertex -4.75 12.923 5.66197
      vertex -10.25 12.923 5.66197
    endloop
  endfacet
  facet normal -0.156434 -0.987688 0
    outer loop
      vertex -11.1656 -13.068 0
      vertex -10.25 -13.2131 4.7693
      vertex -11.1656 -13.068 4.7693
    endloop
  endfacet
  facet normal -0.156434 -0.987688 -0
    outer loop
      vertex -10.25 -13.2131 4.7693
      vertex -11.1656 -13.068 0
      vertex -10.25 -13.2131 0
    endloop
  endfacet
  facet normal 0.673286 -0.673286 0.30557
    outer loop
      vertex 11.8212 -12.4125 5.66197
      vertex 12.6472 -11.9916 4.7693
      vertex 12.4125 -11.8212 5.66197
    endloop
  endfacet
  facet normal 0.673286 -0.673286 0.30557
    outer loop
      vertex 12.6472 -11.9916 4.7693
      vertex 11.8212 -12.4125 5.66197
      vertex 11.9916 -12.6472 4.7693
    endloop
  endfacet
  facet normal 0.848389 0.432276 0.30557
    outer loop
      vertex 12.6472 11.9916 4.7693
      vertex 12.4125 11.8212 5.66197
      vertex 12.7922 11.076 5.66197
    endloop
  endfacet
  facet normal -0.673286 -0.673286 0.30557
    outer loop
      vertex -12.6472 -11.9916 4.7693
      vertex -11.8212 -12.4125 5.66197
      vertex -12.4125 -11.8212 5.66197
    endloop
  endfacet
  facet normal -0.673286 -0.673286 0.30557
    outer loop
      vertex -11.8212 -12.4125 5.66197
      vertex -12.6472 -11.9916 4.7693
      vertex -11.9916 -12.6472 4.7693
    endloop
  endfacet
  facet normal -0.848389 -0.432276 0.30557
    outer loop
      vertex -12.7922 -11.076 5.66197
      vertex -13.068 -11.1656 4.7693
      vertex -12.6472 -11.9916 4.7693
    endloop
  endfacet
  facet normal -0.308647 0.0488852 0.94992
    outer loop
      vertex -11.5453 10.6709 6.97302
      vertex -11.612 10.25 6.97302
      vertex -10.6963 10.395 7.26306
    endloop
  endfacet
  facet normal 0.802456 0.127097 0.583019
    outer loop
      vertex 12.7922 11.076 5.66197
      vertex 12.2675 10.9055 6.42132
      vertex 12.923 10.25 5.66197
    endloop
  endfacet
  facet normal -0.940447 0.148952 0.305569
    outer loop
      vertex -13.068 11.1656 4.7693
      vertex -13.2131 10.25 4.7693
      vertex -12.923 10.25 5.66197
    endloop
  endfacet
  facet normal -0.802456 0.127097 0.583019
    outer loop
      vertex -12.7922 11.076 5.66197
      vertex -12.923 10.25 5.66197
      vertex -12.2675 10.9055 6.42132
    endloop
  endfacet
  facet normal 0 -0.587786 0.809017
    outer loop
      vertex -10.25 -11.612 6.97302
      vertex 10.25 -12.3713 6.42132
      vertex 10.25 -11.612 6.97302
    endloop
  endfacet
  facet normal 0 -0.587786 0.809017
    outer loop
      vertex 10.25 -12.3713 6.42132
      vertex -10.25 -11.612 6.97302
      vertex -10.25 -12.3713 6.42132
    endloop
  endfacet
  facet normal 0.127097 -0.802456 0.583019
    outer loop
      vertex 10.9055 -12.2675 6.42132
      vertex 10.25 -12.923 5.66197
      vertex 11.076 -12.7922 5.66197
    endloop
  endfacet
  facet normal 0.148952 0.940447 0.305569
    outer loop
      vertex 10.25 13.2131 4.7693
      vertex 10.25 12.923 5.66197
      vertex 11.1656 13.068 4.7693
    endloop
  endfacet
  facet normal 0.368849 0.723906 0.583019
    outer loop
      vertex 11.076 12.7922 5.66197
      vertex 10.9055 12.2675 6.42132
      vertex 11.4969 11.9662 6.42132
    endloop
  endfacet
  facet normal 0.723906 0.368849 0.583019
    outer loop
      vertex 12.7922 11.076 5.66197
      vertex 11.9662 11.4969 6.42132
      vertex 12.2675 10.9055 6.42132
    endloop
  endfacet
  facet normal 0.940447 -0.148952 0.305569
    outer loop
      vertex 13.2131 -10.25 4.7693
      vertex 12.923 -10.25 5.66197
      vertex 13.068 -11.1656 4.7693
    endloop
  endfacet
  facet normal 0.585255 -0.0926952 0.805534
    outer loop
      vertex 12.3713 -10.25 6.42132
      vertex 11.612 -10.25 6.97302
      vertex 12.2675 -10.9055 6.42132
    endloop
  endfacet
  facet normal 0.453991 0.891006 -0
    outer loop
      vertex 11.9916 12.6472 0
      vertex 11.1656 13.068 4.7693
      vertex 11.9916 12.6472 4.7693
    endloop
  endfacet
  facet normal 0.453991 0.891006 0
    outer loop
      vertex 11.1656 13.068 4.7693
      vertex 11.9916 12.6472 0
      vertex 11.1656 13.068 0
    endloop
  endfacet
  facet normal 0.432276 0.848389 0.30557
    outer loop
      vertex 11.1656 13.068 4.7693
      vertex 11.076 12.7922 5.66197
      vertex 11.9916 12.6472 4.7693
    endloop
  endfacet
  facet normal 0.418996 -0.418996 0.805534
    outer loop
      vertex 11.3519 -11.0505 6.97302
      vertex 11.4969 -11.9662 6.42132
      vertex 11.9662 -11.4969 6.42132
    endloop
  endfacet
  facet normal 0.418996 -0.418996 0.805534
    outer loop
      vertex 11.4969 -11.9662 6.42132
      vertex 11.3519 -11.0505 6.97302
      vertex 11.0505 -11.3519 6.97302
    endloop
  endfacet
  facet normal 0.278434 0.14187 0.94992
    outer loop
      vertex 11.3519 11.0505 6.97302
      vertex 10.6297 10.5258 7.26306
      vertex 10.6963 10.395 7.26306
    endloop
  endfacet
  facet normal -0.309016 0 0.951057
    outer loop
      vertex -11.612 10.25 6.97302
      vertex -10.7193 -10.25 7.26306
      vertex -10.7193 10.25 7.26306
    endloop
  endfacet
  facet normal -0.309016 0 0.951057
    outer loop
      vertex -10.7193 -10.25 7.26306
      vertex -11.612 10.25 6.97302
      vertex -11.612 -10.25 6.97302
    endloop
  endfacet
  facet normal -0.527966 0.269012 0.805534
    outer loop
      vertex -11.9662 11.4969 6.42132
      vertex -12.2675 10.9055 6.42132
      vertex -11.3519 11.0505 6.97302
    endloop
  endfacet
  facet normal -0.0488852 0.308647 0.94992
    outer loop
      vertex -10.25 11.612 6.97302
      vertex -10.6709 11.5453 6.97302
      vertex -10.395 10.6963 7.26306
    endloop
  endfacet
  facet normal 0.707107 -0.707107 0
    outer loop
      vertex 11.9916 -12.6472 4.7693
      vertex 12.6472 -11.9916 0
      vertex 12.6472 -11.9916 4.7693
    endloop
  endfacet
  facet normal 0.707107 -0.707107 0
    outer loop
      vertex 12.6472 -11.9916 0
      vertex 11.9916 -12.6472 4.7693
      vertex 11.9916 -12.6472 0
    endloop
  endfacet
  facet normal 1 -0 0
    outer loop
      vertex 13.2131 -10.25 4.7693
      vertex 13.2131 10.25 0
      vertex 13.2131 10.25 4.7693
    endloop
  endfacet
  facet normal 1 0 0
    outer loop
      vertex 13.2131 10.25 0
      vertex 13.2131 -10.25 4.7693
      vertex 13.2131 -10.25 0
    endloop
  endfacet
  facet normal 0.987688 0.156434 0
    outer loop
      vertex 13.2131 10.25 4.7693
      vertex 13.068 11.1656 0
      vertex 13.068 11.1656 4.7693
    endloop
  endfacet
  facet normal 0.987688 0.156434 0
    outer loop
      vertex 13.068 11.1656 0
      vertex 13.2131 10.25 4.7693
      vertex 13.2131 10.25 0
    endloop
  endfacet
  facet normal -0.987688 -0.156434 0
    outer loop
      vertex -13.068 -11.1656 0
      vertex -13.2131 -10.25 4.7693
      vertex -13.2131 -10.25 0
    endloop
  endfacet
  facet normal -0.987688 -0.156434 0
    outer loop
      vertex -13.2131 -10.25 4.7693
      vertex -13.068 -11.1656 0
      vertex -13.068 -11.1656 4.7693
    endloop
  endfacet
  facet normal -0.14187 -0.278434 0.94992
    outer loop
      vertex -10.5258 -10.6297 7.26306
      vertex -11.0505 -11.3519 6.97302
      vertex -10.395 -10.6963 7.26306
    endloop
  endfacet
  facet normal -0.220967 -0.220967 0.94992
    outer loop
      vertex -10.6297 -10.5258 7.26306
      vertex -11.0505 -11.3519 6.97302
      vertex -10.5258 -10.6297 7.26306
    endloop
  endfacet
  facet normal -0.220967 -0.220967 0.94992
    outer loop
      vertex -11.0505 -11.3519 6.97302
      vertex -10.6297 -10.5258 7.26306
      vertex -11.3519 -11.0505 6.97302
    endloop
  endfacet
  facet normal -0.707107 -0.707107 0
    outer loop
      vertex -11.9916 -12.6472 0
      vertex -12.6472 -11.9916 4.7693
      vertex -12.6472 -11.9916 0
    endloop
  endfacet
  facet normal -0.707107 -0.707107 0
    outer loop
      vertex -12.6472 -11.9916 4.7693
      vertex -11.9916 -12.6472 0
      vertex -11.9916 -12.6472 4.7693
    endloop
  endfacet
  facet normal -0.148952 0.940447 0.30557
    outer loop
      vertex -10.25 12.923 5.66197
      vertex -11.1656 13.068 4.7693
      vertex -11.076 12.7922 5.66197
    endloop
  endfacet
  facet normal -0.432276 0.848389 0.30557
    outer loop
      vertex -11.1656 13.068 4.7693
      vertex -11.9916 12.6472 4.7693
      vertex -11.076 12.7922 5.66197
    endloop
  endfacet
  facet normal -0.269012 0.527966 0.805534
    outer loop
      vertex -10.9055 12.2675 6.42132
      vertex -11.0505 11.3519 6.97302
      vertex -10.6709 11.5453 6.97302
    endloop
  endfacet
  facet normal -0.802456 0.127096 0.583019
    outer loop
      vertex -12.2675 10.9055 6.42132
      vertex -12.923 10.25 5.66197
      vertex -12.3713 10.25 6.42132
    endloop
  endfacet
  facet normal -0.848389 0.432276 0.30557
    outer loop
      vertex -12.6472 11.9916 4.7693
      vertex -12.7922 11.076 5.66197
      vertex -12.4125 11.8212 5.66197
    endloop
  endfacet
  facet normal -0.673286 0.673286 0.30557
    outer loop
      vertex -12.6472 11.9916 4.7693
      vertex -11.8212 12.4125 5.66197
      vertex -11.9916 12.6472 4.7693
    endloop
  endfacet
  facet normal -0.673286 0.673286 0.30557
    outer loop
      vertex -11.8212 12.4125 5.66197
      vertex -12.6472 11.9916 4.7693
      vertex -12.4125 11.8212 5.66197
    endloop
  endfacet
  facet normal 0.148952 -0.940447 0.30557
    outer loop
      vertex 11.076 -12.7922 5.66197
      vertex 10.25 -12.923 5.66197
      vertex 11.1656 -13.068 4.7693
    endloop
  endfacet
  facet normal 0.432276 -0.848389 0.30557
    outer loop
      vertex 11.9916 -12.6472 4.7693
      vertex 11.076 -12.7922 5.66197
      vertex 11.1656 -13.068 4.7693
    endloop
  endfacet
  facet normal 0.309016 0 0.951057
    outer loop
      vertex 10.7193 10.25 7.26306
      vertex 11.612 -10.25 6.97302
      vertex 11.612 10.25 6.97302
    endloop
  endfacet
  facet normal 0.309016 0 0.951057
    outer loop
      vertex 11.612 -10.25 6.97302
      vertex 10.7193 10.25 7.26306
      vertex 10.7193 -10.25 7.26306
    endloop
  endfacet
  facet normal 0.418996 0.418996 0.805534
    outer loop
      vertex 11.4969 11.9662 6.42132
      vertex 11.3519 11.0505 6.97302
      vertex 11.9662 11.4969 6.42132
    endloop
  endfacet
  facet normal 0.418996 0.418996 0.805534
    outer loop
      vertex 11.3519 11.0505 6.97302
      vertex 11.4969 11.9662 6.42132
      vertex 11.0505 11.3519 6.97302
    endloop
  endfacet
  facet normal 0.432276 0.848389 0.30557
    outer loop
      vertex 11.9916 12.6472 4.7693
      vertex 11.076 12.7922 5.66197
      vertex 11.8212 12.4125 5.66197
    endloop
  endfacet
  facet normal 0.148952 0.940447 0.30557
    outer loop
      vertex 11.1656 13.068 4.7693
      vertex 10.25 12.923 5.66197
      vertex 11.076 12.7922 5.66197
    endloop
  endfacet
  facet normal 0.848389 -0.432276 0.30557
    outer loop
      vertex 12.7922 -11.076 5.66197
      vertex 12.6472 -11.9916 4.7693
      vertex 13.068 -11.1656 4.7693
    endloop
  endfacet
  facet normal 0.269012 -0.527966 0.805534
    outer loop
      vertex 11.0505 -11.3519 6.97302
      vertex 10.9055 -12.2675 6.42132
      vertex 11.4969 -11.9662 6.42132
    endloop
  endfacet
  facet normal 0.308647 -0.0488848 0.94992
    outer loop
      vertex 10.7193 -10.25 7.26306
      vertex 10.6963 -10.395 7.26306
      vertex 11.612 -10.25 6.97302
    endloop
  endfacet
  facet normal 0.527966 -0.269012 0.805534
    outer loop
      vertex 11.5453 -10.6709 6.97302
      vertex 11.3519 -11.0505 6.97302
      vertex 12.2675 -10.9055 6.42132
    endloop
  endfacet
  facet normal 0.308647 0.0488848 0.94992
    outer loop
      vertex 11.612 10.25 6.97302
      vertex 10.6963 10.395 7.26306
      vertex 10.7193 10.25 7.26306
    endloop
  endfacet
  facet normal 0.278435 0.141869 0.94992
    outer loop
      vertex 11.3519 11.0505 6.97302
      vertex 10.6963 10.395 7.26306
      vertex 11.5453 10.6709 6.97302
    endloop
  endfacet
  facet normal 0.0926952 0.585255 0.805534
    outer loop
      vertex 10.25 12.3713 6.42132
      vertex 10.25 11.612 6.97302
      vertex 10.9055 12.2675 6.42132
    endloop
  endfacet
  facet normal -0.585254 0.0926957 0.805534
    outer loop
      vertex -11.5453 10.6709 6.97302
      vertex -12.2675 10.9055 6.42132
      vertex -11.612 10.25 6.97302
    endloop
  endfacet
  facet normal -0.308647 0.0488848 0.94992
    outer loop
      vertex -10.6963 10.395 7.26306
      vertex -11.612 10.25 6.97302
      vertex -10.7193 10.25 7.26306
    endloop
  endfacet
  facet normal -0.127097 0.802456 0.583019
    outer loop
      vertex -10.25 12.923 5.66197
      vertex -11.076 12.7922 5.66197
      vertex -10.9055 12.2675 6.42132
    endloop
  endfacet
  facet normal 0.148952 -0.940447 0.305569
    outer loop
      vertex 10.25 -12.923 5.66197
      vertex 10.25 -13.2131 4.7693
      vertex 11.1656 -13.068 4.7693
    endloop
  endfacet
  facet normal 0.453991 -0.891006 0
    outer loop
      vertex 11.1656 -13.068 0
      vertex 11.9916 -12.6472 4.7693
      vertex 11.1656 -13.068 4.7693
    endloop
  endfacet
  facet normal 0.453991 -0.891006 0
    outer loop
      vertex 11.9916 -12.6472 4.7693
      vertex 11.1656 -13.068 0
      vertex 11.9916 -12.6472 0
    endloop
  endfacet
  facet normal 0.156434 -0.987688 0
    outer loop
      vertex 10.25 -13.2131 0
      vertex 11.1656 -13.068 4.7693
      vertex 10.25 -13.2131 4.7693
    endloop
  endfacet
  facet normal 0.156434 -0.987688 0
    outer loop
      vertex 11.1656 -13.068 4.7693
      vertex 10.25 -13.2131 0
      vertex 11.1656 -13.068 0
    endloop
  endfacet
  facet normal 0.527966 0.269012 0.805534
    outer loop
      vertex 11.9662 11.4969 6.42132
      vertex 11.3519 11.0505 6.97302
      vertex 12.2675 10.9055 6.42132
    endloop
  endfacet
  facet normal -0.308647 -0.0488852 0.94992
    outer loop
      vertex -10.6963 -10.395 7.26306
      vertex -11.612 -10.25 6.97302
      vertex -11.5453 -10.6709 6.97302
    endloop
  endfacet
  facet normal -0.432276 -0.848389 0.30557
    outer loop
      vertex -11.8212 -12.4125 5.66197
      vertex -11.9916 -12.6472 4.7693
      vertex -11.076 -12.7922 5.66197
    endloop
  endfacet
  facet normal -0.0488852 -0.308647 0.94992
    outer loop
      vertex -10.395 -10.6963 7.26306
      vertex -10.6709 -11.5453 6.97302
      vertex -10.25 -11.612 6.97302
    endloop
  endfacet
  facet normal -0.453991 -0.891006 0
    outer loop
      vertex -11.9916 -12.6472 0
      vertex -11.1656 -13.068 4.7693
      vertex -11.9916 -12.6472 4.7693
    endloop
  endfacet
  facet normal -0.453991 -0.891006 -0
    outer loop
      vertex -11.1656 -13.068 4.7693
      vertex -11.9916 -12.6472 0
      vertex -11.1656 -13.068 0
    endloop
  endfacet
  facet normal -0.802456 -0.127096 0.583019
    outer loop
      vertex -12.3713 -10.25 6.42132
      vertex -12.923 -10.25 5.66197
      vertex -12.2675 -10.9055 6.42132
    endloop
  endfacet
  facet normal -0.723906 -0.368849 0.583019
    outer loop
      vertex -12.2675 -10.9055 6.42132
      vertex -12.7922 -11.076 5.66197
      vertex -11.9662 -11.4969 6.42132
    endloop
  endfacet
  facet normal -0.587786 0 0.809017
    outer loop
      vertex -12.3713 10.25 6.42132
      vertex -11.612 -10.25 6.97302
      vertex -11.612 10.25 6.97302
    endloop
  endfacet
  facet normal -0.587786 0 0.809017
    outer loop
      vertex -11.612 -10.25 6.97302
      vertex -12.3713 10.25 6.42132
      vertex -12.3713 -10.25 6.42132
    endloop
  endfacet
  facet normal -0.940447 0.148952 0.30557
    outer loop
      vertex -12.7922 11.076 5.66197
      vertex -13.068 11.1656 4.7693
      vertex -12.923 10.25 5.66197
    endloop
  endfacet
  facet normal -0.951057 0 0.309016
    outer loop
      vertex -13.2131 -10.25 4.7693
      vertex -12.923 10.25 5.66197
      vertex -13.2131 10.25 4.7693
    endloop
  endfacet
  facet normal -0.951057 0 0.309016
    outer loop
      vertex -12.923 10.25 5.66197
      vertex -13.2131 -10.25 4.7693
      vertex -12.923 -10.25 5.66197
    endloop
  endfacet
  facet normal -0.723906 0.368849 0.583019
    outer loop
      vertex -11.9662 11.4969 6.42132
      vertex -12.7922 11.076 5.66197
      vertex -12.2675 10.9055 6.42132
    endloop
  endfacet
  facet normal -0.432276 0.848389 0.30557
    outer loop
      vertex -11.076 12.7922 5.66197
      vertex -11.9916 12.6472 4.7693
      vertex -11.8212 12.4125 5.66197
    endloop
  endfacet
  facet normal -0.0926952 0.585255 0.805534
    outer loop
      vertex -10.25 12.3713 6.42132
      vertex -10.9055 12.2675 6.42132
      vertex -10.25 11.612 6.97302
    endloop
  endfacet
  facet normal -0.368849 0.723906 0.583018
    outer loop
      vertex -11.076 12.7922 5.66197
      vertex -11.8212 12.4125 5.66197
      vertex -11.4969 11.9662 6.42132
    endloop
  endfacet
  facet normal -0.848389 0.432276 0.30557
    outer loop
      vertex -12.6472 11.9916 4.7693
      vertex -13.068 11.1656 4.7693
      vertex -12.7922 11.076 5.66197
    endloop
  endfacet
  facet normal 0.585254 0.0926957 0.805534
    outer loop
      vertex 12.2675 10.9055 6.42132
      vertex 11.5453 10.6709 6.97302
      vertex 11.612 10.25 6.97302
    endloop
  endfacet
  facet normal 0.802456 0.127096 0.583019
    outer loop
      vertex 12.923 10.25 5.66197
      vertex 12.2675 10.9055 6.42132
      vertex 12.3713 10.25 6.42132
    endloop
  endfacet
  facet normal 0.987688 -0.156434 0
    outer loop
      vertex 13.068 -11.1656 4.7693
      vertex 13.2131 -10.25 0
      vertex 13.2131 -10.25 4.7693
    endloop
  endfacet
  facet normal 0.987688 -0.156434 0
    outer loop
      vertex 13.2131 -10.25 0
      vertex 13.068 -11.1656 4.7693
      vertex 13.068 -11.1656 0
    endloop
  endfacet
  facet normal 0.574495 -0.574495 0.583018
    outer loop
      vertex 11.9662 -11.4969 6.42132
      vertex 11.8212 -12.4125 5.66197
      vertex 12.4125 -11.8212 5.66197
    endloop
  endfacet
  facet normal 0.574495 -0.574495 0.583018
    outer loop
      vertex 11.8212 -12.4125 5.66197
      vertex 11.9662 -11.4969 6.42132
      vertex 11.4969 -11.9662 6.42132
    endloop
  endfacet
  facet normal 0.802456 -0.127096 0.583019
    outer loop
      vertex 12.3713 -10.25 6.42132
      vertex 12.2675 -10.9055 6.42132
      vertex 12.923 -10.25 5.66197
    endloop
  endfacet
  facet normal 0.127096 -0.802456 0.583019
    outer loop
      vertex 10.25 -12.3713 6.42132
      vertex 10.25 -12.923 5.66197
      vertex 10.9055 -12.2675 6.42132
    endloop
  endfacet
  facet normal 0.141869 -0.278435 0.94992
    outer loop
      vertex 11.0505 -11.3519 6.97302
      vertex 10.395 -10.6963 7.26306
      vertex 10.6709 -11.5453 6.97302
    endloop
  endfacet
  facet normal 0.723906 -0.368849 0.583018
    outer loop
      vertex 12.7922 -11.076 5.66197
      vertex 11.9662 -11.4969 6.42132
      vertex 12.4125 -11.8212 5.66197
    endloop
  endfacet
  facet normal 0.432276 -0.848389 0.30557
    outer loop
      vertex 11.8212 -12.4125 5.66197
      vertex 11.076 -12.7922 5.66197
      vertex 11.9916 -12.6472 4.7693
    endloop
  endfacet
  facet normal 0.220967 -0.220967 0.94992
    outer loop
      vertex 10.6297 -10.5258 7.26306
      vertex 11.0505 -11.3519 6.97302
      vertex 11.3519 -11.0505 6.97302
    endloop
  endfacet
  facet normal 0.220967 -0.220967 0.94992
    outer loop
      vertex 11.0505 -11.3519 6.97302
      vertex 10.6297 -10.5258 7.26306
      vertex 10.5258 -10.6297 7.26306
    endloop
  endfacet
  facet normal 0.278435 -0.141869 0.94992
    outer loop
      vertex 11.5453 -10.6709 6.97302
      vertex 10.6963 -10.395 7.26306
      vertex 11.3519 -11.0505 6.97302
    endloop
  endfacet
  facet normal 0.308647 -0.0488852 0.94992
    outer loop
      vertex 11.612 -10.25 6.97302
      vertex 10.6963 -10.395 7.26306
      vertex 11.5453 -10.6709 6.97302
    endloop
  endfacet
  facet normal 0.308647 0.0488852 0.94992
    outer loop
      vertex 11.5453 10.6709 6.97302
      vertex 10.6963 10.395 7.26306
      vertex 11.612 10.25 6.97302
    endloop
  endfacet
  facet normal 0.527966 0.269012 0.805534
    outer loop
      vertex 12.2675 10.9055 6.42132
      vertex 11.3519 11.0505 6.97302
      vertex 11.5453 10.6709 6.97302
    endloop
  endfacet
  facet normal 0.220967 0.220967 0.94992
    outer loop
      vertex 11.0505 11.3519 6.97302
      vertex 10.6297 10.5258 7.26306
      vertex 11.3519 11.0505 6.97302
    endloop
  endfacet
  facet normal 0.220967 0.220967 0.94992
    outer loop
      vertex 10.6297 10.5258 7.26306
      vertex 11.0505 11.3519 6.97302
      vertex 10.5258 10.6297 7.26306
    endloop
  endfacet
  facet normal 0.0926957 0.585254 0.805534
    outer loop
      vertex 10.9055 12.2675 6.42132
      vertex 10.25 11.612 6.97302
      vertex 10.6709 11.5453 6.97302
    endloop
  endfacet
  facet normal 0.127097 0.802456 0.583019
    outer loop
      vertex 11.076 12.7922 5.66197
      vertex 10.25 12.923 5.66197
      vertex 10.9055 12.2675 6.42132
    endloop
  endfacet
  facet normal 0.127096 0.802456 0.583019
    outer loop
      vertex 10.25 12.923 5.66197
      vertex 10.25 12.3713 6.42132
      vertex 10.9055 12.2675 6.42132
    endloop
  endfacet
  facet normal -0.127096 0.802456 0.583019
    outer loop
      vertex -10.25 12.923 5.66197
      vertex -10.9055 12.2675 6.42132
      vertex -10.25 12.3713 6.42132
    endloop
  endfacet
  facet normal 0 0.587788 0.809015
    outer loop
      vertex -4.75 12.3713 6.42132
      vertex -10.25 12.3713 6.42132
      vertex -4.75 12.3318 6.45
    endloop
  endfacet
  facet normal 0 0.587788 0.809015
    outer loop
      vertex 4.75 12.3318 6.45
      vertex 10.25 12.3713 6.42132
      vertex 4.75 12.3713 6.42132
    endloop
  endfacet
  facet normal 2.85908e-08 0.587786 0.809017
    outer loop
      vertex 10.25 12.3713 6.42132
      vertex 4.75 12.3318 6.45
      vertex 10.25 11.612 6.97302
    endloop
  endfacet
  facet normal -0 0.587785 0.809017
    outer loop
      vertex -4.75 12.3318 6.45
      vertex 10.25 11.612 6.97302
      vertex 4.75 12.3318 6.45
    endloop
  endfacet
  facet normal -2.85908e-08 0.587786 0.809017
    outer loop
      vertex -10.25 11.612 6.97302
      vertex -4.75 12.3318 6.45
      vertex -10.25 12.3713 6.42132
    endloop
  endfacet
  facet normal 0 0.587785 0.809017
    outer loop
      vertex -4.75 12.3318 6.45
      vertex -10.25 11.612 6.97302
      vertex 10.25 11.612 6.97302
    endloop
  endfacet
  facet normal 0.940447 0.148952 0.305569
    outer loop
      vertex 13.068 11.1656 4.7693
      vertex 12.923 10.25 5.66197
      vertex 13.2131 10.25 4.7693
    endloop
  endfacet
  facet normal 0.940447 0.148952 0.30557
    outer loop
      vertex 13.068 11.1656 4.7693
      vertex 12.7922 11.076 5.66197
      vertex 12.923 10.25 5.66197
    endloop
  endfacet
  facet normal 0.848389 0.432276 0.30557
    outer loop
      vertex 13.068 11.1656 4.7693
      vertex 12.6472 11.9916 4.7693
      vertex 12.7922 11.076 5.66197
    endloop
  endfacet
  facet normal -0.278435 0.141869 0.94992
    outer loop
      vertex -11.3519 11.0505 6.97302
      vertex -11.5453 10.6709 6.97302
      vertex -10.6963 10.395 7.26306
    endloop
  endfacet
  facet normal 0 0 1
    outer loop
      vertex 10.25 10.7193 7.26306
      vertex 10.7193 10.25 7.26306
      vertex 10.6963 10.395 7.26306
    endloop
  endfacet
  facet normal 0 0 1
    outer loop
      vertex 10.7193 10.25 7.26306
      vertex 9.25 -3.75 7.26306
      vertex 10.7193 -10.25 7.26306
    endloop
  endfacet
  facet normal 0 0 1
    outer loop
      vertex 10.25 10.7193 7.26306
      vertex 10.6963 10.395 7.26306
      vertex 10.6297 10.5258 7.26306
    endloop
  endfacet
  facet normal -0 0 1
    outer loop
      vertex 9.12764 -4.52254 7.26306
      vertex 10.7193 -10.25 7.26306
      vertex 9.25 -3.75 7.26306
    endloop
  endfacet
  facet normal 0 0 1
    outer loop
      vertex 10.25 10.7193 7.26306
      vertex 10.6297 10.5258 7.26306
      vertex 10.5258 10.6297 7.26306
    endloop
  endfacet
  facet normal -0 0 1
    outer loop
      vertex 8.77254 -5.21946 7.26306
      vertex 10.7193 -10.25 7.26306
      vertex 9.12764 -4.52254 7.26306
    endloop
  endfacet
  facet normal 0 0 1
    outer loop
      vertex 10.25 10.7193 7.26306
      vertex 10.5258 10.6297 7.26306
      vertex 10.395 10.6963 7.26306
    endloop
  endfacet
  facet normal -0 0 1
    outer loop
      vertex 8.21946 -5.77254 7.26306
      vertex 10.7193 -10.25 7.26306
      vertex 8.77254 -5.21946 7.26306
    endloop
  endfacet
  facet normal 0 0 1
    outer loop
      vertex 10.7193 10.25 7.26306
      vertex 10.25 10.7193 7.26306
      vertex 6.75 -1.25 7.26306
    endloop
  endfacet
  facet normal -0 0 1
    outer loop
      vertex 7.52254 -6.12764 7.26306
      vertex 10.7193 -10.25 7.26306
      vertex 8.21946 -5.77254 7.26306
    endloop
  endfacet
  facet normal 0 -0 1
    outer loop
      vertex 10.25 -10.7193 7.26306
      vertex 10.7193 -10.25 7.26306
      vertex 7.52254 -6.12764 7.26306
    endloop
  endfacet
  facet normal 0 0 1
    outer loop
      vertex 10.7193 10.25 7.26306
      vertex 9.12764 -2.97746 7.26306
      vertex 9.25 -3.75 7.26306
    endloop
  endfacet
  facet normal 0 0 1
    outer loop
      vertex 10.7193 10.25 7.26306
      vertex 8.77254 -2.28054 7.26306
      vertex 9.12764 -2.97746 7.26306
    endloop
  endfacet
  facet normal 0 0 1
    outer loop
      vertex 10.7193 10.25 7.26306
      vertex 8.21946 -1.72746 7.26306
      vertex 8.77254 -2.28054 7.26306
    endloop
  endfacet
  facet normal 0 0 1
    outer loop
      vertex 10.7193 10.25 7.26306
      vertex 7.52254 -1.37236 7.26306
      vertex 8.21946 -1.72746 7.26306
    endloop
  endfacet
  facet normal 0 0 1
    outer loop
      vertex 10.7193 10.25 7.26306
      vertex 6.75 -1.25 7.26306
      vertex 7.52254 -1.37236 7.26306
    endloop
  endfacet
  facet normal 0 0 1
    outer loop
      vertex 10.25 10.7193 7.26306
      vertex 5.97746 -1.37236 7.26306
      vertex 6.75 -1.25 7.26306
    endloop
  endfacet
  facet normal 0 0 1
    outer loop
      vertex 10.25 10.7193 7.26306
      vertex 5.28054 -1.72746 7.26306
      vertex 5.97746 -1.37236 7.26306
    endloop
  endfacet
  facet normal -0 0 1
    outer loop
      vertex -10.25 10.7193 7.26306
      vertex 5.28054 -1.72746 7.26306
      vertex 10.25 10.7193 7.26306
    endloop
  endfacet
  facet normal 0 0 1
    outer loop
      vertex 5.28054 -1.72746 7.26306
      vertex -10.25 10.7193 7.26306
      vertex 4.72746 -2.28054 7.26306
    endloop
  endfacet
  facet normal 0 0 1
    outer loop
      vertex 4.72746 -2.28054 7.26306
      vertex -10.7193 10.25 7.26306
      vertex 4.37236 -2.97746 7.26306
    endloop
  endfacet
  facet normal -0 0 1
    outer loop
      vertex -10.7193 10.25 7.26306
      vertex 4.72746 -2.28054 7.26306
      vertex -10.25 10.7193 7.26306
    endloop
  endfacet
  facet normal 0 0 1
    outer loop
      vertex 10.6963 -10.395 7.26306
      vertex 10.25 -10.7193 7.26306
      vertex 10.6297 -10.5258 7.26306
    endloop
  endfacet
  facet normal 0 0 1
    outer loop
      vertex 10.6297 -10.5258 7.26306
      vertex 10.25 -10.7193 7.26306
      vertex 10.5258 -10.6297 7.26306
    endloop
  endfacet
  facet normal 0 0 1
    outer loop
      vertex 10.5258 -10.6297 7.26306
      vertex 10.25 -10.7193 7.26306
      vertex 10.395 -10.6963 7.26306
    endloop
  endfacet
  facet normal 0 0 1
    outer loop
      vertex 10.7193 -10.25 7.26306
      vertex 10.25 -10.7193 7.26306
      vertex 10.6963 -10.395 7.26306
    endloop
  endfacet
  facet normal -0 0 1
    outer loop
      vertex 6.75 -6.25 7.26306
      vertex 10.25 -10.7193 7.26306
      vertex 7.52254 -6.12764 7.26306
    endloop
  endfacet
  facet normal 0 0 1
    outer loop
      vertex 5.97746 -6.12764 7.26306
      vertex 10.25 -10.7193 7.26306
      vertex 6.75 -6.25 7.26306
    endloop
  endfacet
  facet normal 0 0 1
    outer loop
      vertex 5.28054 -5.77254 7.26306
      vertex 10.25 -10.7193 7.26306
      vertex 5.97746 -6.12764 7.26306
    endloop
  endfacet
  facet normal 0 0 1
    outer loop
      vertex -10.7193 -10.25 7.26306
      vertex 4.37236 -2.97746 7.26306
      vertex -10.7193 10.25 7.26306
    endloop
  endfacet
  facet normal 0 0 1
    outer loop
      vertex 4.37236 -2.97746 7.26306
      vertex -10.7193 -10.25 7.26306
      vertex 4.25 -3.75 7.26306
    endloop
  endfacet
  facet normal 0 0 1
    outer loop
      vertex 5.28054 -5.77254 7.26306
      vertex -10.25 -10.7193 7.26306
      vertex 10.25 -10.7193 7.26306
    endloop
  endfacet
  facet normal 0 0 1
    outer loop
      vertex 4.72746 -5.21946 7.26306
      vertex -10.25 -10.7193 7.26306
      vertex 5.28054 -5.77254 7.26306
    endloop
  endfacet
  facet normal 0 -0 1
    outer loop
      vertex -10.25 -10.7193 7.26306
      vertex 4.25 -3.75 7.26306
      vertex -10.7193 -10.25 7.26306
    endloop
  endfacet
  facet normal 0 0 1
    outer loop
      vertex -10.7193 10.25 7.26306
      vertex -10.25 10.7193 7.26306
      vertex -10.395 10.6963 7.26306
    endloop
  endfacet
  facet normal 0 0 1
    outer loop
      vertex 4.25 -3.75 7.26306
      vertex -10.25 -10.7193 7.26306
      vertex 4.37236 -4.52254 7.26306
    endloop
  endfacet
  facet normal 0 0 1
    outer loop
      vertex -10.7193 10.25 7.26306
      vertex -10.395 10.6963 7.26306
      vertex -10.5258 10.6297 7.26306
    endloop
  endfacet
  facet normal 0 0 1
    outer loop
      vertex 4.37236 -4.52254 7.26306
      vertex -10.25 -10.7193 7.26306
      vertex 4.72746 -5.21946 7.26306
    endloop
  endfacet
  facet normal 0 0 1
    outer loop
      vertex -10.7193 10.25 7.26306
      vertex -10.5258 10.6297 7.26306
      vertex -10.6297 10.5258 7.26306
    endloop
  endfacet
  facet normal 0 0 1
    outer loop
      vertex -10.25 -10.7193 7.26306
      vertex -10.7193 -10.25 7.26306
      vertex -10.395 -10.6963 7.26306
    endloop
  endfacet
  facet normal 0 0 1
    outer loop
      vertex -10.7193 10.25 7.26306
      vertex -10.6297 10.5258 7.26306
      vertex -10.6963 10.395 7.26306
    endloop
  endfacet
  facet normal 0 0 1
    outer loop
      vertex -10.395 -10.6963 7.26306
      vertex -10.7193 -10.25 7.26306
      vertex -10.5258 -10.6297 7.26306
    endloop
  endfacet
  facet normal 0 0 1
    outer loop
      vertex -10.5258 -10.6297 7.26306
      vertex -10.7193 -10.25 7.26306
      vertex -10.6297 -10.5258 7.26306
    endloop
  endfacet
  facet normal 0 0 1
    outer loop
      vertex -10.6297 -10.5258 7.26306
      vertex -10.7193 -10.25 7.26306
      vertex -10.6963 -10.395 7.26306
    endloop
  endfacet
  facet normal -0.0926957 -0.585254 0.805534
    outer loop
      vertex -10.6709 -11.5453 6.97302
      vertex -10.9055 -12.2675 6.42132
      vertex -10.25 -11.612 6.97302
    endloop
  endfacet
  facet normal -0.0488848 -0.308647 0.94992
    outer loop
      vertex -10.25 -10.7193 7.26306
      vertex -10.395 -10.6963 7.26306
      vertex -10.25 -11.612 6.97302
    endloop
  endfacet
  facet normal 0 -0.309016 0.951057
    outer loop
      vertex -10.25 -10.7193 7.26306
      vertex 10.25 -11.612 6.97302
      vertex 10.25 -10.7193 7.26306
    endloop
  endfacet
  facet normal 0 -0.309016 0.951057
    outer loop
      vertex 10.25 -11.612 6.97302
      vertex -10.25 -10.7193 7.26306
      vertex -10.25 -11.612 6.97302
    endloop
  endfacet
  facet normal -0.368849 -0.723906 0.583018
    outer loop
      vertex -11.4969 -11.9662 6.42132
      vertex -11.8212 -12.4125 5.66197
      vertex -11.076 -12.7922 5.66197
    endloop
  endfacet
  facet normal -0.723906 -0.368849 0.583018
    outer loop
      vertex -11.9662 -11.4969 6.42132
      vertex -12.7922 -11.076 5.66197
      vertex -12.4125 -11.8212 5.66197
    endloop
  endfacet
  facet normal -0.891006 -0.453991 0
    outer loop
      vertex -12.6472 -11.9916 0
      vertex -13.068 -11.1656 4.7693
      vertex -13.068 -11.1656 0
    endloop
  endfacet
  facet normal -0.891006 -0.453991 0
    outer loop
      vertex -13.068 -11.1656 4.7693
      vertex -12.6472 -11.9916 0
      vertex -12.6472 -11.9916 4.7693
    endloop
  endfacet
  facet normal -0.809017 0 0.587786
    outer loop
      vertex -12.923 -10.25 5.66197
      vertex -12.3713 10.25 6.42132
      vertex -12.923 10.25 5.66197
    endloop
  endfacet
  facet normal -0.809017 0 0.587786
    outer loop
      vertex -12.3713 10.25 6.42132
      vertex -12.923 -10.25 5.66197
      vertex -12.3713 -10.25 6.42132
    endloop
  endfacet
  facet normal -0.0926957 0.585254 0.805534
    outer loop
      vertex -10.25 11.612 6.97302
      vertex -10.9055 12.2675 6.42132
      vertex -10.6709 11.5453 6.97302
    endloop
  endfacet
  facet normal -0.574495 0.574495 0.583018
    outer loop
      vertex -11.8212 12.4125 5.66197
      vertex -11.9662 11.4969 6.42132
      vertex -11.4969 11.9662 6.42132
    endloop
  endfacet
  facet normal -0.574495 0.574495 0.583018
    outer loop
      vertex -11.9662 11.4969 6.42132
      vertex -11.8212 12.4125 5.66197
      vertex -12.4125 11.8212 5.66197
    endloop
  endfacet
  facet normal 0.585255 0.0926952 0.805534
    outer loop
      vertex 12.2675 10.9055 6.42132
      vertex 11.612 10.25 6.97302
      vertex 12.3713 10.25 6.42132
    endloop
  endfacet
  facet normal 0.723906 0.368849 0.583018
    outer loop
      vertex 12.4125 11.8212 5.66197
      vertex 11.9662 11.4969 6.42132
      vertex 12.7922 11.076 5.66197
    endloop
  endfacet
  facet normal 0.574495 0.574495 0.583018
    outer loop
      vertex 11.8212 12.4125 5.66197
      vertex 11.9662 11.4969 6.42132
      vertex 12.4125 11.8212 5.66197
    endloop
  endfacet
  facet normal 0.574495 0.574495 0.583018
    outer loop
      vertex 11.9662 11.4969 6.42132
      vertex 11.8212 12.4125 5.66197
      vertex 11.4969 11.9662 6.42132
    endloop
  endfacet
  facet normal 0.848389 -0.432276 0.30557
    outer loop
      vertex 12.7922 -11.076 5.66197
      vertex 12.4125 -11.8212 5.66197
      vertex 12.6472 -11.9916 4.7693
    endloop
  endfacet
  facet normal 0.940447 -0.148952 0.30557
    outer loop
      vertex 12.923 -10.25 5.66197
      vertex 12.7922 -11.076 5.66197
      vertex 13.068 -11.1656 4.7693
    endloop
  endfacet
  facet normal 0.723906 -0.368849 0.583019
    outer loop
      vertex 12.2675 -10.9055 6.42132
      vertex 11.9662 -11.4969 6.42132
      vertex 12.7922 -11.076 5.66197
    endloop
  endfacet
  facet normal 0.527966 -0.269012 0.805534
    outer loop
      vertex 12.2675 -10.9055 6.42132
      vertex 11.3519 -11.0505 6.97302
      vertex 11.9662 -11.4969 6.42132
    endloop
  endfacet
  facet normal 0.14187 -0.278434 0.94992
    outer loop
      vertex 10.5258 -10.6297 7.26306
      vertex 10.395 -10.6963 7.26306
      vertex 11.0505 -11.3519 6.97302
    endloop
  endfacet
  facet normal 0.269012 -0.527966 0.805534
    outer loop
      vertex 11.0505 -11.3519 6.97302
      vertex 10.6709 -11.5453 6.97302
      vertex 10.9055 -12.2675 6.42132
    endloop
  endfacet
  facet normal 0.0926957 -0.585254 0.805534
    outer loop
      vertex 10.6709 -11.5453 6.97302
      vertex 10.25 -11.612 6.97302
      vertex 10.9055 -12.2675 6.42132
    endloop
  endfacet
  facet normal 0.0488848 0.308647 0.94992
    outer loop
      vertex 10.25 11.612 6.97302
      vertex 10.25 10.7193 7.26306
      vertex 10.395 10.6963 7.26306
    endloop
  endfacet
  facet normal 0.0488852 0.308647 0.94992
    outer loop
      vertex 10.6709 11.5453 6.97302
      vertex 10.25 11.612 6.97302
      vertex 10.395 10.6963 7.26306
    endloop
  endfacet
  facet normal 0.141869 0.278435 0.94992
    outer loop
      vertex 10.6709 11.5453 6.97302
      vertex 10.395 10.6963 7.26306
      vertex 11.0505 11.3519 6.97302
    endloop
  endfacet
  facet normal -0.14187 0.278434 0.94992
    outer loop
      vertex -10.395 10.6963 7.26306
      vertex -11.0505 11.3519 6.97302
      vertex -10.5258 10.6297 7.26306
    endloop
  endfacet
  facet normal -0.278434 0.14187 0.94992
    outer loop
      vertex -10.6297 10.5258 7.26306
      vertex -11.3519 11.0505 6.97302
      vertex -10.6963 10.395 7.26306
    endloop
  endfacet
  facet normal -0.308647 -0.0488848 0.94992
    outer loop
      vertex -10.7193 -10.25 7.26306
      vertex -11.612 -10.25 6.97302
      vertex -10.6963 -10.395 7.26306
    endloop
  endfacet
  facet normal -0.127097 -0.802456 0.583019
    outer loop
      vertex -10.9055 -12.2675 6.42132
      vertex -11.076 -12.7922 5.66197
      vertex -10.25 -12.923 5.66197
    endloop
  endfacet
  facet normal -0.269012 -0.527966 0.805534
    outer loop
      vertex -10.6709 -11.5453 6.97302
      vertex -11.0505 -11.3519 6.97302
      vertex -10.9055 -12.2675 6.42132
    endloop
  endfacet
  facet normal -0.940447 -0.148952 0.30557
    outer loop
      vertex -12.923 -10.25 5.66197
      vertex -13.068 -11.1656 4.7693
      vertex -12.7922 -11.076 5.66197
    endloop
  endfacet
  facet normal -0.940447 -0.148952 0.305569
    outer loop
      vertex -12.923 -10.25 5.66197
      vertex -13.2131 -10.25 4.7693
      vertex -13.068 -11.1656 4.7693
    endloop
  endfacet
  facet normal -0.418996 0.418996 0.805534
    outer loop
      vertex -11.4969 11.9662 6.42132
      vertex -11.3519 11.0505 6.97302
      vertex -11.0505 11.3519 6.97302
    endloop
  endfacet
  facet normal -0.418996 0.418996 0.805534
    outer loop
      vertex -11.3519 11.0505 6.97302
      vertex -11.4969 11.9662 6.42132
      vertex -11.9662 11.4969 6.42132
    endloop
  endfacet
  facet normal 0.368849 -0.723906 0.583019
    outer loop
      vertex 11.4969 -11.9662 6.42132
      vertex 10.9055 -12.2675 6.42132
      vertex 11.076 -12.7922 5.66197
    endloop
  endfacet
  facet normal 0.368849 -0.723906 0.583018
    outer loop
      vertex 11.4969 -11.9662 6.42132
      vertex 11.076 -12.7922 5.66197
      vertex 11.8212 -12.4125 5.66197
    endloop
  endfacet
  facet normal 0.14187 0.278434 0.94992
    outer loop
      vertex 11.0505 11.3519 6.97302
      vertex 10.395 10.6963 7.26306
      vertex 10.5258 10.6297 7.26306
    endloop
  endfacet
  facet normal -0.220967 0.220967 0.94992
    outer loop
      vertex -11.0505 11.3519 6.97302
      vertex -10.6297 10.5258 7.26306
      vertex -10.5258 10.6297 7.26306
    endloop
  endfacet
  facet normal -0.220967 0.220967 0.94992
    outer loop
      vertex -10.6297 10.5258 7.26306
      vertex -11.0505 11.3519 6.97302
      vertex -11.3519 11.0505 6.97302
    endloop
  endfacet
  facet normal -0.368849 -0.723906 0.583019
    outer loop
      vertex -10.9055 -12.2675 6.42132
      vertex -11.4969 -11.9662 6.42132
      vertex -11.076 -12.7922 5.66197
    endloop
  endfacet
  facet normal -0.127096 -0.802456 0.583019
    outer loop
      vertex -10.25 -12.3713 6.42132
      vertex -10.9055 -12.2675 6.42132
      vertex -10.25 -12.923 5.66197
    endloop
  endfacet
  facet normal -0.418996 -0.418996 0.805534
    outer loop
      vertex -11.3519 -11.0505 6.97302
      vertex -11.4969 -11.9662 6.42132
      vertex -11.0505 -11.3519 6.97302
    endloop
  endfacet
  facet normal -0.418996 -0.418996 0.805534
    outer loop
      vertex -11.4969 -11.9662 6.42132
      vertex -11.3519 -11.0505 6.97302
      vertex -11.9662 -11.4969 6.42132
    endloop
  endfacet
  facet normal -0.802456 -0.127097 0.583019
    outer loop
      vertex -12.2675 -10.9055 6.42132
      vertex -12.923 -10.25 5.66197
      vertex -12.7922 -11.076 5.66197
    endloop
  endfacet
  facet normal -0.368849 0.723906 0.583019
    outer loop
      vertex -11.076 12.7922 5.66197
      vertex -11.4969 11.9662 6.42132
      vertex -10.9055 12.2675 6.42132
    endloop
  endfacet
  facet normal -0.269012 0.527966 0.805534
    outer loop
      vertex -10.9055 12.2675 6.42132
      vertex -11.4969 11.9662 6.42132
      vertex -11.0505 11.3519 6.97302
    endloop
  endfacet
  facet normal -0.432276 -0.848389 0.30557
    outer loop
      vertex -11.076 -12.7922 5.66197
      vertex -11.9916 -12.6472 4.7693
      vertex -11.1656 -13.068 4.7693
    endloop
  endfacet
  facet normal -0.148952 -0.940447 0.30557
    outer loop
      vertex -11.076 -12.7922 5.66197
      vertex -11.1656 -13.068 4.7693
      vertex -10.25 -12.923 5.66197
    endloop
  endfacet
  facet normal -0.527966 -0.269012 0.805534
    outer loop
      vertex -11.5453 -10.6709 6.97302
      vertex -12.2675 -10.9055 6.42132
      vertex -11.3519 -11.0505 6.97302
    endloop
  endfacet
  facet normal -0.585254 -0.0926957 0.805534
    outer loop
      vertex -11.612 -10.25 6.97302
      vertex -12.2675 -10.9055 6.42132
      vertex -11.5453 -10.6709 6.97302
    endloop
  endfacet
  facet normal -0.848389 -0.432276 0.30557
    outer loop
      vertex -12.4125 -11.8212 5.66197
      vertex -12.7922 -11.076 5.66197
      vertex -12.6472 -11.9916 4.7693
    endloop
  endfacet
  facet normal 1 0 0
    outer loop
      vertex -11.75 11.75 5.8
      vertex -11.75 8.75 2.72727
      vertex -11.75 11.75 0
    endloop
  endfacet
  facet normal 1 0 0
    outer loop
      vertex -11.75 11.75 5.8
      vertex -11.75 5.75 2.72727
      vertex -11.75 8.75 2.72727
    endloop
  endfacet
  facet normal 1 0 0
    outer loop
      vertex -11.75 5.75 2.72727
      vertex -11.75 1.5 2.72727
      vertex -11.75 5.75 1.5
    endloop
  endfacet
  facet normal 1 0 0
    outer loop
      vertex -11.75 11.75 5.8
      vertex -11.75 1.5 2.72727
      vertex -11.75 5.75 2.72727
    endloop
  endfacet
  facet normal 1 0 0
    outer loop
      vertex -11.75 11.75 5.8
      vertex -11.75 -1.5 2.72727
      vertex -11.75 1.5 2.72727
    endloop
  endfacet
  facet normal 1 0 0
    outer loop
      vertex -11.75 -1.5 2.72727
      vertex -11.75 -5.75 2.72727
      vertex -11.75 -1.5 1.5
    endloop
  endfacet
  facet normal 1 -0 0
    outer loop
      vertex -11.75 -11.75 5.8
      vertex -11.75 -1.5 2.72727
      vertex -11.75 11.75 5.8
    endloop
  endfacet
  facet normal 1 0 0
    outer loop
      vertex -11.75 -1.5 2.72727
      vertex -11.75 -11.75 5.8
      vertex -11.75 -5.75 2.72727
    endloop
  endfacet
  facet normal 1 0 0
    outer loop
      vertex -11.75 -11.75 0
      vertex -11.75 -8.75 2.72727
      vertex -11.75 -11.75 5.8
    endloop
  endfacet
  facet normal 1 0 0
    outer loop
      vertex -11.75 -5.75 2.72727
      vertex -11.75 -11.75 5.8
      vertex -11.75 -8.75 2.72727
    endloop
  endfacet
  facet normal 1 -0 0
    outer loop
      vertex -11.75 8.75 1.5
      vertex -11.75 11.75 0
      vertex -11.75 8.75 2.72727
    endloop
  endfacet
  facet normal 1 -0 0
    outer loop
      vertex -11.75 5.75 1.5
      vertex -11.75 11.75 0
      vertex -11.75 8.75 1.5
    endloop
  endfacet
  facet normal 1 0 0
    outer loop
      vertex -11.75 1.5 1.5
      vertex -11.75 5.75 1.5
      vertex -11.75 1.5 2.72727
    endloop
  endfacet
  facet normal 1 -0 0
    outer loop
      vertex -11.75 1.5 1.5
      vertex -11.75 11.75 0
      vertex -11.75 5.75 1.5
    endloop
  endfacet
  facet normal 1 -0 0
    outer loop
      vertex -11.75 -1.5 1.5
      vertex -11.75 11.75 0
      vertex -11.75 1.5 1.5
    endloop
  endfacet
  facet normal 1 0 0
    outer loop
      vertex -11.75 -5.75 1.5
      vertex -11.75 -1.5 1.5
      vertex -11.75 -5.75 2.72727
    endloop
  endfacet
  facet normal 1 0 0
    outer loop
      vertex -11.75 -11.75 0
      vertex -11.75 -1.5 1.5
      vertex -11.75 -5.75 1.5
    endloop
  endfacet
  facet normal 1 0 0
    outer loop
      vertex -11.75 -11.75 0
      vertex -11.75 -5.75 1.5
      vertex -11.75 -8.75 1.5
    endloop
  endfacet
  facet normal 1 0 0
    outer loop
      vertex -11.75 -1.5 1.5
      vertex -11.75 -11.75 0
      vertex -11.75 11.75 0
    endloop
  endfacet
  facet normal 1 0 0
    outer loop
      vertex -11.75 -8.75 2.72727
      vertex -11.75 -11.75 0
      vertex -11.75 -8.75 1.5
    endloop
  endfacet
  facet normal 0 0 -1
    outer loop
      vertex 4.72746 -2.28054 5.8
      vertex 4.75 6.75 5.8
      vertex 5.28054 -1.72746 5.8
    endloop
  endfacet
  facet normal 0 0 -1
    outer loop
      vertex -4.75 6.75 5.8
      vertex 4.72746 -2.28054 5.8
      vertex 4.37236 -2.97746 5.8
    endloop
  endfacet
  facet normal 0 0 -1
    outer loop
      vertex -4.75 6.75 5.8
      vertex 4.37236 -2.97746 5.8
      vertex 4.25 -3.75 5.8
    endloop
  endfacet
  facet normal 0 0 -1
    outer loop
      vertex 4.72746 -2.28054 5.8
      vertex -4.75 6.75 5.8
      vertex 4.75 6.75 5.8
    endloop
  endfacet
  facet normal 0 0 -1
    outer loop
      vertex 11.75 -11.75 5.8
      vertex 9.25 -3.75 5.8
      vertex 11.75 11.75 5.8
    endloop
  endfacet
  facet normal 0 0 -1
    outer loop
      vertex 11.75 -11.75 5.8
      vertex 9.12764 -4.52254 5.8
      vertex 9.25 -3.75 5.8
    endloop
  endfacet
  facet normal 0 0 -1
    outer loop
      vertex 11.75 -11.75 5.8
      vertex 8.77254 -5.21946 5.8
      vertex 9.12764 -4.52254 5.8
    endloop
  endfacet
  facet normal 0 0 -1
    outer loop
      vertex 11.75 -11.75 5.8
      vertex 8.21946 -5.77254 5.8
      vertex 8.77254 -5.21946 5.8
    endloop
  endfacet
  facet normal 0 0 -1
    outer loop
      vertex 11.75 -11.75 5.8
      vertex 7.52254 -6.12764 5.8
      vertex 8.21946 -5.77254 5.8
    endloop
  endfacet
  facet normal 0 0 -1
    outer loop
      vertex 11.75 -11.75 5.8
      vertex 6.75 -6.25 5.8
      vertex 7.52254 -6.12764 5.8
    endloop
  endfacet
  facet normal 0 0 -1
    outer loop
      vertex 11.75 -11.75 5.8
      vertex 5.97746 -6.12764 5.8
      vertex 6.75 -6.25 5.8
    endloop
  endfacet
  facet normal 0 0 -1
    outer loop
      vertex -11.75 -11.75 5.8
      vertex 5.97746 -6.12764 5.8
      vertex 11.75 -11.75 5.8
    endloop
  endfacet
  facet normal 0 0 -1
    outer loop
      vertex -11.75 -11.75 5.8
      vertex 4.25 -3.75 5.8
      vertex 4.37236 -4.52254 5.8
    endloop
  endfacet
  facet normal 0 0 -1
    outer loop
      vertex -11.75 -11.75 5.8
      vertex 4.37236 -4.52254 5.8
      vertex 4.72746 -5.21946 5.8
    endloop
  endfacet
  facet normal -0 0 -1
    outer loop
      vertex 5.97746 -6.12764 5.8
      vertex -11.75 -11.75 5.8
      vertex 5.28054 -5.77254 5.8
    endloop
  endfacet
  facet normal 0 0 -1
    outer loop
      vertex -11.75 -11.75 5.8
      vertex 4.72746 -5.21946 5.8
      vertex 5.28054 -5.77254 5.8
    endloop
  endfacet
  facet normal -0 0 -1
    outer loop
      vertex 4.25 -3.75 5.8
      vertex -11.75 -11.75 5.8
      vertex -4.75 6.75 5.8
    endloop
  endfacet
  facet normal 0 0 -1
    outer loop
      vertex -11.75 11.75 5.8
      vertex -4.75 6.75 5.8
      vertex -11.75 -11.75 5.8
    endloop
  endfacet
  facet normal 0 0 -1
    outer loop
      vertex -4.75 6.75 5.8
      vertex -11.75 11.75 5.8
      vertex -4.75 11.75 5.8
    endloop
  endfacet
  facet normal 0 0 -1
    outer loop
      vertex 9.12764 -2.97746 5.8
      vertex 11.75 11.75 5.8
      vertex 9.25 -3.75 5.8
    endloop
  endfacet
  facet normal 0 0 -1
    outer loop
      vertex 8.77254 -2.28054 5.8
      vertex 11.75 11.75 5.8
      vertex 9.12764 -2.97746 5.8
    endloop
  endfacet
  facet normal 0 0 -1
    outer loop
      vertex 8.21946 -1.72746 5.8
      vertex 11.75 11.75 5.8
      vertex 8.77254 -2.28054 5.8
    endloop
  endfacet
  facet normal 0 0 -1
    outer loop
      vertex 4.75 6.75 5.8
      vertex 8.21946 -1.72746 5.8
      vertex 7.52254 -1.37236 5.8
    endloop
  endfacet
  facet normal 0 0 -1
    outer loop
      vertex 4.75 6.75 5.8
      vertex 7.52254 -1.37236 5.8
      vertex 6.75 -1.25 5.8
    endloop
  endfacet
  facet normal 0 0 -1
    outer loop
      vertex 4.75 6.75 5.8
      vertex 6.75 -1.25 5.8
      vertex 5.97746 -1.37236 5.8
    endloop
  endfacet
  facet normal 0 0 -1
    outer loop
      vertex 4.75 6.75 5.8
      vertex 5.97746 -1.37236 5.8
      vertex 5.28054 -1.72746 5.8
    endloop
  endfacet
  facet normal 0 0 -1
    outer loop
      vertex 8.21946 -1.72746 5.8
      vertex 4.75 6.75 5.8
      vertex 11.75 11.75 5.8
    endloop
  endfacet
  facet normal -0 0 -1
    outer loop
      vertex 11.75 11.75 5.8
      vertex 4.75 6.75 5.8
      vertex 4.75 11.75 5.8
    endloop
  endfacet
  facet normal -1 0 0
    outer loop
      vertex 11.75 8.75 2.72727
      vertex 11.75 11.75 0
      vertex 11.75 8.75 1.5
    endloop
  endfacet
  facet normal -1 0 0
    outer loop
      vertex 11.75 11.75 0
      vertex 11.75 5.75 1.5
      vertex 11.75 8.75 1.5
    endloop
  endfacet
  facet normal -1 0 0
    outer loop
      vertex 11.75 5.75 1.5
      vertex 11.75 1.5 1.5
      vertex 11.75 5.75 2.72727
    endloop
  endfacet
  facet normal -1 0 0
    outer loop
      vertex 11.75 11.75 0
      vertex 11.75 1.5 1.5
      vertex 11.75 5.75 1.5
    endloop
  endfacet
  facet normal -1 0 0
    outer loop
      vertex 11.75 11.75 0
      vertex 11.75 -1.5 1.5
      vertex 11.75 1.5 1.5
    endloop
  endfacet
  facet normal -1 0 0
    outer loop
      vertex 11.75 -1.5 1.5
      vertex 11.75 -5.75 1.5
      vertex 11.75 -1.5 2.72727
    endloop
  endfacet
  facet normal -1 0 0
    outer loop
      vertex 11.75 -11.75 0
      vertex 11.75 -1.5 1.5
      vertex 11.75 11.75 0
    endloop
  endfacet
  facet normal -1 -0 0
    outer loop
      vertex 11.75 -1.5 1.5
      vertex 11.75 -11.75 0
      vertex 11.75 -5.75 1.5
    endloop
  endfacet
  facet normal -1 -0 0
    outer loop
      vertex 11.75 -8.75 1.5
      vertex 11.75 -11.75 0
      vertex 11.75 -8.75 2.72727
    endloop
  endfacet
  facet normal -1 -0 0
    outer loop
      vertex 11.75 -5.75 1.5
      vertex 11.75 -11.75 0
      vertex 11.75 -8.75 1.5
    endloop
  endfacet
  facet normal -1 0 0
    outer loop
      vertex 11.75 11.75 0
      vertex 11.75 8.75 2.72727
      vertex 11.75 11.75 5.8
    endloop
  endfacet
  facet normal -1 0 0
    outer loop
      vertex 11.75 5.75 2.72727
      vertex 11.75 11.75 5.8
      vertex 11.75 8.75 2.72727
    endloop
  endfacet
  facet normal -1 0 0
    outer loop
      vertex 11.75 1.5 2.72727
      vertex 11.75 5.75 2.72727
      vertex 11.75 1.5 1.5
    endloop
  endfacet
  facet normal -1 0 0
    outer loop
      vertex 11.75 5.75 2.72727
      vertex 11.75 1.5 2.72727
      vertex 11.75 11.75 5.8
    endloop
  endfacet
  facet normal -1 0 0
    outer loop
      vertex 11.75 -1.5 2.72727
      vertex 11.75 11.75 5.8
      vertex 11.75 1.5 2.72727
    endloop
  endfacet
  facet normal -1 0 0
    outer loop
      vertex 11.75 -5.75 2.72727
      vertex 11.75 -1.5 2.72727
      vertex 11.75 -5.75 1.5
    endloop
  endfacet
  facet normal -1 0 0
    outer loop
      vertex 11.75 -11.75 5.8
      vertex 11.75 -1.5 2.72727
      vertex 11.75 -5.75 2.72727
    endloop
  endfacet
  facet normal -1 0 0
    outer loop
      vertex 11.75 -11.75 5.8
      vertex 11.75 -5.75 2.72727
      vertex 11.75 -8.75 2.72727
    endloop
  endfacet
  facet normal -1 0 0
    outer loop
      vertex 11.75 -1.5 2.72727
      vertex 11.75 -11.75 5.8
      vertex 11.75 11.75 5.8
    endloop
  endfacet
  facet normal -1 0 0
    outer loop
      vertex 11.75 -11.75 5.8
      vertex 11.75 -8.75 2.72727
      vertex 11.75 -11.75 0
    endloop
  endfacet
  facet normal 0 1 -0
    outer loop
      vertex 5.25 -11.75 0
      vertex -5.25 -11.75 5.15
      vertex 5.25 -11.75 5.15
    endloop
  endfacet
  facet normal 0 1 0
    outer loop
      vertex -5.25 -11.75 5.15
      vertex 5.25 -11.75 0
      vertex -5.25 -11.75 0
    endloop
  endfacet
  facet normal 0 1 0
    outer loop
      vertex 5.25 -11.75 5.15
      vertex 11.75 -11.75 5.8
      vertex 8.25 -11.75 5.15
    endloop
  endfacet
  facet normal 0 1 -0
    outer loop
      vertex 11.75 -11.75 0
      vertex 8.25 -11.75 5.15
      vertex 11.75 -11.75 5.8
    endloop
  endfacet
  facet normal 0 1 0
    outer loop
      vertex 8.25 -11.75 5.15
      vertex 11.75 -11.75 0
      vertex 8.25 -11.75 0
    endloop
  endfacet
  facet normal 0 1 0
    outer loop
      vertex 11.75 -11.75 5.8
      vertex 5.25 -11.75 5.15
      vertex -11.75 -11.75 5.8
    endloop
  endfacet
  facet normal 0 1 -0
    outer loop
      vertex -5.25 -11.75 5.15
      vertex -11.75 -11.75 5.8
      vertex 5.25 -11.75 5.15
    endloop
  endfacet
  facet normal 0 1 -0
    outer loop
      vertex -8.25 -11.75 5.15
      vertex -11.75 -11.75 5.8
      vertex -5.25 -11.75 5.15
    endloop
  endfacet
  facet normal 0 1 0
    outer loop
      vertex -11.75 -11.75 0
      vertex -8.25 -11.75 5.15
      vertex -8.25 -11.75 0
    endloop
  endfacet
  facet normal 0 1 0
    outer loop
      vertex -8.25 -11.75 5.15
      vertex -11.75 -11.75 0
      vertex -11.75 -11.75 5.8
    endloop
  endfacet
  facet normal 0 -1 0
    outer loop
      vertex 4.75 11.75 0
      vertex 11.75 11.75 5.8
      vertex 4.75 11.75 5.8
    endloop
  endfacet
  facet normal 0 -1 -0
    outer loop
      vertex 11.75 11.75 5.8
      vertex 4.75 11.75 0
      vertex 11.75 11.75 0
    endloop
  endfacet
  facet normal 0 -1 0
    outer loop
      vertex -11.75 11.75 0
      vertex -4.75 11.75 5.8
      vertex -11.75 11.75 5.8
    endloop
  endfacet
  facet normal 0 -1 -0
    outer loop
      vertex -4.75 11.75 5.8
      vertex -11.75 11.75 0
      vertex -4.75 11.75 0
    endloop
  endfacet
  facet normal 0 0 -1
    outer loop
      vertex -10.25 -13.2131 0
      vertex -8.25 -11.75 0
      vertex -8.25 -13.2131 0
    endloop
  endfacet
  facet normal 0 0 -1
    outer loop
      vertex -11.75 -11.75 0
      vertex -10.25 -13.2131 0
      vertex -11.1656 -13.068 0
    endloop
  endfacet
  facet normal 0 0 -1
    outer loop
      vertex -10.25 -13.2131 0
      vertex -11.75 -11.75 0
      vertex -8.25 -11.75 0
    endloop
  endfacet
  facet normal 0 0 -1
    outer loop
      vertex -12.6472 -11.9916 0
      vertex -11.75 -11.75 0
      vertex -11.9916 -12.6472 0
    endloop
  endfacet
  facet normal 0 0 -1
    outer loop
      vertex -11.9916 -12.6472 0
      vertex -11.75 -11.75 0
      vertex -11.1656 -13.068 0
    endloop
  endfacet
  facet normal 0 0 -1
    outer loop
      vertex -4.75 11.75 0
      vertex -10.25 13.2131 0
      vertex -4.75 13.2131 0
    endloop
  endfacet
  facet normal 0 0 -1
    outer loop
      vertex -11.75 11.75 0
      vertex -10.25 13.2131 0
      vertex -4.75 11.75 0
    endloop
  endfacet
  facet normal 0 0 -1
    outer loop
      vertex -10.25 13.2131 0
      vertex -11.75 11.75 0
      vertex -11.1656 13.068 0
    endloop
  endfacet
  facet normal 0 0 -1
    outer loop
      vertex -11.75 11.75 0
      vertex -11.9916 12.6472 0
      vertex -11.1656 13.068 0
    endloop
  endfacet
  facet normal 0 0 -1
    outer loop
      vertex -11.75 -11.75 0
      vertex -13.2131 -10.25 0
      vertex -11.75 11.75 0
    endloop
  endfacet
  facet normal 0 0 -1
    outer loop
      vertex -13.068 -11.1656 0
      vertex -11.75 -11.75 0
      vertex -12.6472 -11.9916 0
    endloop
  endfacet
  facet normal 0 0 -1
    outer loop
      vertex -13.2131 10.25 0
      vertex -11.75 11.75 0
      vertex -13.2131 -10.25 0
    endloop
  endfacet
  facet normal 0 0 -1
    outer loop
      vertex -11.75 -11.75 0
      vertex -13.068 -11.1656 0
      vertex -13.2131 -10.25 0
    endloop
  endfacet
  facet normal 0 -0 -1
    outer loop
      vertex -13.068 11.1656 0
      vertex -11.75 11.75 0
      vertex -13.2131 10.25 0
    endloop
  endfacet
  facet normal 0 0 -1
    outer loop
      vertex -11.75 11.75 0
      vertex -12.6472 11.9916 0
      vertex -11.9916 12.6472 0
    endloop
  endfacet
  facet normal -0 0 -1
    outer loop
      vertex -11.75 11.75 0
      vertex -13.068 11.1656 0
      vertex -12.6472 11.9916 0
    endloop
  endfacet
  facet normal 0 0 -1
    outer loop
      vertex 11.75 -11.75 0
      vertex 13.2131 -10.25 0
      vertex 13.068 -11.1656 0
    endloop
  endfacet
  facet normal -0 0 -1
    outer loop
      vertex 13.2131 -10.25 0
      vertex 11.75 -11.75 0
      vertex 13.2131 10.25 0
    endloop
  endfacet
  facet normal 0 0 -1
    outer loop
      vertex 11.75 -11.75 0
      vertex 13.068 -11.1656 0
      vertex 12.6472 -11.9916 0
    endloop
  endfacet
  facet normal 0 0 -1
    outer loop
      vertex 11.75 11.75 0
      vertex 13.2131 10.25 0
      vertex 11.75 -11.75 0
    endloop
  endfacet
  facet normal 0 0 -1
    outer loop
      vertex 11.75 -11.75 0
      vertex 12.6472 -11.9916 0
      vertex 11.9916 -12.6472 0
    endloop
  endfacet
  facet normal 0 0 -1
    outer loop
      vertex 13.2131 10.25 0
      vertex 11.75 11.75 0
      vertex 13.068 11.1656 0
    endloop
  endfacet
  facet normal 0 0 -1
    outer loop
      vertex 13.068 11.1656 0
      vertex 11.75 11.75 0
      vertex 12.6472 11.9916 0
    endloop
  endfacet
  facet normal 0 0 -1
    outer loop
      vertex 11.1656 -13.068 0
      vertex 11.75 -11.75 0
      vertex 11.9916 -12.6472 0
    endloop
  endfacet
  facet normal 0 0 -1
    outer loop
      vertex 10.25 -13.2131 0
      vertex 11.75 -11.75 0
      vertex 11.1656 -13.068 0
    endloop
  endfacet
  facet normal 0 0 -1
    outer loop
      vertex 8.25 -11.75 0
      vertex 10.25 -13.2131 0
      vertex 8.25 -13.2131 0
    endloop
  endfacet
  facet normal 0 0 -1
    outer loop
      vertex 10.25 -13.2131 0
      vertex 8.25 -11.75 0
      vertex 11.75 -11.75 0
    endloop
  endfacet
  facet normal -0 0 -1
    outer loop
      vertex 12.6472 11.9916 0
      vertex 11.75 11.75 0
      vertex 11.9916 12.6472 0
    endloop
  endfacet
  facet normal 0 0 -1
    outer loop
      vertex 11.75 11.75 0
      vertex 11.1656 13.068 0
      vertex 11.9916 12.6472 0
    endloop
  endfacet
  facet normal 0 0 -1
    outer loop
      vertex 11.75 11.75 0
      vertex 10.25 13.2131 0
      vertex 11.1656 13.068 0
    endloop
  endfacet
  facet normal 0 0 -1
    outer loop
      vertex 4.75 11.75 0
      vertex 10.25 13.2131 0
      vertex 11.75 11.75 0
    endloop
  endfacet
  facet normal -0 0 -1
    outer loop
      vertex 10.25 13.2131 0
      vertex 4.75 11.75 0
      vertex 4.75 13.2131 0
    endloop
  endfacet
  facet normal 0 0 -1
    outer loop
      vertex -5.25 -13.2131 0
      vertex 5.25 -11.75 0
      vertex 5.25 -13.2131 0
    endloop
  endfacet
  facet normal -0 0 -1
    outer loop
      vertex 5.25 -11.75 0
      vertex -5.25 -13.2131 0
      vertex -5.25 -11.75 0
    endloop
  endfacet
  facet normal 0 1 0
    outer loop
      vertex -11.075 8.75 1.5
      vertex -11.75 8.75 1.5
      vertex -11.75 8.75 2.72727
    endloop
  endfacet
  facet normal 0 0 -1
    outer loop
      vertex -11.75 5.75 1.5
      vertex -11.075 8.75 1.5
      vertex -11.075 5.75 1.5
    endloop
  endfacet
  facet normal -0 0 -1
    outer loop
      vertex -11.075 8.75 1.5
      vertex -11.75 5.75 1.5
      vertex -11.75 8.75 1.5
    endloop
  endfacet
  facet normal 0 -1 0
    outer loop
      vertex -11.75 5.75 2.72727
      vertex -11.75 5.75 1.5
      vertex -11.075 5.75 1.5
    endloop
  endfacet
  facet normal 0.876217 -0 0.481917
    outer loop
      vertex -11.75 5.75 2.72727
      vertex -11.075 8.75 1.5
      vertex -11.75 8.75 2.72727
    endloop
  endfacet
  facet normal 0.876217 0 0.481917
    outer loop
      vertex -11.075 8.75 1.5
      vertex -11.75 5.75 2.72727
      vertex -11.075 5.75 1.5
    endloop
  endfacet
  facet normal 0 1 0
    outer loop
      vertex -11.075 1.5 1.5
      vertex -11.75 1.5 1.5
      vertex -11.75 1.5 2.72727
    endloop
  endfacet
  facet normal 0.876217 0 0.481917
    outer loop
      vertex -11.75 1.5 2.72727
      vertex -11.075 -1.5 1.5
      vertex -11.075 1.5 1.5
    endloop
  endfacet
  facet normal 0.876217 0 0.481917
    outer loop
      vertex -11.075 -1.5 1.5
      vertex -11.75 1.5 2.72727
      vertex -11.75 -1.5 2.72727
    endloop
  endfacet
  facet normal 1.23625e-06 -1 0
    outer loop
      vertex -11.75 -1.5 2.72727
      vertex -11.75 -1.5 1.5
      vertex -11.075 -1.5 1.5
    endloop
  endfacet
  facet normal 0 0 -1
    outer loop
      vertex -11.75 -1.5 1.5
      vertex -11.075 1.5 1.5
      vertex -11.075 -1.5 1.5
    endloop
  endfacet
  facet normal -0 0 -1
    outer loop
      vertex -11.075 1.5 1.5
      vertex -11.75 -1.5 1.5
      vertex -11.75 1.5 1.5
    endloop
  endfacet
  facet normal 0 1 0
    outer loop
      vertex -11.075 -5.75 1.5
      vertex -11.75 -5.75 1.5
      vertex -11.75 -5.75 2.72727
    endloop
  endfacet
  facet normal 0 0 -1
    outer loop
      vertex -11.75 -8.75 1.5
      vertex -11.075 -5.75 1.5
      vertex -11.075 -8.75 1.5
    endloop
  endfacet
  facet normal -0 0 -1
    outer loop
      vertex -11.075 -5.75 1.5
      vertex -11.75 -8.75 1.5
      vertex -11.75 -5.75 1.5
    endloop
  endfacet
  facet normal 0 -1 0
    outer loop
      vertex -11.75 -8.75 2.72727
      vertex -11.75 -8.75 1.5
      vertex -11.075 -8.75 1.5
    endloop
  endfacet
  facet normal 0.876217 -0 0.481917
    outer loop
      vertex -11.75 -8.75 2.72727
      vertex -11.075 -5.75 1.5
      vertex -11.75 -5.75 2.72727
    endloop
  endfacet
  facet normal 0.876217 0 0.481917
    outer loop
      vertex -11.075 -5.75 1.5
      vertex -11.75 -8.75 2.72727
      vertex -11.075 -8.75 1.5
    endloop
  endfacet
  facet normal 0 -1 -0
    outer loop
      vertex 11.75 5.75 2.72727
      vertex 11.075 5.75 1.5
      vertex 11.75 5.75 1.5
    endloop
  endfacet
  facet normal 0 0 -1
    outer loop
      vertex 11.075 5.75 1.5
      vertex 11.75 8.75 1.5
      vertex 11.75 5.75 1.5
    endloop
  endfacet
  facet normal -0 0 -1
    outer loop
      vertex 11.75 8.75 1.5
      vertex 11.075 5.75 1.5
      vertex 11.075 8.75 1.5
    endloop
  endfacet
  facet normal -0.876217 0 0.481917
    outer loop
      vertex 11.075 5.75 1.5
      vertex 11.75 8.75 2.72727
      vertex 11.075 8.75 1.5
    endloop
  endfacet
  facet normal -0.876217 0 0.481917
    outer loop
      vertex 11.75 8.75 2.72727
      vertex 11.075 5.75 1.5
      vertex 11.75 5.75 2.72727
    endloop
  endfacet
  facet normal 0 1 -0
    outer loop
      vertex 11.75 8.75 1.5
      vertex 11.075 8.75 1.5
      vertex 11.75 8.75 2.72727
    endloop
  endfacet
  facet normal 0 -1 -0
    outer loop
      vertex 11.75 -1.5 2.72727
      vertex 11.075 -1.5 1.5
      vertex 11.75 -1.5 1.5
    endloop
  endfacet
  facet normal -0.876217 0 0.481917
    outer loop
      vertex 11.075 -1.5 1.5
      vertex 11.75 1.5 2.72727
      vertex 11.075 1.5 1.5
    endloop
  endfacet
  facet normal -0.876217 0 0.481917
    outer loop
      vertex 11.75 1.5 2.72727
      vertex 11.075 -1.5 1.5
      vertex 11.75 -1.5 2.72727
    endloop
  endfacet
  facet normal -1.23625e-06 1 0
    outer loop
      vertex 11.75 1.5 1.5
      vertex 11.075 1.5 1.5
      vertex 11.75 1.5 2.72727
    endloop
  endfacet
  facet normal 0 0 -1
    outer loop
      vertex 11.075 -1.5 1.5
      vertex 11.75 1.5 1.5
      vertex 11.75 -1.5 1.5
    endloop
  endfacet
  facet normal 0 0 -1
    outer loop
      vertex 11.75 1.5 1.5
      vertex 11.075 -1.5 1.5
      vertex 11.075 1.5 1.5
    endloop
  endfacet
  facet normal 0 -1 -0
    outer loop
      vertex 11.75 -8.75 2.72727
      vertex 11.075 -8.75 1.5
      vertex 11.75 -8.75 1.5
    endloop
  endfacet
  facet normal 0 0 -1
    outer loop
      vertex 11.075 -8.75 1.5
      vertex 11.75 -5.75 1.5
      vertex 11.75 -8.75 1.5
    endloop
  endfacet
  facet normal -0 0 -1
    outer loop
      vertex 11.75 -5.75 1.5
      vertex 11.075 -8.75 1.5
      vertex 11.075 -5.75 1.5
    endloop
  endfacet
  facet normal -0.876217 0 0.481917
    outer loop
      vertex 11.075 -8.75 1.5
      vertex 11.75 -5.75 2.72727
      vertex 11.075 -5.75 1.5
    endloop
  endfacet
  facet normal -0.876217 0 0.481917
    outer loop
      vertex 11.75 -5.75 2.72727
      vertex 11.075 -8.75 1.5
      vertex 11.75 -8.75 2.72727
    endloop
  endfacet
  facet normal 0 1 -0
    outer loop
      vertex 11.75 -5.75 1.5
      vertex 11.075 -5.75 1.5
      vertex 11.75 -5.75 2.72727
    endloop
  endfacet
  facet normal 1 -0 0
    outer loop
      vertex -4.75 6.75 6.45
      vertex -4.75 11.75 5.8
      vertex -4.75 12.3318 6.45
    endloop
  endfacet
  facet normal 1 0 0
    outer loop
      vertex -4.75 11.75 5.8
      vertex -4.75 6.75 6.45
      vertex -4.75 6.75 5.8
    endloop
  endfacet
  facet normal 1 0 0
    outer loop
      vertex -4.75 11.75 5.8
      vertex -4.75 13.2131 4.7693
      vertex -4.75 12.923 5.66197
    endloop
  endfacet
  facet normal 1 -0 0
    outer loop
      vertex -4.75 11.75 5.8
      vertex -4.75 12.923 5.66197
      vertex -4.75 12.3713 6.42132
    endloop
  endfacet
  facet normal 1 0 0
    outer loop
      vertex -4.75 11.75 5.8
      vertex -4.75 12.3713 6.42132
      vertex -4.75 12.3318 6.45
    endloop
  endfacet
  facet normal 1 0 0
    outer loop
      vertex -4.75 13.2131 4.7693
      vertex -4.75 11.75 5.8
      vertex -4.75 11.75 0
    endloop
  endfacet
  facet normal 1 0 0
    outer loop
      vertex -4.75 13.2131 4.7693
      vertex -4.75 11.75 0
      vertex -4.75 13.2131 0
    endloop
  endfacet
  facet normal 0 0 -1
    outer loop
      vertex -4.75 6.75 6.45
      vertex 4.75 12.3318 6.45
      vertex 4.75 6.75 6.45
    endloop
  endfacet
  facet normal -0 0 -1
    outer loop
      vertex 4.75 12.3318 6.45
      vertex -4.75 6.75 6.45
      vertex -4.75 12.3318 6.45
    endloop
  endfacet
  facet normal -1 0 0
    outer loop
      vertex 4.75 11.75 0
      vertex 4.75 13.2131 4.7693
      vertex 4.75 13.2131 0
    endloop
  endfacet
  facet normal -1 0 0
    outer loop
      vertex 4.75 11.75 5.8
      vertex 4.75 13.2131 4.7693
      vertex 4.75 11.75 0
    endloop
  endfacet
  facet normal -1 0 0
    outer loop
      vertex 4.75 12.923 5.66197
      vertex 4.75 11.75 5.8
      vertex 4.75 12.3713 6.42132
    endloop
  endfacet
  facet normal -1 0 0
    outer loop
      vertex 4.75 13.2131 4.7693
      vertex 4.75 11.75 5.8
      vertex 4.75 12.923 5.66197
    endloop
  endfacet
  facet normal -1 -0 0
    outer loop
      vertex 4.75 12.3713 6.42132
      vertex 4.75 11.75 5.8
      vertex 4.75 12.3318 6.45
    endloop
  endfacet
  facet normal -1 0 0
    outer loop
      vertex 4.75 6.75 6.45
      vertex 4.75 11.75 5.8
      vertex 4.75 6.75 5.8
    endloop
  endfacet
  facet normal -1 0 0
    outer loop
      vertex 4.75 11.75 5.8
      vertex 4.75 6.75 6.45
      vertex 4.75 12.3318 6.45
    endloop
  endfacet
  facet normal 0 1 -0
    outer loop
      vertex 4.75 6.75 5.8
      vertex -4.75 6.75 6.45
      vertex 4.75 6.75 6.45
    endloop
  endfacet
  facet normal 0 1 0
    outer loop
      vertex -4.75 6.75 6.45
      vertex 4.75 6.75 5.8
      vertex -4.75 6.75 5.8
    endloop
  endfacet
  facet normal 1 0 0
    outer loop
      vertex 5.25 -13.2131 4.7693
      vertex 5.25 -11.75 5.15
      vertex 5.25 -13.0894 5.15
    endloop
  endfacet
  facet normal 1 0 0
    outer loop
      vertex 5.25 -11.75 5.15
      vertex 5.25 -13.2131 4.7693
      vertex 5.25 -11.75 0
    endloop
  endfacet
  facet normal 1 0 0
    outer loop
      vertex 5.25 -11.75 0
      vertex 5.25 -13.2131 4.7693
      vertex 5.25 -13.2131 0
    endloop
  endfacet
  facet normal 0 0 -1
    outer loop
      vertex 5.25 -13.0894 5.15
      vertex 8.25 -11.75 5.15
      vertex 8.25 -13.0894 5.15
    endloop
  endfacet
  facet normal -0 0 -1
    outer loop
      vertex 8.25 -11.75 5.15
      vertex 5.25 -13.0894 5.15
      vertex 5.25 -11.75 5.15
    endloop
  endfacet
  facet normal -1 0 0
    outer loop
      vertex 8.25 -13.2131 4.7693
      vertex 8.25 -11.75 5.15
      vertex 8.25 -11.75 0
    endloop
  endfacet
  facet normal -1 0 0
    outer loop
      vertex 8.25 -13.2131 4.7693
      vertex 8.25 -11.75 0
      vertex 8.25 -13.2131 0
    endloop
  endfacet
  facet normal -1 -0 0
    outer loop
      vertex 8.25 -11.75 5.15
      vertex 8.25 -13.2131 4.7693
      vertex 8.25 -13.0894 5.15
    endloop
  endfacet
  facet normal 1 0 0
    outer loop
      vertex -8.25 -13.2131 4.7693
      vertex -8.25 -11.75 5.15
      vertex -8.25 -13.0894 5.15
    endloop
  endfacet
  facet normal 1 0 0
    outer loop
      vertex -8.25 -11.75 5.15
      vertex -8.25 -13.2131 4.7693
      vertex -8.25 -11.75 0
    endloop
  endfacet
  facet normal 1 0 0
    outer loop
      vertex -8.25 -11.75 0
      vertex -8.25 -13.2131 4.7693
      vertex -8.25 -13.2131 0
    endloop
  endfacet
  facet normal 0 0 -1
    outer loop
      vertex -8.25 -13.0894 5.15
      vertex -5.25 -11.75 5.15
      vertex -5.25 -13.0894 5.15
    endloop
  endfacet
  facet normal -0 0 -1
    outer loop
      vertex -5.25 -11.75 5.15
      vertex -8.25 -13.0894 5.15
      vertex -8.25 -11.75 5.15
    endloop
  endfacet
  facet normal -1 0 0
    outer loop
      vertex -5.25 -13.2131 4.7693
      vertex -5.25 -11.75 5.15
      vertex -5.25 -11.75 0
    endloop
  endfacet
  facet normal -1 0 0
    outer loop
      vertex -5.25 -13.2131 4.7693
      vertex -5.25 -11.75 0
      vertex -5.25 -13.2131 0
    endloop
  endfacet
  facet normal -1 -0 0
    outer loop
      vertex -5.25 -11.75 5.15
      vertex -5.25 -13.2131 4.7693
      vertex -5.25 -13.0894 5.15
    endloop
  endfacet
  facet normal -0.987688 -0.156435 0
    outer loop
      vertex 9.25 -3.75 5.8
      vertex 9.12764 -2.97746 7.26306
      vertex 9.12764 -2.97746 5.8
    endloop
  endfacet
  facet normal -0.987688 -0.156435 0
    outer loop
      vertex 9.12764 -2.97746 7.26306
      vertex 9.25 -3.75 5.8
      vertex 9.25 -3.75 7.26306
    endloop
  endfacet
  facet normal 0.156434 -0.987688 0
    outer loop
      vertex 5.97746 -1.37236 5.8
      vertex 6.75 -1.25 7.26306
      vertex 5.97746 -1.37236 7.26306
    endloop
  endfacet
  facet normal 0.156434 -0.987688 0
    outer loop
      vertex 6.75 -1.25 7.26306
      vertex 5.97746 -1.37236 5.8
      vertex 6.75 -1.25 5.8
    endloop
  endfacet
  facet normal -0.156435 0.987688 0
    outer loop
      vertex 7.52254 -6.12764 5.8
      vertex 6.75 -6.25 7.26306
      vertex 7.52254 -6.12764 7.26306
    endloop
  endfacet
  facet normal -0.156435 0.987688 0
    outer loop
      vertex 6.75 -6.25 7.26306
      vertex 7.52254 -6.12764 5.8
      vertex 6.75 -6.25 5.8
    endloop
  endfacet
  facet normal -0.891006 0.453991 0
    outer loop
      vertex 8.77254 -5.21946 5.8
      vertex 9.12764 -4.52254 7.26306
      vertex 9.12764 -4.52254 5.8
    endloop
  endfacet
  facet normal -0.891006 0.453991 0
    outer loop
      vertex 9.12764 -4.52254 7.26306
      vertex 8.77254 -5.21946 5.8
      vertex 8.77254 -5.21946 7.26306
    endloop
  endfacet
  facet normal -0.453991 -0.891006 0
    outer loop
      vertex 7.52254 -1.37236 5.8
      vertex 8.21946 -1.72746 7.26306
      vertex 7.52254 -1.37236 7.26306
    endloop
  endfacet
  facet normal -0.453991 -0.891006 -0
    outer loop
      vertex 8.21946 -1.72746 7.26306
      vertex 7.52254 -1.37236 5.8
      vertex 8.21946 -1.72746 5.8
    endloop
  endfacet
  facet normal -0.891006 -0.453991 0
    outer loop
      vertex 9.12764 -2.97746 5.8
      vertex 8.77254 -2.28054 7.26306
      vertex 8.77254 -2.28054 5.8
    endloop
  endfacet
  facet normal -0.891006 -0.453991 0
    outer loop
      vertex 8.77254 -2.28054 7.26306
      vertex 9.12764 -2.97746 5.8
      vertex 9.12764 -2.97746 7.26306
    endloop
  endfacet
  facet normal -0.156434 -0.987688 0
    outer loop
      vertex 6.75 -1.25 5.8
      vertex 7.52254 -1.37236 7.26306
      vertex 6.75 -1.25 7.26306
    endloop
  endfacet
  facet normal -0.156434 -0.987688 -0
    outer loop
      vertex 7.52254 -1.37236 7.26306
      vertex 6.75 -1.25 5.8
      vertex 7.52254 -1.37236 5.8
    endloop
  endfacet
  facet normal 0.891006 -0.453991 0
    outer loop
      vertex 4.37236 -2.97746 7.26306
      vertex 4.72746 -2.28054 5.8
      vertex 4.72746 -2.28054 7.26306
    endloop
  endfacet
  facet normal 0.891006 -0.453991 0
    outer loop
      vertex 4.72746 -2.28054 5.8
      vertex 4.37236 -2.97746 7.26306
      vertex 4.37236 -2.97746 5.8
    endloop
  endfacet
  facet normal 0.987688 -0.156434 0
    outer loop
      vertex 4.25 -3.75 7.26306
      vertex 4.37236 -2.97746 5.8
      vertex 4.37236 -2.97746 7.26306
    endloop
  endfacet
  facet normal 0.987688 -0.156434 0
    outer loop
      vertex 4.37236 -2.97746 5.8
      vertex 4.25 -3.75 7.26306
      vertex 4.25 -3.75 5.8
    endloop
  endfacet
  facet normal 0.453991 -0.891006 0
    outer loop
      vertex 5.28054 -1.72746 5.8
      vertex 5.97746 -1.37236 7.26306
      vertex 5.28054 -1.72746 7.26306
    endloop
  endfacet
  facet normal 0.453991 -0.891006 0
    outer loop
      vertex 5.97746 -1.37236 7.26306
      vertex 5.28054 -1.72746 5.8
      vertex 5.97746 -1.37236 5.8
    endloop
  endfacet
  facet normal -0.707107 -0.707107 0
    outer loop
      vertex 8.77254 -2.28054 5.8
      vertex 8.21946 -1.72746 7.26306
      vertex 8.21946 -1.72746 5.8
    endloop
  endfacet
  facet normal -0.707107 -0.707107 0
    outer loop
      vertex 8.21946 -1.72746 7.26306
      vertex 8.77254 -2.28054 5.8
      vertex 8.77254 -2.28054 7.26306
    endloop
  endfacet
  facet normal 0.987688 0.156434 0
    outer loop
      vertex 4.37236 -4.52254 7.26306
      vertex 4.25 -3.75 5.8
      vertex 4.25 -3.75 7.26306
    endloop
  endfacet
  facet normal 0.987688 0.156434 0
    outer loop
      vertex 4.25 -3.75 5.8
      vertex 4.37236 -4.52254 7.26306
      vertex 4.37236 -4.52254 5.8
    endloop
  endfacet
  facet normal 0.707107 -0.707107 0
    outer loop
      vertex 4.72746 -2.28054 7.26306
      vertex 5.28054 -1.72746 5.8
      vertex 5.28054 -1.72746 7.26306
    endloop
  endfacet
  facet normal 0.707107 -0.707107 0
    outer loop
      vertex 5.28054 -1.72746 5.8
      vertex 4.72746 -2.28054 7.26306
      vertex 4.72746 -2.28054 5.8
    endloop
  endfacet
  facet normal -0.453991 0.891006 0
    outer loop
      vertex 8.21946 -5.77254 5.8
      vertex 7.52254 -6.12764 7.26306
      vertex 8.21946 -5.77254 7.26306
    endloop
  endfacet
  facet normal -0.453991 0.891006 0
    outer loop
      vertex 7.52254 -6.12764 7.26306
      vertex 8.21946 -5.77254 5.8
      vertex 7.52254 -6.12764 5.8
    endloop
  endfacet
  facet normal -0.987688 0.156435 0
    outer loop
      vertex 9.12764 -4.52254 5.8
      vertex 9.25 -3.75 7.26306
      vertex 9.25 -3.75 5.8
    endloop
  endfacet
  facet normal -0.987688 0.156435 0
    outer loop
      vertex 9.25 -3.75 7.26306
      vertex 9.12764 -4.52254 5.8
      vertex 9.12764 -4.52254 7.26306
    endloop
  endfacet
  facet normal -0.707107 0.707107 0
    outer loop
      vertex 8.21946 -5.77254 5.8
      vertex 8.77254 -5.21946 7.26306
      vertex 8.77254 -5.21946 5.8
    endloop
  endfacet
  facet normal -0.707107 0.707107 0
    outer loop
      vertex 8.77254 -5.21946 7.26306
      vertex 8.21946 -5.77254 5.8
      vertex 8.21946 -5.77254 7.26306
    endloop
  endfacet
  facet normal 0.156435 0.987688 -0
    outer loop
      vertex 6.75 -6.25 5.8
      vertex 5.97746 -6.12764 7.26306
      vertex 6.75 -6.25 7.26306
    endloop
  endfacet
  facet normal 0.156435 0.987688 0
    outer loop
      vertex 5.97746 -6.12764 7.26306
      vertex 6.75 -6.25 5.8
      vertex 5.97746 -6.12764 5.8
    endloop
  endfacet
  facet normal 0.707107 0.707107 0
    outer loop
      vertex 5.28054 -5.77254 7.26306
      vertex 4.72746 -5.21946 5.8
      vertex 4.72746 -5.21946 7.26306
    endloop
  endfacet
  facet normal 0.707107 0.707107 0
    outer loop
      vertex 4.72746 -5.21946 5.8
      vertex 5.28054 -5.77254 7.26306
      vertex 5.28054 -5.77254 5.8
    endloop
  endfacet
  facet normal 0.891006 0.453991 0
    outer loop
      vertex 4.72746 -5.21946 7.26306
      vertex 4.37236 -4.52254 5.8
      vertex 4.37236 -4.52254 7.26306
    endloop
  endfacet
  facet normal 0.891006 0.453991 0
    outer loop
      vertex 4.37236 -4.52254 5.8
      vertex 4.72746 -5.21946 7.26306
      vertex 4.72746 -5.21946 5.8
    endloop
  endfacet
  facet normal 0.453991 0.891006 -0
    outer loop
      vertex 5.97746 -6.12764 5.8
      vertex 5.28054 -5.77254 7.26306
      vertex 5.97746 -6.12764 7.26306
    endloop
  endfacet
  facet normal 0.453991 0.891006 0
    outer loop
      vertex 5.28054 -5.77254 7.26306
      vertex 5.97746 -6.12764 5.8
      vertex 5.28054 -5.77254 5.8
    endloop
  endfacet
endsolid OpenSCAD_Model
