  0
SECTION
  2
BLOCKS
  0
ENDSEC
  0
SECTION
  2
ENTITIES
  0
LINE
  8
0
 10
58.75
 20
98.75
 11
55.25
 21
98.75
  0
LINE
  8
0
 10
55.25
 20
98.75
 11
55.25
 21
83.75
  0
LINE
  8
0
 10
55.25
 20
83.75
 11
58.75
 21
83.75
  0
LINE
  8
0
 10
58.75
 20
83.75
 11
58.75
 21
68.75
  0
LINE
  8
0
 10
58.75
 20
68.75
 11
55.25
 21
68.75
  0
LINE
  8
0
 10
55.25
 20
68.75
 11
55.25
 21
53.75
  0
LINE
  8
0
 10
55.25
 20
53.75
 11
83.75
 21
53.75
  0
LINE
  8
0
 10
83.75
 20
53.75
 11
83.75
 21
50.25
  0
LINE
  8
0
 10
83.75
 20
50.25
 11
108.75
 21
50.25
  0
LINE
  8
0
 10
108.75
 20
50.25
 11
108.75
 21
53.75
  0
LINE
  8
0
 10
108.75
 20
53.75
 11
133.75
 21
53.75
  0
LINE
  8
0
 10
133.75
 20
53.75
 11
133.75
 21
50.25
  0
LINE
  8
0
 10
133.75
 20
50.25
 11
158.75
 21
50.25
  0
LINE
  8
0
 10
158.75
 20
50.25
 11
158.75
 21
68.75
  0
LINE
  8
0
 10
158.75
 20
68.75
 11
162.25
 21
68.75
  0
LINE
  8
0
 10
162.25
 20
68.75
 11
162.25
 21
83.75
  0
LINE
  8
0
 10
162.25
 20
83.75
 11
158.75
 21
83.75
  0
LINE
  8
0
 10
158.75
 20
83.75
 11
158.75
 21
98.75
  0
LINE
  8
0
 10
158.75
 20
98.75
 11
162.25
 21
98.75
  0
LINE
  8
0
 10
162.25
 20
98.75
 11
162.25
 21
113.75
  0
LINE
  8
0
 10
162.25
 20
113.75
 11
58.75
 21
113.75
  0
LINE
  8
0
 10
58.75
 20
113.75
 11
58.75
 21
98.75
  0
LINE
  8
0
 10
53.5
 20
68.75
 11
53.5
 21
83.75
  0
LINE
  8
0
 10
53.5
 20
83.75
 11
50
 21
83.75
  0
LINE
  8
0
 10
50
 20
83.75
 11
50
 21
98.75
  0
LINE
  8
0
 10
50
 20
98.75
 11
53.5
 21
98.75
  0
LINE
  8
0
 10
53.5
 20
98.75
 11
53.5
 21
113.75
  0
LINE
  8
0
 10
53.5
 20
113.75
 11
-50
 21
113.75
  0
LINE
  8
0
 10
-50
 20
113.75
 11
-50
 21
98.75
  0
LINE
  8
0
 10
-50
 20
98.75
 11
-53.5
 21
98.75
  0
LINE
  8
0
 10
-53.5
 20
98.75
 11
-53.5
 21
83.75
  0
LINE
  8
0
 10
-53.5
 20
83.75
 11
-50
 21
83.75
  0
LINE
  8
0
 10
-50
 20
83.75
 11
-50
 21
68.75
  0
LINE
  8
0
 10
-50
 20
68.75
 11
-53.5
 21
68.75
  0
LINE
  8
0
 10
-53.5
 20
68.75
 11
-53.5
 21
53.75
  0
LINE
  8
0
 10
-53.5
 20
53.75
 11
-25
 21
53.75
  0
LINE
  8
0
 10
-25
 20
53.75
 11
-25
 21
50.25
  0
LINE
  8
0
 10
-25
 20
50.25
 11
0
 21
50.25
  0
LINE
  8
0
 10
0
 20
50.25
 11
0
 21
53.75
  0
LINE
  8
0
 10
0
 20
53.75
 11
25
 21
53.75
  0
LINE
  8
0
 10
25
 20
53.75
 11
25
 21
50.25
  0
LINE
  8
0
 10
25
 20
50.25
 11
50
 21
50.25
  0
LINE
  8
0
 10
50
 20
50.25
 11
50
 21
68.75
  0
LINE
  8
0
 10
50
 20
68.75
 11
53.5
 21
68.75
  0
LINE
  8
0
 10
0
 20
-45
 11
25
 21
-45
  0
LINE
  8
0
 10
25
 20
-45
 11
25
 21
-48.5
  0
LINE
  8
0
 10
25
 20
-48.5
 11
50
 21
-48.5
  0
LINE
  8
0
 10
50
 20
-48.5
 11
50
 21
-22.5
  0
LINE
  8
0
 10
50
 20
-22.5
 11
53.5
 21
-22.5
  0
LINE
  8
0
 10
53.5
 20
-22.5
 11
53.5
 21
0
  0
LINE
  8
0
 10
53.5
 20
0
 11
50
 21
0
  0
LINE
  8
0
 10
50
 20
0
 11
50
 21
22.5
  0
LINE
  8
0
 10
50
 20
22.5
 11
53.5
 21
22.5
  0
LINE
  8
0
 10
53.5
 20
22.5
 11
53.5
 21
45
  0
LINE
  8
0
 10
53.5
 20
45
 11
25
 21
45
  0
LINE
  8
0
 10
25
 20
45
 11
25
 21
48.5
  0
LINE
  8
0
 10
25
 20
48.5
 11
0
 21
48.5
  0
LINE
  8
0
 10
0
 20
48.5
 11
0
 21
45
  0
LINE
  8
0
 10
0
 20
45
 11
-25
 21
45
  0
LINE
  8
0
 10
-25
 20
45
 11
-25
 21
48.5
  0
LINE
  8
0
 10
-25
 20
48.5
 11
-50
 21
48.5
  0
LINE
  8
0
 10
-50
 20
48.5
 11
-50
 21
22.5
  0
LINE
  8
0
 10
-50
 20
22.5
 11
-53.5
 21
22.5
  0
LINE
  8
0
 10
-53.5
 20
22.5
 11
-53.5
 21
0
  0
LINE
  8
0
 10
-53.5
 20
0
 11
-50
 21
0
  0
LINE
  8
0
 10
-50
 20
0
 11
-50
 21
-22.5
  0
LINE
  8
0
 10
-50
 20
-22.5
 11
-53.5
 21
-22.5
  0
LINE
  8
0
 10
-53.5
 20
-22.5
 11
-53.5
 21
-45
  0
LINE
  8
0
 10
-53.5
 20
-45
 11
-25
 21
-45
  0
LINE
  8
0
 10
-25
 20
-45
 11
-25
 21
-48.5
  0
LINE
  8
0
 10
-25
 20
-48.5
 11
0
 21
-48.5
  0
LINE
  8
0
 10
0
 20
-48.5
 11
0
 21
-45
  0
LINE
  8
0
 10
158.75
 20
-41.5
 11
162.25
 21
-41.5
  0
LINE
  8
0
 10
162.25
 20
-41.5
 11
162.25
 21
-38
  0
LINE
  8
0
 10
162.25
 20
-38
 11
158.75
 21
-38
  0
LINE
  8
0
 10
158.75
 20
-38
 11
158.75
 21
45
  0
LINE
  8
0
 10
158.75
 20
45
 11
112.25
 21
45
  0
LINE
  8
0
 10
112.25
 20
45
 11
112.25
 21
48.5
  0
LINE
  8
0
 10
112.25
 20
48.5
 11
105.25
 21
48.5
  0
LINE
  8
0
 10
105.25
 20
48.5
 11
105.25
 21
45
  0
LINE
  8
0
 10
105.25
 20
45
 11
58.75
 21
45
  0
LINE
  8
0
 10
58.75
 20
45
 11
58.75
 21
-38
  0
LINE
  8
0
 10
58.75
 20
-38
 11
55.25
 21
-38
  0
LINE
  8
0
 10
55.25
 20
-38
 11
55.25
 21
-41.5
  0
LINE
  8
0
 10
55.25
 20
-41.5
 11
58.75
 21
-41.5
  0
LINE
  8
0
 10
58.75
 20
-41.5
 11
58.75
 21
-45
  0
LINE
  8
0
 10
58.75
 20
-45
 11
158.75
 21
-45
  0
LINE
  8
0
 10
158.75
 20
-45
 11
158.75
 21
-41.5
  0
LINE
  8
0
 10
0
 20
-143.75
 11
15
 21
-143.75
  0
LINE
  8
0
 10
15
 20
-143.75
 11
15
 21
-147.25
  0
LINE
  8
0
 10
15
 20
-147.25
 11
30
 21
-147.25
  0
LINE
  8
0
 10
30
 20
-147.25
 11
30
 21
-121.25
  0
LINE
  8
0
 10
30
 20
-121.25
 11
33.5
 21
-121.25
  0
LINE
  8
0
 10
33.5
 20
-121.25
 11
33.5
 21
-98.75
  0
LINE
  8
0
 10
33.5
 20
-98.75
 11
30
 21
-98.75
  0
LINE
  8
0
 10
30
 20
-98.75
 11
30
 21
-76.25
  0
LINE
  8
0
 10
30
 20
-76.25
 11
33.5
 21
-76.25
  0
LINE
  8
0
 10
33.5
 20
-76.25
 11
33.5
 21
-53.75
  0
LINE
  8
0
 10
33.5
 20
-53.75
 11
15
 21
-53.75
  0
LINE
  8
0
 10
15
 20
-53.75
 11
15
 21
-50.25
  0
LINE
  8
0
 10
15
 20
-50.25
 11
0
 21
-50.25
  0
LINE
  8
0
 10
0
 20
-50.25
 11
0
 21
-53.75
  0
LINE
  8
0
 10
0
 20
-53.75
 11
-15
 21
-53.75
  0
LINE
  8
0
 10
-15
 20
-53.75
 11
-15
 21
-50.25
  0
LINE
  8
0
 10
-15
 20
-50.25
 11
-30
 21
-50.25
  0
LINE
  8
0
 10
-30
 20
-50.25
 11
-30
 21
-54.8564
  0
LINE
  8
0
 10
-30
 20
-54.8564
 11
-30.166
 21
-54.9283
  0
LINE
  8
0
 10
-30.166
 20
-54.9283
 11
-30.4179
 21
-55.0566
  0
LINE
  8
0
 10
-30.4179
 20
-55.0566
 11
-30.6612
 21
-55.2005
  0
LINE
  8
0
 10
-30.6612
 20
-55.2005
 11
-30.895
 21
-55.3594
  0
LINE
  8
0
 10
-30.895
 20
-55.3594
 11
-31.1184
 21
-55.5327
  0
LINE
  8
0
 10
-31.1184
 20
-55.5327
 11
-31.3305
 21
-55.7197
  0
LINE
  8
0
 10
-31.3305
 20
-55.7197
 11
-31.5303
 21
-55.9195
  0
LINE
  8
0
 10
-31.5303
 20
-55.9195
 11
-31.7173
 21
-56.1316
  0
LINE
  8
0
 10
-31.7173
 20
-56.1316
 11
-31.8906
 21
-56.355
  0
LINE
  8
0
 10
-31.8906
 20
-56.355
 11
-32.0495
 21
-56.5888
  0
LINE
  8
0
 10
-32.0495
 20
-56.5888
 11
-32.1934
 21
-56.8321
  0
LINE
  8
0
 10
-32.1934
 20
-56.8321
 11
-32.3217
 21
-57.084
  0
LINE
  8
0
 10
-32.3217
 20
-57.084
 11
-32.434
 21
-57.3434
  0
LINE
  8
0
 10
-32.434
 20
-57.3434
 11
-32.5297
 21
-57.6094
  0
LINE
  8
0
 10
-32.5297
 20
-57.6094
 11
-32.6086
 21
-57.8809
  0
LINE
  8
0
 10
-32.6086
 20
-57.8809
 11
-32.6703
 21
-58.1568
  0
LINE
  8
0
 10
-32.6703
 20
-58.1568
 11
-32.7145
 21
-58.436
  0
LINE
  8
0
 10
-32.7145
 20
-58.436
 11
-32.7411
 21
-58.7175
  0
LINE
  8
0
 10
-32.7411
 20
-58.7175
 11
-32.75
 21
-59
  0
LINE
  8
0
 10
-32.75
 20
-59
 11
-32.7411
 21
-59.2826
  0
LINE
  8
0
 10
-32.7411
 20
-59.2826
 11
-32.7145
 21
-59.564
  0
LINE
  8
0
 10
-32.7145
 20
-59.564
 11
-32.6703
 21
-59.8432
  0
LINE
  8
0
 10
-32.6703
 20
-59.8432
 11
-32.6086
 21
-60.1191
  0
LINE
  8
0
 10
-32.6086
 20
-60.1191
 11
-32.5297
 21
-60.3906
  0
LINE
  8
0
 10
-32.5297
 20
-60.3906
 11
-32.434
 21
-60.6566
  0
LINE
  8
0
 10
-32.434
 20
-60.6566
 11
-32.3217
 21
-60.916
  0
LINE
  8
0
 10
-32.3217
 20
-60.916
 11
-32.1934
 21
-61.1679
  0
LINE
  8
0
 10
-32.1934
 20
-61.1679
 11
-32.0495
 21
-61.4112
  0
LINE
  8
0
 10
-32.0495
 20
-61.4112
 11
-31.8906
 21
-61.645
  0
LINE
  8
0
 10
-31.8906
 20
-61.645
 11
-31.7173
 21
-61.8684
  0
LINE
  8
0
 10
-31.7173
 20
-61.8684
 11
-31.5303
 21
-62.0805
  0
LINE
  8
0
 10
-31.5303
 20
-62.0805
 11
-31.3305
 21
-62.2804
  0
LINE
  8
0
 10
-31.3305
 20
-62.2804
 11
-31.1184
 21
-62.4673
  0
LINE
  8
0
 10
-31.1184
 20
-62.4673
 11
-30.895
 21
-62.6406
  0
LINE
  8
0
 10
-30.895
 20
-62.6406
 11
-30.6612
 21
-62.7995
  0
LINE
  8
0
 10
-30.6612
 20
-62.7995
 11
-30.4179
 21
-62.9434
  0
LINE
  8
0
 10
-30.4179
 20
-62.9434
 11
-30.166
 21
-63.0717
  0
LINE
  8
0
 10
-30.166
 20
-63.0717
 11
-30
 21
-63.1436
  0
LINE
  8
0
 10
-30
 20
-63.1436
 11
-30
 21
-143.75
  0
LINE
  8
0
 10
-30
 20
-143.75
 11
-15
 21
-143.75
  0
LINE
  8
0
 10
-15
 20
-143.75
 11
-15
 21
-147.25
  0
LINE
  8
0
 10
-15
 20
-147.25
 11
0
 21
-147.25
  0
LINE
  8
0
 10
0
 20
-147.25
 11
0
 21
-143.75
  0
LINE
  8
0
 10
-28.3913
 20
-61.2456
 11
-28.532
 21
-61.2323
  0
LINE
  8
0
 10
-28.532
 20
-61.2323
 11
-28.6716
 21
-61.2102
  0
LINE
  8
0
 10
-28.6716
 20
-61.2102
 11
-28.8095
 21
-61.1793
  0
LINE
  8
0
 10
-28.8095
 20
-61.1793
 11
-28.9453
 21
-61.1399
  0
LINE
  8
0
 10
-28.9453
 20
-61.1399
 11
-29.0783
 21
-61.092
  0
LINE
  8
0
 10
-29.0783
 20
-61.092
 11
-29.208
 21
-61.0359
  0
LINE
  8
0
 10
-29.208
 20
-61.0359
 11
-29.3339
 21
-60.9717
  0
LINE
  8
0
 10
-29.3339
 20
-60.9717
 11
-29.4556
 21
-60.8997
  0
LINE
  8
0
 10
-29.4556
 20
-60.8997
 11
-29.5725
 21
-60.8203
  0
LINE
  8
0
 10
-29.5725
 20
-60.8203
 11
-29.6842
 21
-60.7337
  0
LINE
  8
0
 10
-29.6842
 20
-60.7337
 11
-29.7902
 21
-60.6402
  0
LINE
  8
0
 10
-29.7902
 20
-60.6402
 11
-29.8902
 21
-60.5402
  0
LINE
  8
0
 10
-29.8902
 20
-60.5402
 11
-29.9836
 21
-60.4342
  0
LINE
  8
0
 10
-29.9836
 20
-60.4342
 11
-30.0703
 21
-60.3225
  0
LINE
  8
0
 10
-30.0703
 20
-60.3225
 11
-30.1497
 21
-60.2056
  0
LINE
  8
0
 10
-30.1497
 20
-60.2056
 11
-30.2217
 21
-60.084
  0
LINE
  8
0
 10
-30.2217
 20
-60.084
 11
-30.2859
 21
-59.958
  0
LINE
  8
0
 10
-30.2859
 20
-59.958
 11
-30.342
 21
-59.8283
  0
LINE
  8
0
 10
-30.342
 20
-59.8283
 11
-30.3899
 21
-59.6953
  0
LINE
  8
0
 10
-30.3899
 20
-59.6953
 11
-30.4293
 21
-59.5596
  0
LINE
  8
0
 10
-30.4293
 20
-59.5596
 11
-30.4601
 21
-59.4216
  0
LINE
  8
0
 10
-30.4601
 20
-59.4216
 11
-30.4823
 21
-59.282
  0
LINE
  8
0
 10
-30.4823
 20
-59.282
 11
-30.4956
 21
-59.1413
  0
LINE
  8
0
 10
-30.4956
 20
-59.1413
 11
-30.5
 21
-59
  0
LINE
  8
0
 10
-30.5
 20
-59
 11
-30.4956
 21
-58.8587
  0
LINE
  8
0
 10
-30.4956
 20
-58.8587
 11
-30.4823
 21
-58.718
  0
LINE
  8
0
 10
-30.4823
 20
-58.718
 11
-30.4601
 21
-58.5784
  0
LINE
  8
0
 10
-30.4601
 20
-58.5784
 11
-30.4293
 21
-58.4405
  0
LINE
  8
0
 10
-30.4293
 20
-58.4405
 11
-30.3899
 21
-58.3047
  0
LINE
  8
0
 10
-30.3899
 20
-58.3047
 11
-30.342
 21
-58.1717
  0
LINE
  8
0
 10
-30.342
 20
-58.1717
 11
-30.2859
 21
-58.042
  0
LINE
  8
0
 10
-30.2859
 20
-58.042
 11
-30.2217
 21
-57.9161
  0
LINE
  8
0
 10
-30.2217
 20
-57.9161
 11
-30.1497
 21
-57.7944
  0
LINE
  8
0
 10
-30.1497
 20
-57.7944
 11
-30.0703
 21
-57.6775
  0
LINE
  8
0
 10
-30.0703
 20
-57.6775
 11
-29.9836
 21
-57.5658
  0
LINE
  8
0
 10
-29.9836
 20
-57.5658
 11
-29.8902
 21
-57.4598
  0
LINE
  8
0
 10
-29.8902
 20
-57.4598
 11
-29.7902
 21
-57.3598
  0
LINE
  8
0
 10
-29.7902
 20
-57.3598
 11
-29.6842
 21
-57.2664
  0
LINE
  8
0
 10
-29.6842
 20
-57.2664
 11
-29.5725
 21
-57.1797
  0
LINE
  8
0
 10
-29.5725
 20
-57.1797
 11
-29.4556
 21
-57.1003
  0
LINE
  8
0
 10
-29.4556
 20
-57.1003
 11
-29.3339
 21
-57.0283
  0
LINE
  8
0
 10
-29.3339
 20
-57.0283
 11
-29.208
 21
-56.9641
  0
LINE
  8
0
 10
-29.208
 20
-56.9641
 11
-29.0783
 21
-56.908
  0
LINE
  8
0
 10
-29.0783
 20
-56.908
 11
-28.9453
 21
-56.8601
  0
LINE
  8
0
 10
-28.9453
 20
-56.8601
 11
-28.8095
 21
-56.8207
  0
LINE
  8
0
 10
-28.8095
 20
-56.8207
 11
-28.6716
 21
-56.7899
  0
LINE
  8
0
 10
-28.6716
 20
-56.7899
 11
-28.532
 21
-56.7677
  0
LINE
  8
0
 10
-28.532
 20
-56.7677
 11
-28.3913
 21
-56.7544
  0
LINE
  8
0
 10
-28.3913
 20
-56.7544
 11
-28.25
 21
-56.75
  0
LINE
  8
0
 10
-28.25
 20
-56.75
 11
-28.1087
 21
-56.7544
  0
LINE
  8
0
 10
-28.1087
 20
-56.7544
 11
-27.968
 21
-56.7677
  0
LINE
  8
0
 10
-27.968
 20
-56.7677
 11
-27.8284
 21
-56.7899
  0
LINE
  8
0
 10
-27.8284
 20
-56.7899
 11
-27.6904
 21
-56.8207
  0
LINE
  8
0
 10
-27.6904
 20
-56.8207
 11
-27.5547
 21
-56.8601
  0
LINE
  8
0
 10
-27.5547
 20
-56.8601
 11
-27.4217
 21
-56.908
  0
LINE
  8
0
 10
-27.4217
 20
-56.908
 11
-27.292
 21
-56.9641
  0
LINE
  8
0
 10
-27.292
 20
-56.9641
 11
-27.166
 21
-57.0283
  0
LINE
  8
0
 10
-27.166
 20
-57.0283
 11
-27.0444
 21
-57.1003
  0
LINE
  8
0
 10
-27.0444
 20
-57.1003
 11
-26.9275
 21
-57.1797
  0
LINE
  8
0
 10
-26.9275
 20
-57.1797
 11
-26.8158
 21
-57.2664
  0
LINE
  8
0
 10
-26.8158
 20
-57.2664
 11
-26.7098
 21
-57.3598
  0
LINE
  8
0
 10
-26.7098
 20
-57.3598
 11
-26.6098
 21
-57.4598
  0
LINE
  8
0
 10
-26.6098
 20
-57.4598
 11
-26.5163
 21
-57.5658
  0
LINE
  8
0
 10
-26.5163
 20
-57.5658
 11
-26.4297
 21
-57.6775
  0
LINE
  8
0
 10
-26.4297
 20
-57.6775
 11
-26.3503
 21
-57.7944
  0
LINE
  8
0
 10
-26.3503
 20
-57.7944
 11
-26.2783
 21
-57.9161
  0
LINE
  8
0
 10
-26.2783
 20
-57.9161
 11
-26.2141
 21
-58.042
  0
LINE
  8
0
 10
-26.2141
 20
-58.042
 11
-26.158
 21
-58.1717
  0
LINE
  8
0
 10
-26.158
 20
-58.1717
 11
-26.1101
 21
-58.3047
  0
LINE
  8
0
 10
-26.1101
 20
-58.3047
 11
-26.0707
 21
-58.4405
  0
LINE
  8
0
 10
-26.0707
 20
-58.4405
 11
-26.0398
 21
-58.5784
  0
LINE
  8
0
 10
-26.0398
 20
-58.5784
 11
-26.0177
 21
-58.718
  0
LINE
  8
0
 10
-26.0177
 20
-58.718
 11
-26.0044
 21
-58.8587
  0
LINE
  8
0
 10
-26.0044
 20
-58.8587
 11
-26
 21
-59
  0
LINE
  8
0
 10
-26
 20
-59
 11
-26.0044
 21
-59.1413
  0
LINE
  8
0
 10
-26.0044
 20
-59.1413
 11
-26.0177
 21
-59.282
  0
LINE
  8
0
 10
-26.0177
 20
-59.282
 11
-26.0398
 21
-59.4216
  0
LINE
  8
0
 10
-26.0398
 20
-59.4216
 11
-26.0707
 21
-59.5596
  0
LINE
  8
0
 10
-26.0707
 20
-59.5596
 11
-26.1101
 21
-59.6953
  0
LINE
  8
0
 10
-26.1101
 20
-59.6953
 11
-26.158
 21
-59.8283
  0
LINE
  8
0
 10
-26.158
 20
-59.8283
 11
-26.2141
 21
-59.958
  0
LINE
  8
0
 10
-26.2141
 20
-59.958
 11
-26.2783
 21
-60.084
  0
LINE
  8
0
 10
-26.2783
 20
-60.084
 11
-26.3503
 21
-60.2056
  0
LINE
  8
0
 10
-26.3503
 20
-60.2056
 11
-26.4297
 21
-60.3225
  0
LINE
  8
0
 10
-26.4297
 20
-60.3225
 11
-26.5163
 21
-60.4342
  0
LINE
  8
0
 10
-26.5163
 20
-60.4342
 11
-26.6098
 21
-60.5402
  0
LINE
  8
0
 10
-26.6098
 20
-60.5402
 11
-26.7098
 21
-60.6402
  0
LINE
  8
0
 10
-26.7098
 20
-60.6402
 11
-26.8158
 21
-60.7337
  0
LINE
  8
0
 10
-26.8158
 20
-60.7337
 11
-26.9275
 21
-60.8203
  0
LINE
  8
0
 10
-26.9275
 20
-60.8203
 11
-27.0444
 21
-60.8997
  0
LINE
  8
0
 10
-27.0444
 20
-60.8997
 11
-27.166
 21
-60.9717
  0
LINE
  8
0
 10
-27.166
 20
-60.9717
 11
-27.292
 21
-61.0359
  0
LINE
  8
0
 10
-27.292
 20
-61.0359
 11
-27.4217
 21
-61.092
  0
LINE
  8
0
 10
-27.4217
 20
-61.092
 11
-27.5547
 21
-61.1399
  0
LINE
  8
0
 10
-27.5547
 20
-61.1399
 11
-27.6904
 21
-61.1793
  0
LINE
  8
0
 10
-27.6904
 20
-61.1793
 11
-27.8284
 21
-61.2102
  0
LINE
  8
0
 10
-27.8284
 20
-61.2102
 11
-27.968
 21
-61.2323
  0
LINE
  8
0
 10
-27.968
 20
-61.2323
 11
-28.1087
 21
-61.2456
  0
LINE
  8
0
 10
-28.1087
 20
-61.2456
 11
-28.25
 21
-61.25
  0
LINE
  8
0
 10
-28.25
 20
-61.25
 11
-28.3913
 21
-61.2456
  0
LINE
  8
0
 10
68.75
 20
-143.75
 11
83.75
 21
-143.75
  0
LINE
  8
0
 10
83.75
 20
-143.75
 11
83.75
 21
-147.25
  0
LINE
  8
0
 10
83.75
 20
-147.25
 11
98.75
 21
-147.25
  0
LINE
  8
0
 10
98.75
 20
-147.25
 11
98.75
 21
-121.25
  0
LINE
  8
0
 10
98.75
 20
-121.25
 11
102.25
 21
-121.25
  0
LINE
  8
0
 10
102.25
 20
-121.25
 11
102.25
 21
-98.75
  0
LINE
  8
0
 10
102.25
 20
-98.75
 11
98.75
 21
-98.75
  0
LINE
  8
0
 10
98.75
 20
-98.75
 11
98.75
 21
-76.25
  0
LINE
  8
0
 10
98.75
 20
-76.25
 11
102.25
 21
-76.25
  0
LINE
  8
0
 10
102.25
 20
-76.25
 11
102.25
 21
-53.75
  0
LINE
  8
0
 10
102.25
 20
-53.75
 11
83.75
 21
-53.75
  0
LINE
  8
0
 10
83.75
 20
-53.75
 11
83.75
 21
-50.25
  0
LINE
  8
0
 10
83.75
 20
-50.25
 11
68.75
 21
-50.25
  0
LINE
  8
0
 10
68.75
 20
-50.25
 11
68.75
 21
-53.75
  0
LINE
  8
0
 10
68.75
 20
-53.75
 11
53.75
 21
-53.75
  0
LINE
  8
0
 10
53.75
 20
-53.75
 11
53.75
 21
-50.25
  0
LINE
  8
0
 10
53.75
 20
-50.25
 11
38.75
 21
-50.25
  0
LINE
  8
0
 10
38.75
 20
-50.25
 11
38.75
 21
-134.356
  0
LINE
  8
0
 10
38.75
 20
-134.356
 11
38.584
 21
-134.428
  0
LINE
  8
0
 10
38.584
 20
-134.428
 11
38.3321
 21
-134.557
  0
LINE
  8
0
 10
38.3321
 20
-134.557
 11
38.0888
 21
-134.701
  0
LINE
  8
0
 10
38.0888
 20
-134.701
 11
37.855
 21
-134.859
  0
LINE
  8
0
 10
37.855
 20
-134.859
 11
37.6316
 21
-135.033
  0
LINE
  8
0
 10
37.6316
 20
-135.033
 11
37.4195
 21
-135.22
  0
LINE
  8
0
 10
37.4195
 20
-135.22
 11
37.2196
 21
-135.42
  0
LINE
  8
0
 10
37.2196
 20
-135.42
 11
37.0327
 21
-135.632
  0
LINE
  8
0
 10
37.0327
 20
-135.632
 11
36.8594
 21
-135.855
  0
LINE
  8
0
 10
36.8594
 20
-135.855
 11
36.7005
 21
-136.089
  0
LINE
  8
0
 10
36.7005
 20
-136.089
 11
36.5566
 21
-136.332
  0
LINE
  8
0
 10
36.5566
 20
-136.332
 11
36.4283
 21
-136.584
  0
LINE
  8
0
 10
36.4283
 20
-136.584
 11
36.316
 21
-136.843
  0
LINE
  8
0
 10
36.316
 20
-136.843
 11
36.2202
 21
-137.109
  0
LINE
  8
0
 10
36.2202
 20
-137.109
 11
36.1414
 21
-137.381
  0
LINE
  8
0
 10
36.1414
 20
-137.381
 11
36.0797
 21
-137.657
  0
LINE
  8
0
 10
36.0797
 20
-137.657
 11
36.0355
 21
-137.936
  0
LINE
  8
0
 10
36.0355
 20
-137.936
 11
36.0089
 21
-138.217
  0
LINE
  8
0
 10
36.0089
 20
-138.217
 11
36
 21
-138.5
  0
LINE
  8
0
 10
36
 20
-138.5
 11
36.0089
 21
-138.783
  0
LINE
  8
0
 10
36.0089
 20
-138.783
 11
36.0355
 21
-139.064
  0
LINE
  8
0
 10
36.0355
 20
-139.064
 11
36.0797
 21
-139.343
  0
LINE
  8
0
 10
36.0797
 20
-139.343
 11
36.1414
 21
-139.619
  0
LINE
  8
0
 10
36.1414
 20
-139.619
 11
36.2202
 21
-139.891
  0
LINE
  8
0
 10
36.2202
 20
-139.891
 11
36.316
 21
-140.157
  0
LINE
  8
0
 10
36.316
 20
-140.157
 11
36.4283
 21
-140.416
  0
LINE
  8
0
 10
36.4283
 20
-140.416
 11
36.5566
 21
-140.668
  0
LINE
  8
0
 10
36.5566
 20
-140.668
 11
36.7005
 21
-140.911
  0
LINE
  8
0
 10
36.7005
 20
-140.911
 11
36.8594
 21
-141.145
  0
LINE
  8
0
 10
36.8594
 20
-141.145
 11
37.0327
 21
-141.368
  0
LINE
  8
0
 10
37.0327
 20
-141.368
 11
37.2196
 21
-141.58
  0
LINE
  8
0
 10
37.2196
 20
-141.58
 11
37.4195
 21
-141.78
  0
LINE
  8
0
 10
37.4195
 20
-141.78
 11
37.6316
 21
-141.967
  0
LINE
  8
0
 10
37.6316
 20
-141.967
 11
37.855
 21
-142.141
  0
LINE
  8
0
 10
37.855
 20
-142.141
 11
38.0888
 21
-142.299
  0
LINE
  8
0
 10
38.0888
 20
-142.299
 11
38.3321
 21
-142.443
  0
LINE
  8
0
 10
38.3321
 20
-142.443
 11
38.584
 21
-142.572
  0
LINE
  8
0
 10
38.584
 20
-142.572
 11
38.75
 21
-142.644
  0
LINE
  8
0
 10
38.75
 20
-142.644
 11
38.75
 21
-143.75
  0
LINE
  8
0
 10
38.75
 20
-143.75
 11
53.75
 21
-143.75
  0
LINE
  8
0
 10
53.75
 20
-143.75
 11
53.75
 21
-147.25
  0
LINE
  8
0
 10
53.75
 20
-147.25
 11
68.75
 21
-147.25
  0
LINE
  8
0
 10
68.75
 20
-147.25
 11
68.75
 21
-143.75
  0
LINE
  8
0
 10
40.3587
 20
-140.746
 11
40.218
 21
-140.732
  0
LINE
  8
0
 10
40.218
 20
-140.732
 11
40.0784
 21
-140.71
  0
LINE
  8
0
 10
40.0784
 20
-140.71
 11
39.9404
 21
-140.679
  0
LINE
  8
0
 10
39.9404
 20
-140.679
 11
39.8047
 21
-140.64
  0
LINE
  8
0
 10
39.8047
 20
-140.64
 11
39.6717
 21
-140.592
  0
LINE
  8
0
 10
39.6717
 20
-140.592
 11
39.542
 21
-140.536
  0
LINE
  8
0
 10
39.542
 20
-140.536
 11
39.416
 21
-140.472
  0
LINE
  8
0
 10
39.416
 20
-140.472
 11
39.2944
 21
-140.4
  0
LINE
  8
0
 10
39.2944
 20
-140.4
 11
39.1775
 21
-140.32
  0
LINE
  8
0
 10
39.1775
 20
-140.32
 11
39.0658
 21
-140.234
  0
LINE
  8
0
 10
39.0658
 20
-140.234
 11
38.9598
 21
-140.14
  0
LINE
  8
0
 10
38.9598
 20
-140.14
 11
38.8598
 21
-140.04
  0
LINE
  8
0
 10
38.8598
 20
-140.04
 11
38.7663
 21
-139.934
  0
LINE
  8
0
 10
38.7663
 20
-139.934
 11
38.6797
 21
-139.823
  0
LINE
  8
0
 10
38.6797
 20
-139.823
 11
38.6003
 21
-139.706
  0
LINE
  8
0
 10
38.6003
 20
-139.706
 11
38.5283
 21
-139.584
  0
LINE
  8
0
 10
38.5283
 20
-139.584
 11
38.4641
 21
-139.458
  0
LINE
  8
0
 10
38.4641
 20
-139.458
 11
38.408
 21
-139.328
  0
LINE
  8
0
 10
38.408
 20
-139.328
 11
38.3601
 21
-139.195
  0
LINE
  8
0
 10
38.3601
 20
-139.195
 11
38.3207
 21
-139.06
  0
LINE
  8
0
 10
38.3207
 20
-139.06
 11
38.2898
 21
-138.922
  0
LINE
  8
0
 10
38.2898
 20
-138.922
 11
38.2677
 21
-138.782
  0
LINE
  8
0
 10
38.2677
 20
-138.782
 11
38.2544
 21
-138.641
  0
LINE
  8
0
 10
38.2544
 20
-138.641
 11
38.25
 21
-138.5
  0
LINE
  8
0
 10
38.25
 20
-138.5
 11
38.2544
 21
-138.359
  0
LINE
  8
0
 10
38.2544
 20
-138.359
 11
38.2677
 21
-138.218
  0
LINE
  8
0
 10
38.2677
 20
-138.218
 11
38.2898
 21
-138.078
  0
LINE
  8
0
 10
38.2898
 20
-138.078
 11
38.3207
 21
-137.94
  0
LINE
  8
0
 10
38.3207
 20
-137.94
 11
38.3601
 21
-137.805
  0
LINE
  8
0
 10
38.3601
 20
-137.805
 11
38.408
 21
-137.672
  0
LINE
  8
0
 10
38.408
 20
-137.672
 11
38.4641
 21
-137.542
  0
LINE
  8
0
 10
38.4641
 20
-137.542
 11
38.5283
 21
-137.416
  0
LINE
  8
0
 10
38.5283
 20
-137.416
 11
38.6003
 21
-137.294
  0
LINE
  8
0
 10
38.6003
 20
-137.294
 11
38.6797
 21
-137.177
  0
LINE
  8
0
 10
38.6797
 20
-137.177
 11
38.7663
 21
-137.066
  0
LINE
  8
0
 10
38.7663
 20
-137.066
 11
38.8598
 21
-136.96
  0
LINE
  8
0
 10
38.8598
 20
-136.96
 11
38.9598
 21
-136.86
  0
LINE
  8
0
 10
38.9598
 20
-136.86
 11
39.0658
 21
-136.766
  0
LINE
  8
0
 10
39.0658
 20
-136.766
 11
39.1775
 21
-136.68
  0
LINE
  8
0
 10
39.1775
 20
-136.68
 11
39.2944
 21
-136.6
  0
LINE
  8
0
 10
39.2944
 20
-136.6
 11
39.416
 21
-136.528
  0
LINE
  8
0
 10
39.416
 20
-136.528
 11
39.542
 21
-136.464
  0
LINE
  8
0
 10
39.542
 20
-136.464
 11
39.6717
 21
-136.408
  0
LINE
  8
0
 10
39.6717
 20
-136.408
 11
39.8047
 21
-136.36
  0
LINE
  8
0
 10
39.8047
 20
-136.36
 11
39.9404
 21
-136.321
  0
LINE
  8
0
 10
39.9404
 20
-136.321
 11
40.0784
 21
-136.29
  0
LINE
  8
0
 10
40.0784
 20
-136.29
 11
40.218
 21
-136.268
  0
LINE
  8
0
 10
40.218
 20
-136.268
 11
40.3587
 21
-136.254
  0
LINE
  8
0
 10
40.3587
 20
-136.254
 11
40.5
 21
-136.25
  0
LINE
  8
0
 10
40.5
 20
-136.25
 11
40.6413
 21
-136.254
  0
LINE
  8
0
 10
40.6413
 20
-136.254
 11
40.782
 21
-136.268
  0
LINE
  8
0
 10
40.782
 20
-136.268
 11
40.9216
 21
-136.29
  0
LINE
  8
0
 10
40.9216
 20
-136.29
 11
41.0595
 21
-136.321
  0
LINE
  8
0
 10
41.0595
 20
-136.321
 11
41.1953
 21
-136.36
  0
LINE
  8
0
 10
41.1953
 20
-136.36
 11
41.3283
 21
-136.408
  0
LINE
  8
0
 10
41.3283
 20
-136.408
 11
41.458
 21
-136.464
  0
LINE
  8
0
 10
41.458
 20
-136.464
 11
41.5839
 21
-136.528
  0
LINE
  8
0
 10
41.5839
 20
-136.528
 11
41.7056
 21
-136.6
  0
LINE
  8
0
 10
41.7056
 20
-136.6
 11
41.8225
 21
-136.68
  0
LINE
  8
0
 10
41.8225
 20
-136.68
 11
41.9342
 21
-136.766
  0
LINE
  8
0
 10
41.9342
 20
-136.766
 11
42.0402
 21
-136.86
  0
LINE
  8
0
 10
42.0402
 20
-136.86
 11
42.1402
 21
-136.96
  0
LINE
  8
0
 10
42.1402
 20
-136.96
 11
42.2336
 21
-137.066
  0
LINE
  8
0
 10
42.2336
 20
-137.066
 11
42.3203
 21
-137.177
  0
LINE
  8
0
 10
42.3203
 20
-137.177
 11
42.3997
 21
-137.294
  0
LINE
  8
0
 10
42.3997
 20
-137.294
 11
42.4717
 21
-137.416
  0
LINE
  8
0
 10
42.4717
 20
-137.416
 11
42.5359
 21
-137.542
  0
LINE
  8
0
 10
42.5359
 20
-137.542
 11
42.592
 21
-137.672
  0
LINE
  8
0
 10
42.592
 20
-137.672
 11
42.6399
 21
-137.805
  0
LINE
  8
0
 10
42.6399
 20
-137.805
 11
42.6793
 21
-137.94
  0
LINE
  8
0
 10
42.6793
 20
-137.94
 11
42.7101
 21
-138.078
  0
LINE
  8
0
 10
42.7101
 20
-138.078
 11
42.7323
 21
-138.218
  0
LINE
  8
0
 10
42.7323
 20
-138.218
 11
42.7456
 21
-138.359
  0
LINE
  8
0
 10
42.7456
 20
-138.359
 11
42.75
 21
-138.5
  0
LINE
  8
0
 10
42.75
 20
-138.5
 11
42.7456
 21
-138.641
  0
LINE
  8
0
 10
42.7456
 20
-138.641
 11
42.7323
 21
-138.782
  0
LINE
  8
0
 10
42.7323
 20
-138.782
 11
42.7101
 21
-138.922
  0
LINE
  8
0
 10
42.7101
 20
-138.922
 11
42.6793
 21
-139.06
  0
LINE
  8
0
 10
42.6793
 20
-139.06
 11
42.6399
 21
-139.195
  0
LINE
  8
0
 10
42.6399
 20
-139.195
 11
42.592
 21
-139.328
  0
LINE
  8
0
 10
42.592
 20
-139.328
 11
42.5359
 21
-139.458
  0
LINE
  8
0
 10
42.5359
 20
-139.458
 11
42.4717
 21
-139.584
  0
LINE
  8
0
 10
42.4717
 20
-139.584
 11
42.3997
 21
-139.706
  0
LINE
  8
0
 10
42.3997
 20
-139.706
 11
42.3203
 21
-139.823
  0
LINE
  8
0
 10
42.3203
 20
-139.823
 11
42.2336
 21
-139.934
  0
LINE
  8
0
 10
42.2336
 20
-139.934
 11
42.1402
 21
-140.04
  0
LINE
  8
0
 10
42.1402
 20
-140.04
 11
42.0402
 21
-140.14
  0
LINE
  8
0
 10
42.0402
 20
-140.14
 11
41.9342
 21
-140.234
  0
LINE
  8
0
 10
41.9342
 20
-140.234
 11
41.8225
 21
-140.32
  0
LINE
  8
0
 10
41.8225
 20
-140.32
 11
41.7056
 21
-140.4
  0
LINE
  8
0
 10
41.7056
 20
-140.4
 11
41.5839
 21
-140.472
  0
LINE
  8
0
 10
41.5839
 20
-140.472
 11
41.458
 21
-140.536
  0
LINE
  8
0
 10
41.458
 20
-140.536
 11
41.3283
 21
-140.592
  0
LINE
  8
0
 10
41.3283
 20
-140.592
 11
41.1953
 21
-140.64
  0
LINE
  8
0
 10
41.1953
 20
-140.64
 11
41.0595
 21
-140.679
  0
LINE
  8
0
 10
41.0595
 20
-140.679
 11
40.9216
 21
-140.71
  0
LINE
  8
0
 10
40.9216
 20
-140.71
 11
40.782
 21
-140.732
  0
LINE
  8
0
 10
40.782
 20
-140.732
 11
40.6413
 21
-140.746
  0
LINE
  8
0
 10
40.6413
 20
-140.746
 11
40.5
 21
-140.75
  0
LINE
  8
0
 10
40.5
 20
-140.75
 11
40.3587
 21
-140.746
  0
ENDSEC
  0
SECTION
  2
OBJECTS
  0
DICTIONARY
  0
ENDSEC
  0
EOF
