solid OpenSCAD_Model
  facet normal -1 0 -2.22045e-16
    outer loop
      vertex 4.21076e-16 -1.47099 -1.89636
      vertex 3.14016e-16 -1.07896e-05 -1.4142
      vertex 4.40752e-16 -1.34901 -1.98497
    endloop
  endfacet
  facet normal -1 0 -2.22045e-16
    outer loop
      vertex 3.14016e-16 -1.07896e-05 -1.4142
      vertex 4.7482e-16 -1.08959 -2.1384
      vertex 4.5869e-16 -1.22171 -2.06575
    endloop
  endfacet
  facet normal -1 0 -2.22045e-16
    outer loop
      vertex 3.14016e-16 -1.07896e-05 -1.4142
      vertex 4.5869e-16 -1.22171 -2.06575
      vertex 4.40752e-16 -1.34901 -1.98497
    endloop
  endfacet
  facet normal -1 0 -2.22045e-16
    outer loop
      vertex 4.99449e-16 -0.835125 -2.24932
      vertex 4.89073e-16 -0.953174 -2.20259
      vertex 3.14016e-16 -1.07896e-05 -1.4142
    endloop
  endfacet
  facet normal -1 0 -2.22045e-16
    outer loop
      vertex 3.14016e-16 -1.07896e-05 -1.4142
      vertex 4.89073e-16 -0.953174 -2.20259
      vertex 4.7482e-16 -1.08959 -2.1384
    endloop
  endfacet
  facet normal -1 0 -2.22045e-16
    outer loop
      vertex 3.99737e-16 -1.58716 -1.80025
      vertex 3.14016e-16 -1.07896e-05 -1.4142
      vertex 4.21076e-16 -1.47099 -1.89636
    endloop
  endfacet
  facet normal -1 0 -2.22045e-16
    outer loop
      vertex 3.99737e-16 -1.58716 -1.80025
      vertex 3.76821e-16 -1.69705 -1.69705
      vertex 3.14016e-16 -1.07896e-05 -1.4142
    endloop
  endfacet
  facet normal -1 0 -2.22045e-16
    outer loop
      vertex 2.46519e-32 1.41421 -1.11022e-16
      vertex 1.85433e-16 2.24933 -0.835115
      vertex 2.11645e-16 2.2026 -0.953163
    endloop
  endfacet
  facet normal -1 0 -2.22045e-16
    outer loop
      vertex 4.99451e-16 0.835115 -2.24933
      vertex 3.14016e-16 -1.07896e-05 -1.4142
      vertex 4.89075e-16 0.953163 -2.2026
    endloop
  endfacet
  facet normal -1 0 -2.22045e-16
    outer loop
      vertex 4.89075e-16 0.953163 -2.2026
      vertex 3.14016e-16 -1.07896e-05 -1.4142
      vertex 4.74823e-16 1.08958 -2.13841
    endloop
  endfacet
  facet normal -1 0 -2.22045e-16
    outer loop
      vertex 4.74823e-16 1.08958 -2.13841
      vertex 3.14016e-16 -1.07896e-05 -1.4142
      vertex 4.58692e-16 1.22169 -2.06576
    endloop
  endfacet
  facet normal -1 0 -2.22045e-16
    outer loop
      vertex 4.58692e-16 1.22169 -2.06576
      vertex 3.14016e-16 -1.07896e-05 -1.4142
      vertex 4.40755e-16 1.349 -1.98498
    endloop
  endfacet
  facet normal -1 0 -2.22045e-16
    outer loop
      vertex 4.40755e-16 1.349 -1.98498
      vertex 3.14016e-16 -1.07896e-05 -1.4142
      vertex 4.21078e-16 1.47098 -1.89637
    endloop
  endfacet
  facet normal -1 0 -2.22045e-16
    outer loop
      vertex 4.21078e-16 1.47098 -1.89637
      vertex 3.14016e-16 -1.07896e-05 -1.4142
      vertex 3.99739e-16 1.58715 -1.80027
    endloop
  endfacet
  facet normal -1 0 -2.22045e-16
    outer loop
      vertex 3.99739e-16 1.58715 -1.80027
      vertex 3.14016e-16 -1.07896e-05 -1.4142
      vertex 3.76821e-16 1.69705 -1.69705
    endloop
  endfacet
  facet normal -1 0 -2.22045e-16
    outer loop
      vertex 3.76821e-16 1.69705 -1.69705
      vertex 2.46519e-32 1.41421 -1.11022e-16
      vertex 3.52418e-16 1.80027 -1.58715
    endloop
  endfacet
  facet normal -1 0 -2.22045e-16
    outer loop
      vertex 3.52418e-16 1.80027 -1.58715
      vertex 2.46519e-32 1.41421 -1.11022e-16
      vertex 3.26623e-16 1.89637 -1.47098
    endloop
  endfacet
  facet normal -1 0 -2.22045e-16
    outer loop
      vertex 3.26623e-16 1.89637 -1.47098
      vertex 2.46519e-32 1.41421 -1.11022e-16
      vertex 2.99538e-16 1.98498 -1.349
    endloop
  endfacet
  facet normal -1 0 -2.22045e-16
    outer loop
      vertex 2.99538e-16 1.98498 -1.349
      vertex 2.46519e-32 1.41421 -1.11022e-16
      vertex 2.71271e-16 2.06576 -1.22169
    endloop
  endfacet
  facet normal -1 0 -2.22045e-16
    outer loop
      vertex 2.71271e-16 2.06576 -1.22169
      vertex 2.46519e-32 1.41421 -1.11022e-16
      vertex 2.41935e-16 2.13841 -1.08958
    endloop
  endfacet
  facet normal -1 0 -2.22045e-16
    outer loop
      vertex 2.41935e-16 2.13841 -1.08958
      vertex 2.46519e-32 1.41421 -1.11022e-16
      vertex 2.11645e-16 2.2026 -0.953163
    endloop
  endfacet
  facet normal -1 0 -2.22045e-16
    outer loop
      vertex 3.14016e-16 -1.07896e-05 -1.4142
      vertex 2.46519e-32 1.41421 -1.11022e-16
      vertex 3.76821e-16 1.69705 -1.69705
    endloop
  endfacet
  facet normal -1 0 -2.22045e-16
    outer loop
      vertex -3.99737e-16 1.58716 1.80025
      vertex -3.76821e-16 1.69705 1.69705
      vertex -3.14016e-16 1.07896e-05 1.4142
    endloop
  endfacet
  facet normal -1 0 -2.22045e-16
    outer loop
      vertex 2.46519e-32 1.41421 -1.11022e-16
      vertex -2.11645e-16 2.2026 0.953163
      vertex -1.85433e-16 2.24933 0.835115
    endloop
  endfacet
  facet normal -1 0 -2.22045e-16
    outer loop
      vertex 2.46519e-32 1.41421 -1.11022e-16
      vertex -2.41935e-16 2.13841 1.08958
      vertex -2.11645e-16 2.2026 0.953163
    endloop
  endfacet
  facet normal -1 0 -2.22045e-16
    outer loop
      vertex 2.46519e-32 1.41421 -1.11022e-16
      vertex -2.71271e-16 2.06576 1.22169
      vertex -2.41935e-16 2.13841 1.08958
    endloop
  endfacet
  facet normal -1 0 -2.22045e-16
    outer loop
      vertex 2.46519e-32 1.41421 -1.11022e-16
      vertex -2.99538e-16 1.98498 1.349
      vertex -2.71271e-16 2.06576 1.22169
    endloop
  endfacet
  facet normal -1 0 -2.22045e-16
    outer loop
      vertex 2.46519e-32 1.41421 -1.11022e-16
      vertex -3.26623e-16 1.89637 1.47098
      vertex -2.99538e-16 1.98498 1.349
    endloop
  endfacet
  facet normal -1 0 -2.22045e-16
    outer loop
      vertex 2.46519e-32 1.41421 -1.11022e-16
      vertex -3.52418e-16 1.80027 1.58715
      vertex -3.26623e-16 1.89637 1.47098
    endloop
  endfacet
  facet normal -1 0 -2.22045e-16
    outer loop
      vertex 2.46519e-32 1.41421 -1.11022e-16
      vertex -3.76821e-16 1.69705 1.69705
      vertex -3.52418e-16 1.80027 1.58715
    endloop
  endfacet
  facet normal -1 0 -2.22045e-16
    outer loop
      vertex -4.21076e-16 1.47099 1.89636
      vertex -3.99737e-16 1.58716 1.80025
      vertex -3.14016e-16 1.07896e-05 1.4142
    endloop
  endfacet
  facet normal -1 0 -2.22045e-16
    outer loop
      vertex -4.40752e-16 1.34901 1.98497
      vertex -4.21076e-16 1.47099 1.89636
      vertex -3.14016e-16 1.07896e-05 1.4142
    endloop
  endfacet
  facet normal -1 0 -2.22045e-16
    outer loop
      vertex -4.5869e-16 1.22171 2.06575
      vertex -4.40752e-16 1.34901 1.98497
      vertex -3.14016e-16 1.07896e-05 1.4142
    endloop
  endfacet
  facet normal -1 0 -2.22045e-16
    outer loop
      vertex -4.7482e-16 1.08959 2.1384
      vertex -4.5869e-16 1.22171 2.06575
      vertex -3.14016e-16 1.07896e-05 1.4142
    endloop
  endfacet
  facet normal -1 0 -2.22045e-16
    outer loop
      vertex -4.89073e-16 0.953174 2.20259
      vertex -4.7482e-16 1.08959 2.1384
      vertex -3.14016e-16 1.07896e-05 1.4142
    endloop
  endfacet
  facet normal -1 0 -2.22045e-16
    outer loop
      vertex -4.99449e-16 0.835125 2.24932
      vertex -4.89073e-16 0.953174 2.20259
      vertex -3.14016e-16 1.07896e-05 1.4142
    endloop
  endfacet
  facet normal -1 0 -2.22045e-16
    outer loop
      vertex -3.14016e-16 1.07896e-05 1.4142
      vertex -3.76821e-16 1.69705 1.69705
      vertex 2.46519e-32 1.41421 -1.11022e-16
    endloop
  endfacet
  facet normal -1 0 -2.22045e-16
    outer loop
      vertex 3.14016e-16 -1.07896e-05 -1.4142
      vertex -3.14016e-16 1.07896e-05 1.4142
      vertex 2.46519e-32 1.41421 -1.11022e-16
    endloop
  endfacet
  facet normal -1 0 -2.22045e-16
    outer loop
      vertex -3.52418e-16 -1.80027 1.58715
      vertex -3.76821e-16 -1.69705 1.69705
      vertex -2.46519e-32 -1.41421 1.11022e-16
    endloop
  endfacet
  facet normal -1 0 -2.22045e-16
    outer loop
      vertex -3.14016e-16 1.07896e-05 1.4142
      vertex -4.89075e-16 -0.953163 2.2026
      vertex -4.99451e-16 -0.835115 2.24933
    endloop
  endfacet
  facet normal -1 0 -2.22045e-16
    outer loop
      vertex -3.14016e-16 1.07896e-05 1.4142
      vertex -4.74823e-16 -1.08958 2.13841
      vertex -4.89075e-16 -0.953163 2.2026
    endloop
  endfacet
  facet normal -1 0 -2.22045e-16
    outer loop
      vertex -3.14016e-16 1.07896e-05 1.4142
      vertex -4.58692e-16 -1.22169 2.06576
      vertex -4.74823e-16 -1.08958 2.13841
    endloop
  endfacet
  facet normal -1 0 -2.22045e-16
    outer loop
      vertex -3.14016e-16 1.07896e-05 1.4142
      vertex -4.40755e-16 -1.349 1.98498
      vertex -4.58692e-16 -1.22169 2.06576
    endloop
  endfacet
  facet normal -1 0 -2.22045e-16
    outer loop
      vertex -3.14016e-16 1.07896e-05 1.4142
      vertex -4.21078e-16 -1.47098 1.89637
      vertex -4.40755e-16 -1.349 1.98498
    endloop
  endfacet
  facet normal -1 0 -2.22045e-16
    outer loop
      vertex -3.14016e-16 1.07896e-05 1.4142
      vertex -3.99739e-16 -1.58715 1.80027
      vertex -4.21078e-16 -1.47098 1.89637
    endloop
  endfacet
  facet normal -1 0 -2.22045e-16
    outer loop
      vertex -3.14016e-16 1.07896e-05 1.4142
      vertex -3.76821e-16 -1.69705 1.69705
      vertex -3.99739e-16 -1.58715 1.80027
    endloop
  endfacet
  facet normal -1 0 -2.22045e-16
    outer loop
      vertex -3.26623e-16 -1.89637 1.47098
      vertex -3.52418e-16 -1.80027 1.58715
      vertex -2.46519e-32 -1.41421 1.11022e-16
    endloop
  endfacet
  facet normal -1 0 -2.22045e-16
    outer loop
      vertex -2.99538e-16 -1.98498 1.349
      vertex -3.26623e-16 -1.89637 1.47098
      vertex -2.46519e-32 -1.41421 1.11022e-16
    endloop
  endfacet
  facet normal -1 0 -2.22045e-16
    outer loop
      vertex -2.71271e-16 -2.06576 1.22169
      vertex -2.99538e-16 -1.98498 1.349
      vertex -2.46519e-32 -1.41421 1.11022e-16
    endloop
  endfacet
  facet normal -1 0 -2.22045e-16
    outer loop
      vertex -2.41935e-16 -2.13841 1.08958
      vertex -2.71271e-16 -2.06576 1.22169
      vertex -2.46519e-32 -1.41421 1.11022e-16
    endloop
  endfacet
  facet normal -1 0 -2.22045e-16
    outer loop
      vertex -2.11645e-16 -2.2026 0.953163
      vertex -2.41935e-16 -2.13841 1.08958
      vertex -2.46519e-32 -1.41421 1.11022e-16
    endloop
  endfacet
  facet normal -1 0 -2.22045e-16
    outer loop
      vertex -1.85433e-16 -2.24933 0.835115
      vertex -2.11645e-16 -2.2026 0.953163
      vertex -2.46519e-32 -1.41421 1.11022e-16
    endloop
  endfacet
  facet normal -1 0 -2.22045e-16
    outer loop
      vertex 3.14016e-16 -1.07896e-05 -1.4142
      vertex 3.76821e-16 -1.69705 -1.69705
      vertex -2.46519e-32 -1.41421 1.11022e-16
    endloop
  endfacet
  facet normal -1 0 -2.22045e-16
    outer loop
      vertex -2.46519e-32 -1.41421 1.11022e-16
      vertex 2.11645e-16 -2.2026 -0.953163
      vertex 1.85433e-16 -2.24933 -0.835115
    endloop
  endfacet
  facet normal -1 0 -2.22045e-16
    outer loop
      vertex 3.14016e-16 -1.07896e-05 -1.4142
      vertex -2.46519e-32 -1.41421 1.11022e-16
      vertex -3.14016e-16 1.07896e-05 1.4142
    endloop
  endfacet
  facet normal -1 0 -2.22045e-16
    outer loop
      vertex -2.46519e-32 -1.41421 1.11022e-16
      vertex -3.76821e-16 -1.69705 1.69705
      vertex -3.14016e-16 1.07896e-05 1.4142
    endloop
  endfacet
  facet normal -1 0 -2.22045e-16
    outer loop
      vertex -2.46519e-32 -1.41421 1.11022e-16
      vertex 2.41935e-16 -2.13841 -1.08958
      vertex 2.11645e-16 -2.2026 -0.953163
    endloop
  endfacet
  facet normal -1 0 -2.22045e-16
    outer loop
      vertex -2.46519e-32 -1.41421 1.11022e-16
      vertex 2.71271e-16 -2.06576 -1.22169
      vertex 2.41935e-16 -2.13841 -1.08958
    endloop
  endfacet
  facet normal -1 0 -2.22045e-16
    outer loop
      vertex -2.46519e-32 -1.41421 1.11022e-16
      vertex 2.99538e-16 -1.98498 -1.349
      vertex 2.71271e-16 -2.06576 -1.22169
    endloop
  endfacet
  facet normal -1 0 -2.22045e-16
    outer loop
      vertex -2.46519e-32 -1.41421 1.11022e-16
      vertex 3.26623e-16 -1.89637 -1.47098
      vertex 2.99538e-16 -1.98498 -1.349
    endloop
  endfacet
  facet normal -1 0 -2.22045e-16
    outer loop
      vertex -2.46519e-32 -1.41421 1.11022e-16
      vertex 3.52418e-16 -1.80027 -1.58715
      vertex 3.26623e-16 -1.89637 -1.47098
    endloop
  endfacet
  facet normal -1 0 -2.22045e-16
    outer loop
      vertex -2.46519e-32 -1.41421 1.11022e-16
      vertex 3.76821e-16 -1.69705 -1.69705
      vertex 3.52418e-16 -1.80027 -1.58715
    endloop
  endfacet
  facet normal 1 0 -0
    outer loop
      vertex 32 -1.34901 -1.98497
      vertex 32 -1.07896e-05 -1.4142
      vertex 32 -1.47099 -1.89636
    endloop
  endfacet
  facet normal 1 -0 0
    outer loop
      vertex 32 -1.22171 -2.06575
      vertex 32 -1.08959 -2.1384
      vertex 32 -1.07896e-05 -1.4142
    endloop
  endfacet
  facet normal 1 -0 0
    outer loop
      vertex 32 -1.34901 -1.98497
      vertex 32 -1.22171 -2.06575
      vertex 32 -1.07896e-05 -1.4142
    endloop
  endfacet
  facet normal 1 0 0
    outer loop
      vertex 32 -1.07896e-05 -1.4142
      vertex 32 -0.953174 -2.20259
      vertex 32 -0.835125 -2.24932
    endloop
  endfacet
  facet normal 1 -0 0
    outer loop
      vertex 32 -1.08959 -2.1384
      vertex 32 -0.953174 -2.20259
      vertex 32 -1.07896e-05 -1.4142
    endloop
  endfacet
  facet normal 1 0 -0
    outer loop
      vertex 32 -1.47099 -1.89636
      vertex 32 -1.07896e-05 -1.4142
      vertex 32 -1.58716 -1.80025
    endloop
  endfacet
  facet normal 1 0 0
    outer loop
      vertex 32 -1.07896e-05 -1.4142
      vertex 32 -1.69705 -1.69705
      vertex 32 -1.58716 -1.80025
    endloop
  endfacet
  facet normal 1 0 -0
    outer loop
      vertex 32 2.2026 -0.953163
      vertex 32 2.24933 -0.835115
      vertex 32 1.41421 6.99441e-15
    endloop
  endfacet
  facet normal 1 0 0
    outer loop
      vertex 32 0.953163 -2.2026
      vertex 32 -1.07896e-05 -1.4142
      vertex 32 0.835115 -2.24933
    endloop
  endfacet
  facet normal 1 0 0
    outer loop
      vertex 32 1.08958 -2.13841
      vertex 32 -1.07896e-05 -1.4142
      vertex 32 0.953163 -2.2026
    endloop
  endfacet
  facet normal 1 0 0
    outer loop
      vertex 32 1.22169 -2.06576
      vertex 32 -1.07896e-05 -1.4142
      vertex 32 1.08958 -2.13841
    endloop
  endfacet
  facet normal 1 0 0
    outer loop
      vertex 32 1.349 -1.98498
      vertex 32 -1.07896e-05 -1.4142
      vertex 32 1.22169 -2.06576
    endloop
  endfacet
  facet normal 1 0 0
    outer loop
      vertex 32 1.47098 -1.89637
      vertex 32 -1.07896e-05 -1.4142
      vertex 32 1.349 -1.98498
    endloop
  endfacet
  facet normal 1 0 0
    outer loop
      vertex 32 1.58715 -1.80027
      vertex 32 -1.07896e-05 -1.4142
      vertex 32 1.47098 -1.89637
    endloop
  endfacet
  facet normal 1 0 0
    outer loop
      vertex 32 1.69705 -1.69705
      vertex 32 -1.07896e-05 -1.4142
      vertex 32 1.58715 -1.80027
    endloop
  endfacet
  facet normal 1 0 0
    outer loop
      vertex 32 1.80027 -1.58715
      vertex 32 1.41421 6.99441e-15
      vertex 32 1.69705 -1.69705
    endloop
  endfacet
  facet normal 1 0 0
    outer loop
      vertex 32 1.89637 -1.47098
      vertex 32 1.41421 6.99441e-15
      vertex 32 1.80027 -1.58715
    endloop
  endfacet
  facet normal 1 0 0
    outer loop
      vertex 32 1.98498 -1.349
      vertex 32 1.41421 6.99441e-15
      vertex 32 1.89637 -1.47098
    endloop
  endfacet
  facet normal 1 0 0
    outer loop
      vertex 32 2.06576 -1.22169
      vertex 32 1.41421 6.99441e-15
      vertex 32 1.98498 -1.349
    endloop
  endfacet
  facet normal 1 0 0
    outer loop
      vertex 32 2.13841 -1.08958
      vertex 32 1.41421 6.99441e-15
      vertex 32 2.06576 -1.22169
    endloop
  endfacet
  facet normal 1 0 0
    outer loop
      vertex 32 2.2026 -0.953163
      vertex 32 1.41421 6.99441e-15
      vertex 32 2.13841 -1.08958
    endloop
  endfacet
  facet normal 1 0 0
    outer loop
      vertex 32 1.69705 -1.69705
      vertex 32 1.41421 6.99441e-15
      vertex 32 -1.07896e-05 -1.4142
    endloop
  endfacet
  facet normal 1 0 0
    outer loop
      vertex 32 1.07896e-05 1.4142
      vertex 32 1.69705 1.69705
      vertex 32 1.58716 1.80025
    endloop
  endfacet
  facet normal 1 0 0
    outer loop
      vertex 32 2.24933 0.835115
      vertex 32 2.2026 0.953163
      vertex 32 1.41421 6.99441e-15
    endloop
  endfacet
  facet normal 1 0 0
    outer loop
      vertex 32 2.2026 0.953163
      vertex 32 2.13841 1.08958
      vertex 32 1.41421 6.99441e-15
    endloop
  endfacet
  facet normal 1 0 0
    outer loop
      vertex 32 2.13841 1.08958
      vertex 32 2.06576 1.22169
      vertex 32 1.41421 6.99441e-15
    endloop
  endfacet
  facet normal 1 0 0
    outer loop
      vertex 32 2.06576 1.22169
      vertex 32 1.98498 1.349
      vertex 32 1.41421 6.99441e-15
    endloop
  endfacet
  facet normal 1 0 0
    outer loop
      vertex 32 1.98498 1.349
      vertex 32 1.89637 1.47098
      vertex 32 1.41421 6.99441e-15
    endloop
  endfacet
  facet normal 1 0 0
    outer loop
      vertex 32 1.89637 1.47098
      vertex 32 1.80027 1.58715
      vertex 32 1.41421 6.99441e-15
    endloop
  endfacet
  facet normal 1 0 0
    outer loop
      vertex 32 1.80027 1.58715
      vertex 32 1.69705 1.69705
      vertex 32 1.41421 6.99441e-15
    endloop
  endfacet
  facet normal 1 0 0
    outer loop
      vertex 32 1.07896e-05 1.4142
      vertex 32 1.58716 1.80025
      vertex 32 1.47099 1.89636
    endloop
  endfacet
  facet normal 1 0 0
    outer loop
      vertex 32 1.07896e-05 1.4142
      vertex 32 1.47099 1.89636
      vertex 32 1.34901 1.98497
    endloop
  endfacet
  facet normal 1 0 0
    outer loop
      vertex 32 1.07896e-05 1.4142
      vertex 32 1.34901 1.98497
      vertex 32 1.22171 2.06575
    endloop
  endfacet
  facet normal 1 0 0
    outer loop
      vertex 32 1.07896e-05 1.4142
      vertex 32 1.22171 2.06575
      vertex 32 1.08959 2.1384
    endloop
  endfacet
  facet normal 1 0 0
    outer loop
      vertex 32 1.07896e-05 1.4142
      vertex 32 1.08959 2.1384
      vertex 32 0.953174 2.20259
    endloop
  endfacet
  facet normal 1 0 0
    outer loop
      vertex 32 1.07896e-05 1.4142
      vertex 32 0.953174 2.20259
      vertex 32 0.835125 2.24932
    endloop
  endfacet
  facet normal 1 0 -0
    outer loop
      vertex 32 1.41421 6.99441e-15
      vertex 32 1.69705 1.69705
      vertex 32 1.07896e-05 1.4142
    endloop
  endfacet
  facet normal 1 0 0
    outer loop
      vertex 32 1.41421 6.99441e-15
      vertex 32 1.07896e-05 1.4142
      vertex 32 -1.07896e-05 -1.4142
    endloop
  endfacet
  facet normal 1 0 0
    outer loop
      vertex 32 -1.41421 7.21645e-15
      vertex 32 -1.69705 1.69705
      vertex 32 -1.80027 1.58715
    endloop
  endfacet
  facet normal 1 0 0
    outer loop
      vertex 32 -0.835115 2.24933
      vertex 32 -0.953163 2.2026
      vertex 32 1.07896e-05 1.4142
    endloop
  endfacet
  facet normal 1 0 0
    outer loop
      vertex 32 -0.953163 2.2026
      vertex 32 -1.08958 2.13841
      vertex 32 1.07896e-05 1.4142
    endloop
  endfacet
  facet normal 1 0 0
    outer loop
      vertex 32 -1.08958 2.13841
      vertex 32 -1.22169 2.06576
      vertex 32 1.07896e-05 1.4142
    endloop
  endfacet
  facet normal 1 0 0
    outer loop
      vertex 32 -1.22169 2.06576
      vertex 32 -1.349 1.98498
      vertex 32 1.07896e-05 1.4142
    endloop
  endfacet
  facet normal 1 0 0
    outer loop
      vertex 32 -1.349 1.98498
      vertex 32 -1.47098 1.89637
      vertex 32 1.07896e-05 1.4142
    endloop
  endfacet
  facet normal 1 0 0
    outer loop
      vertex 32 -1.47098 1.89637
      vertex 32 -1.58715 1.80027
      vertex 32 1.07896e-05 1.4142
    endloop
  endfacet
  facet normal 1 0 0
    outer loop
      vertex 32 -1.58715 1.80027
      vertex 32 -1.69705 1.69705
      vertex 32 1.07896e-05 1.4142
    endloop
  endfacet
  facet normal 1 0 0
    outer loop
      vertex 32 -1.41421 7.21645e-15
      vertex 32 -1.80027 1.58715
      vertex 32 -1.89637 1.47098
    endloop
  endfacet
  facet normal 1 0 0
    outer loop
      vertex 32 -1.41421 7.21645e-15
      vertex 32 -1.89637 1.47098
      vertex 32 -1.98498 1.349
    endloop
  endfacet
  facet normal 1 0 0
    outer loop
      vertex 32 -1.41421 7.21645e-15
      vertex 32 -1.98498 1.349
      vertex 32 -2.06576 1.22169
    endloop
  endfacet
  facet normal 1 0 0
    outer loop
      vertex 32 -1.41421 7.21645e-15
      vertex 32 -2.06576 1.22169
      vertex 32 -2.13841 1.08958
    endloop
  endfacet
  facet normal 1 0 0
    outer loop
      vertex 32 -1.41421 7.21645e-15
      vertex 32 -2.13841 1.08958
      vertex 32 -2.2026 0.953163
    endloop
  endfacet
  facet normal 1 0 0
    outer loop
      vertex 32 -1.41421 7.21645e-15
      vertex 32 -2.2026 0.953163
      vertex 32 -2.24933 0.835115
    endloop
  endfacet
  facet normal 1 0 0
    outer loop
      vertex 32 -1.41421 7.21645e-15
      vertex 32 -1.69705 -1.69705
      vertex 32 -1.07896e-05 -1.4142
    endloop
  endfacet
  facet normal 1 -0 0
    outer loop
      vertex 32 -2.24933 -0.835115
      vertex 32 -2.2026 -0.953163
      vertex 32 -1.41421 7.21645e-15
    endloop
  endfacet
  facet normal 1 0 0
    outer loop
      vertex 32 1.07896e-05 1.4142
      vertex 32 -1.41421 7.21645e-15
      vertex 32 -1.07896e-05 -1.4142
    endloop
  endfacet
  facet normal 1 0 0
    outer loop
      vertex 32 1.07896e-05 1.4142
      vertex 32 -1.69705 1.69705
      vertex 32 -1.41421 7.21645e-15
    endloop
  endfacet
  facet normal 1 -0 0
    outer loop
      vertex 32 -2.2026 -0.953163
      vertex 32 -2.13841 -1.08958
      vertex 32 -1.41421 7.21645e-15
    endloop
  endfacet
  facet normal 1 -0 0
    outer loop
      vertex 32 -2.13841 -1.08958
      vertex 32 -2.06576 -1.22169
      vertex 32 -1.41421 7.21645e-15
    endloop
  endfacet
  facet normal 1 -0 0
    outer loop
      vertex 32 -2.06576 -1.22169
      vertex 32 -1.98498 -1.349
      vertex 32 -1.41421 7.21645e-15
    endloop
  endfacet
  facet normal 1 -0 0
    outer loop
      vertex 32 -1.98498 -1.349
      vertex 32 -1.89637 -1.47098
      vertex 32 -1.41421 7.21645e-15
    endloop
  endfacet
  facet normal 1 -0 0
    outer loop
      vertex 32 -1.89637 -1.47098
      vertex 32 -1.80027 -1.58715
      vertex 32 -1.41421 7.21645e-15
    endloop
  endfacet
  facet normal 1 -0 0
    outer loop
      vertex 32 -1.80027 -1.58715
      vertex 32 -1.69705 -1.69705
      vertex 32 -1.41421 7.21645e-15
    endloop
  endfacet
  facet normal 1.71148e-16 -0.637414 -0.770522
    outer loop
      vertex 4.21076e-16 -1.47099 -1.89636
      vertex 32 -1.58716 -1.80025
      vertex 3.99737e-16 -1.58716 -1.80025
    endloop
  endfacet
  facet normal 1.7109e-16 -0.637414 -0.770522
    outer loop
      vertex 4.21076e-16 -1.47099 -1.89636
      vertex 32 -1.47099 -1.89636
      vertex 32 -1.58716 -1.80025
    endloop
  endfacet
  facet normal 1.7978e-16 -0.587759 -0.809036
    outer loop
      vertex 4.40752e-16 -1.34901 -1.98497
      vertex 32 -1.47099 -1.89636
      vertex 4.21076e-16 -1.47099 -1.89636
    endloop
  endfacet
  facet normal 1.79642e-16 -0.587759 -0.809036
    outer loop
      vertex 4.40752e-16 -1.34901 -1.98497
      vertex 32 -1.34901 -1.98497
      vertex 32 -1.47099 -1.89636
    endloop
  endfacet
  facet normal 1.87324e-16 -0.535782 -0.844356
    outer loop
      vertex 4.5869e-16 -1.22171 -2.06575
      vertex 32 -1.34901 -1.98497
      vertex 4.40752e-16 -1.34901 -1.98497
    endloop
  endfacet
  facet normal 1.87485e-16 -0.535782 -0.844356
    outer loop
      vertex 4.5869e-16 -1.22171 -2.06575
      vertex 32 -1.22171 -2.06575
      vertex 32 -1.34901 -1.98497
    endloop
  endfacet
  facet normal 1.94514e-16 -0.481823 -0.876269
    outer loop
      vertex 4.7482e-16 -1.08959 -2.1384
      vertex 32 -1.22171 -2.06575
      vertex 4.5869e-16 -1.22171 -2.06575
    endloop
  endfacet
  facet normal 1.94571e-16 -0.481823 -0.876269
    outer loop
      vertex 4.7482e-16 -1.08959 -2.1384
      vertex 32 -1.08959 -2.1384
      vertex 32 -1.22171 -2.06575
    endloop
  endfacet
  facet normal 2.01005e-16 -0.425759 -0.904837
    outer loop
      vertex 4.89073e-16 -0.953174 -2.20259
      vertex 32 -1.08959 -2.1384
      vertex 4.7482e-16 -1.08959 -2.1384
    endloop
  endfacet
  facet normal 2.00914e-16 -0.425759 -0.904837
    outer loop
      vertex 4.89073e-16 -0.953174 -2.20259
      vertex 32 -0.953174 -2.20259
      vertex 32 -1.08959 -2.1384
    endloop
  endfacet
  facet normal 2.06659e-16 -0.368062 -0.929801
    outer loop
      vertex 4.99449e-16 -0.835125 -2.24932
      vertex 32 -0.953174 -2.20259
      vertex 4.89073e-16 -0.953174 -2.20259
    endloop
  endfacet
  facet normal 2.06457e-16 -0.368062 -0.929801
    outer loop
      vertex 4.99449e-16 -0.835125 -2.24932
      vertex 32 -0.835125 -2.24932
      vertex 32 -0.953174 -2.20259
    endloop
  endfacet
  facet normal 1.55695e-16 0.707107 -0.707107
    outer loop
      vertex 3.14016e-16 -1.07896e-05 -1.4142
      vertex 32 -0.835125 -2.24932
      vertex 4.99449e-16 -0.835125 -2.24932
    endloop
  endfacet
  facet normal 1.57009e-16 0.707107 -0.707107
    outer loop
      vertex 3.14016e-16 -1.07896e-05 -1.4142
      vertex 32 -1.07896e-05 -1.4142
      vertex 32 -0.835125 -2.24932
    endloop
  endfacet
  facet normal 1.55693e-16 -0.707107 -0.707107
    outer loop
      vertex 4.99451e-16 0.835115 -2.24933
      vertex 32 -1.07896e-05 -1.4142
      vertex 3.14016e-16 -1.07896e-05 -1.4142
    endloop
  endfacet
  facet normal 1.57009e-16 -0.707107 -0.707107
    outer loop
      vertex 4.99451e-16 0.835115 -2.24933
      vertex 32 0.835115 -2.24933
      vertex 32 -1.07896e-05 -1.4142
    endloop
  endfacet
  facet normal 2.06445e-16 0.368062 -0.929801
    outer loop
      vertex 4.89075e-16 0.953163 -2.2026
      vertex 32 0.835115 -2.24933
      vertex 4.99451e-16 0.835115 -2.24933
    endloop
  endfacet
  facet normal 2.06457e-16 0.368062 -0.929801
    outer loop
      vertex 4.89075e-16 0.953163 -2.2026
      vertex 32 0.953163 -2.2026
      vertex 32 0.835115 -2.24933
    endloop
  endfacet
  facet normal 2.00645e-16 0.425759 -0.904837
    outer loop
      vertex 4.74823e-16 1.08958 -2.13841
      vertex 32 0.953163 -2.2026
      vertex 4.89075e-16 0.953163 -2.2026
    endloop
  endfacet
  facet normal 2.00914e-16 0.425759 -0.904837
    outer loop
      vertex 4.74823e-16 1.08958 -2.13841
      vertex 32 1.08958 -2.13841
      vertex 32 0.953163 -2.2026
    endloop
  endfacet
  facet normal 1.94514e-16 0.481823 -0.876269
    outer loop
      vertex 4.58692e-16 1.22169 -2.06576
      vertex 32 1.08958 -2.13841
      vertex 4.74823e-16 1.08958 -2.13841
    endloop
  endfacet
  facet normal 1.94571e-16 0.481823 -0.876269
    outer loop
      vertex 4.58692e-16 1.22169 -2.06576
      vertex 32 1.22169 -2.06576
      vertex 32 1.08958 -2.13841
    endloop
  endfacet
  facet normal 1.87324e-16 0.535782 -0.844356
    outer loop
      vertex 4.40755e-16 1.349 -1.98498
      vertex 32 1.22169 -2.06576
      vertex 4.58692e-16 1.22169 -2.06576
    endloop
  endfacet
  facet normal 1.87485e-16 0.535782 -0.844356
    outer loop
      vertex 4.40755e-16 1.349 -1.98498
      vertex 32 1.349 -1.98498
      vertex 32 1.22169 -2.06576
    endloop
  endfacet
  facet normal 1.7978e-16 0.587759 -0.809036
    outer loop
      vertex 4.21078e-16 1.47098 -1.89637
      vertex 32 1.349 -1.98498
      vertex 4.40755e-16 1.349 -1.98498
    endloop
  endfacet
  facet normal 1.79642e-16 0.587759 -0.809036
    outer loop
      vertex 4.21078e-16 1.47098 -1.89637
      vertex 32 1.47098 -1.89637
      vertex 32 1.349 -1.98498
    endloop
  endfacet
  facet normal 1.71148e-16 0.637414 -0.770522
    outer loop
      vertex 3.99739e-16 1.58715 -1.80027
      vertex 32 1.47098 -1.89637
      vertex 4.21078e-16 1.47098 -1.89637
    endloop
  endfacet
  facet normal 1.7109e-16 0.637414 -0.770522
    outer loop
      vertex 3.99739e-16 1.58715 -1.80027
      vertex 32 1.58715 -1.80027
      vertex 32 1.47098 -1.89637
    endloop
  endfacet
  facet normal 1.62159e-16 0.684574 -0.728943
    outer loop
      vertex 3.76821e-16 1.69705 -1.69705
      vertex 32 1.58715 -1.80027
      vertex 3.99739e-16 1.58715 -1.80027
    endloop
  endfacet
  facet normal 1.61858e-16 0.684574 -0.728943
    outer loop
      vertex 3.76821e-16 1.69705 -1.69705
      vertex 32 1.69705 -1.69705
      vertex 32 1.58715 -1.80027
    endloop
  endfacet
  facet normal 1.51732e-16 0.728943 -0.684574
    outer loop
      vertex 3.52418e-16 1.80027 -1.58715
      vertex 32 1.69705 -1.69705
      vertex 3.76821e-16 1.69705 -1.69705
    endloop
  endfacet
  facet normal 1.52006e-16 0.728943 -0.684574
    outer loop
      vertex 3.52418e-16 1.80027 -1.58715
      vertex 32 1.80027 -1.58715
      vertex 32 1.69705 -1.69705
    endloop
  endfacet
  facet normal 1.41665e-16 0.770522 -0.637414
    outer loop
      vertex 3.26623e-16 1.89637 -1.47098
      vertex 32 1.80027 -1.58715
      vertex 3.52418e-16 1.80027 -1.58715
    endloop
  endfacet
  facet normal 1.41534e-16 0.770522 -0.637414
    outer loop
      vertex 3.26623e-16 1.89637 -1.47098
      vertex 32 1.89637 -1.47098
      vertex 32 1.80027 -1.58715
    endloop
  endfacet
  facet normal 1.30521e-16 0.809036 -0.587759
    outer loop
      vertex 2.99538e-16 1.98498 -1.349
      vertex 32 1.89637 -1.47098
      vertex 3.26623e-16 1.89637 -1.47098
    endloop
  endfacet
  facet normal 1.30509e-16 0.809036 -0.587759
    outer loop
      vertex 2.99538e-16 1.98498 -1.349
      vertex 32 1.98498 -1.349
      vertex 32 1.89637 -1.47098
    endloop
  endfacet
  facet normal 1.1901e-16 0.844356 -0.535782
    outer loop
      vertex 2.71271e-16 2.06576 -1.22169
      vertex 32 1.98498 -1.349
      vertex 2.99538e-16 1.98498 -1.349
    endloop
  endfacet
  facet normal 1.18968e-16 0.844356 -0.535782
    outer loop
      vertex 2.71271e-16 2.06576 -1.22169
      vertex 32 2.06576 -1.22169
      vertex 32 1.98498 -1.349
    endloop
  endfacet
  facet normal 1.07145e-16 0.876269 -0.481823
    outer loop
      vertex 2.41935e-16 2.13841 -1.08958
      vertex 32 2.06576 -1.22169
      vertex 2.71271e-16 2.06576 -1.22169
    endloop
  endfacet
  facet normal 1.06986e-16 0.876269 -0.481823
    outer loop
      vertex 2.41935e-16 2.13841 -1.08958
      vertex 32 2.13841 -1.08958
      vertex 32 2.06576 -1.22169
    endloop
  endfacet
  facet normal 9.45695e-17 0.904837 -0.425759
    outer loop
      vertex 2.11645e-16 2.2026 -0.953163
      vertex 32 2.13841 -1.08958
      vertex 2.41935e-16 2.13841 -1.08958
    endloop
  endfacet
  facet normal 9.45375e-17 0.904837 -0.425759
    outer loop
      vertex 2.11645e-16 2.2026 -0.953163
      vertex 32 2.2026 -0.953163
      vertex 32 2.13841 -1.08958
    endloop
  endfacet
  facet normal 8.15533e-17 0.929801 -0.368062
    outer loop
      vertex 1.85433e-16 2.24933 -0.835115
      vertex 32 2.2026 -0.953163
      vertex 2.11645e-16 2.2026 -0.953163
    endloop
  endfacet
  facet normal 8.17262e-17 0.929801 -0.368062
    outer loop
      vertex 1.85433e-16 2.24933 -0.835115
      vertex 32 2.24933 -0.835115
      vertex 32 2.2026 -0.953163
    endloop
  endfacet
  facet normal -1.55695e-16 0.707107 0.707107
    outer loop
      vertex 2.46519e-32 1.41421 -1.11022e-16
      vertex 32 2.24933 -0.835115
      vertex 1.85433e-16 2.24933 -0.835115
    endloop
  endfacet
  facet normal -1.57009e-16 0.707107 0.707107
    outer loop
      vertex 2.46519e-32 1.41421 -1.11022e-16
      vertex 32 1.41421 6.99441e-15
      vertex 32 2.24933 -0.835115
    endloop
  endfacet
  facet normal 1.55695e-16 0.707107 -0.707107
    outer loop
      vertex -1.85433e-16 2.24933 0.835115
      vertex 32 1.41421 6.99441e-15
      vertex 2.46519e-32 1.41421 -1.11022e-16
    endloop
  endfacet
  facet normal 1.57009e-16 0.707107 -0.707107
    outer loop
      vertex -1.85433e-16 2.24933 0.835115
      vertex 32 2.24933 0.835115
      vertex 32 1.41421 6.99441e-15
    endloop
  endfacet
  facet normal -8.15533e-17 0.929801 0.368062
    outer loop
      vertex -2.11645e-16 2.2026 0.953163
      vertex 32 2.24933 0.835115
      vertex -1.85433e-16 2.24933 0.835115
    endloop
  endfacet
  facet normal -8.17262e-17 0.929801 0.368062
    outer loop
      vertex -2.11645e-16 2.2026 0.953163
      vertex 32 2.2026 0.953163
      vertex 32 2.24933 0.835115
    endloop
  endfacet
  facet normal -9.45695e-17 0.904837 0.425759
    outer loop
      vertex -2.41935e-16 2.13841 1.08958
      vertex 32 2.2026 0.953163
      vertex -2.11645e-16 2.2026 0.953163
    endloop
  endfacet
  facet normal -9.45375e-17 0.904837 0.425759
    outer loop
      vertex -2.41935e-16 2.13841 1.08958
      vertex 32 2.13841 1.08958
      vertex 32 2.2026 0.953163
    endloop
  endfacet
  facet normal -1.06785e-16 0.876269 0.481823
    outer loop
      vertex -2.71271e-16 2.06576 1.22169
      vertex 32 2.13841 1.08958
      vertex -2.41935e-16 2.13841 1.08958
    endloop
  endfacet
  facet normal -1.06986e-16 0.876269 0.481823
    outer loop
      vertex -2.71271e-16 2.06576 1.22169
      vertex 32 2.06576 1.22169
      vertex 32 2.13841 1.08958
    endloop
  endfacet
  facet normal -1.18651e-16 0.844356 0.535782
    outer loop
      vertex -2.99538e-16 1.98498 1.349
      vertex 32 2.06576 1.22169
      vertex -2.71271e-16 2.06576 1.22169
    endloop
  endfacet
  facet normal -1.18968e-16 0.844356 0.535782
    outer loop
      vertex -2.99538e-16 1.98498 1.349
      vertex 32 1.98498 1.349
      vertex 32 2.06576 1.22169
    endloop
  endfacet
  facet normal -1.30521e-16 0.809036 0.587759
    outer loop
      vertex -3.26623e-16 1.89637 1.47098
      vertex 32 1.98498 1.349
      vertex -2.99538e-16 1.98498 1.349
    endloop
  endfacet
  facet normal -1.30509e-16 0.809036 0.587759
    outer loop
      vertex -3.26623e-16 1.89637 1.47098
      vertex 32 1.89637 1.47098
      vertex 32 1.98498 1.349
    endloop
  endfacet
  facet normal -1.41665e-16 0.770522 0.637414
    outer loop
      vertex -3.52418e-16 1.80027 1.58715
      vertex 32 1.89637 1.47098
      vertex -3.26623e-16 1.89637 1.47098
    endloop
  endfacet
  facet normal -1.41534e-16 0.770522 0.637414
    outer loop
      vertex -3.52418e-16 1.80027 1.58715
      vertex 32 1.80027 1.58715
      vertex 32 1.89637 1.47098
    endloop
  endfacet
  facet normal -1.52092e-16 0.728943 0.684574
    outer loop
      vertex -3.76821e-16 1.69705 1.69705
      vertex 32 1.80027 1.58715
      vertex -3.52418e-16 1.80027 1.58715
    endloop
  endfacet
  facet normal -1.52006e-16 0.728943 0.684574
    outer loop
      vertex -3.76821e-16 1.69705 1.69705
      vertex 32 1.69705 1.69705
      vertex 32 1.80027 1.58715
    endloop
  endfacet
  facet normal -1.61816e-16 0.684572 0.728945
    outer loop
      vertex -3.99737e-16 1.58716 1.80025
      vertex 32 1.69705 1.69705
      vertex -3.76821e-16 1.69705 1.69705
    endloop
  endfacet
  facet normal -1.61858e-16 0.684572 0.728945
    outer loop
      vertex -3.99737e-16 1.58716 1.80025
      vertex 32 1.58716 1.80025
      vertex 32 1.69705 1.69705
    endloop
  endfacet
  facet normal -1.71148e-16 0.637414 0.770522
    outer loop
      vertex -4.21076e-16 1.47099 1.89636
      vertex 32 1.58716 1.80025
      vertex -3.99737e-16 1.58716 1.80025
    endloop
  endfacet
  facet normal -1.7109e-16 0.637414 0.770522
    outer loop
      vertex -4.21076e-16 1.47099 1.89636
      vertex 32 1.47099 1.89636
      vertex 32 1.58716 1.80025
    endloop
  endfacet
  facet normal -1.7978e-16 0.587759 0.809036
    outer loop
      vertex -4.40752e-16 1.34901 1.98497
      vertex 32 1.47099 1.89636
      vertex -4.21076e-16 1.47099 1.89636
    endloop
  endfacet
  facet normal -1.79642e-16 0.587759 0.809036
    outer loop
      vertex -4.40752e-16 1.34901 1.98497
      vertex 32 1.34901 1.98497
      vertex 32 1.47099 1.89636
    endloop
  endfacet
  facet normal -1.87684e-16 0.535782 0.844356
    outer loop
      vertex -4.5869e-16 1.22171 2.06575
      vertex 32 1.34901 1.98497
      vertex -4.40752e-16 1.34901 1.98497
    endloop
  endfacet
  facet normal -1.87485e-16 0.535782 0.844356
    outer loop
      vertex -4.5869e-16 1.22171 2.06575
      vertex 32 1.22171 2.06575
      vertex 32 1.34901 1.98497
    endloop
  endfacet
  facet normal -1.94514e-16 0.481823 0.876269
    outer loop
      vertex -4.7482e-16 1.08959 2.1384
      vertex 32 1.22171 2.06575
      vertex -4.5869e-16 1.22171 2.06575
    endloop
  endfacet
  facet normal -1.94571e-16 0.481823 0.876269
    outer loop
      vertex -4.7482e-16 1.08959 2.1384
      vertex 32 1.08959 2.1384
      vertex 32 1.22171 2.06575
    endloop
  endfacet
  facet normal -2.00645e-16 0.425759 0.904837
    outer loop
      vertex -4.89073e-16 0.953174 2.20259
      vertex 32 1.08959 2.1384
      vertex -4.7482e-16 1.08959 2.1384
    endloop
  endfacet
  facet normal -2.00914e-16 0.425759 0.904837
    outer loop
      vertex -4.89073e-16 0.953174 2.20259
      vertex 32 0.953174 2.20259
      vertex 32 1.08959 2.1384
    endloop
  endfacet
  facet normal -2.06445e-16 0.368062 0.929801
    outer loop
      vertex -4.99449e-16 0.835125 2.24932
      vertex 32 0.953174 2.20259
      vertex -4.89073e-16 0.953174 2.20259
    endloop
  endfacet
  facet normal -2.06457e-16 0.368062 0.929801
    outer loop
      vertex -4.99449e-16 0.835125 2.24932
      vertex 32 0.835125 2.24932
      vertex 32 0.953174 2.20259
    endloop
  endfacet
  facet normal -1.58633e-16 -0.707107 0.707107
    outer loop
      vertex -3.14016e-16 1.07896e-05 1.4142
      vertex 32 0.835125 2.24932
      vertex -4.99449e-16 0.835125 2.24932
    endloop
  endfacet
  facet normal -1.57009e-16 -0.707107 0.707107
    outer loop
      vertex -3.14016e-16 1.07896e-05 1.4142
      vertex 32 1.07896e-05 1.4142
      vertex 32 0.835125 2.24932
    endloop
  endfacet
  facet normal -1.55693e-16 0.707107 0.707107
    outer loop
      vertex -4.99451e-16 -0.835115 2.24933
      vertex 32 1.07896e-05 1.4142
      vertex -3.14016e-16 1.07896e-05 1.4142
    endloop
  endfacet
  facet normal -1.57009e-16 0.707107 0.707107
    outer loop
      vertex -4.99451e-16 -0.835115 2.24933
      vertex 32 -0.835115 2.24933
      vertex 32 1.07896e-05 1.4142
    endloop
  endfacet
  facet normal -2.06659e-16 -0.368062 0.929801
    outer loop
      vertex -4.89075e-16 -0.953163 2.2026
      vertex 32 -0.835115 2.24933
      vertex -4.99451e-16 -0.835115 2.24933
    endloop
  endfacet
  facet normal -2.06457e-16 -0.368062 0.929801
    outer loop
      vertex -4.89075e-16 -0.953163 2.2026
      vertex 32 -0.953163 2.2026
      vertex 32 -0.835115 2.24933
    endloop
  endfacet
  facet normal -2.01005e-16 -0.425759 0.904837
    outer loop
      vertex -4.74823e-16 -1.08958 2.13841
      vertex 32 -0.953163 2.2026
      vertex -4.89075e-16 -0.953163 2.2026
    endloop
  endfacet
  facet normal -2.00914e-16 -0.425759 0.904837
    outer loop
      vertex -4.74823e-16 -1.08958 2.13841
      vertex 32 -1.08958 2.13841
      vertex 32 -0.953163 2.2026
    endloop
  endfacet
  facet normal -1.94514e-16 -0.481823 0.876269
    outer loop
      vertex -4.58692e-16 -1.22169 2.06576
      vertex 32 -1.08958 2.13841
      vertex -4.74823e-16 -1.08958 2.13841
    endloop
  endfacet
  facet normal -1.94571e-16 -0.481823 0.876269
    outer loop
      vertex -4.58692e-16 -1.22169 2.06576
      vertex 32 -1.22169 2.06576
      vertex 32 -1.08958 2.13841
    endloop
  endfacet
  facet normal -1.87684e-16 -0.535782 0.844356
    outer loop
      vertex -4.40755e-16 -1.349 1.98498
      vertex 32 -1.22169 2.06576
      vertex -4.58692e-16 -1.22169 2.06576
    endloop
  endfacet
  facet normal -1.87485e-16 -0.535782 0.844356
    outer loop
      vertex -4.40755e-16 -1.349 1.98498
      vertex 32 -1.349 1.98498
      vertex 32 -1.22169 2.06576
    endloop
  endfacet
  facet normal -1.7978e-16 -0.587759 0.809036
    outer loop
      vertex -4.21078e-16 -1.47098 1.89637
      vertex 32 -1.349 1.98498
      vertex -4.40755e-16 -1.349 1.98498
    endloop
  endfacet
  facet normal -1.79642e-16 -0.587759 0.809036
    outer loop
      vertex -4.21078e-16 -1.47098 1.89637
      vertex 32 -1.47098 1.89637
      vertex 32 -1.349 1.98498
    endloop
  endfacet
  facet normal -1.71148e-16 -0.637414 0.770522
    outer loop
      vertex -3.99739e-16 -1.58715 1.80027
      vertex 32 -1.47098 1.89637
      vertex -4.21078e-16 -1.47098 1.89637
    endloop
  endfacet
  facet normal -1.7109e-16 -0.637414 0.770522
    outer loop
      vertex -3.99739e-16 -1.58715 1.80027
      vertex 32 -1.58715 1.80027
      vertex 32 -1.47098 1.89637
    endloop
  endfacet
  facet normal -1.618e-16 -0.684574 0.728943
    outer loop
      vertex -3.76821e-16 -1.69705 1.69705
      vertex 32 -1.58715 1.80027
      vertex -3.99739e-16 -1.58715 1.80027
    endloop
  endfacet
  facet normal -1.61858e-16 -0.684574 0.728943
    outer loop
      vertex -3.76821e-16 -1.69705 1.69705
      vertex 32 -1.69705 1.69705
      vertex 32 -1.58715 1.80027
    endloop
  endfacet
  facet normal -1.52092e-16 -0.728943 0.684574
    outer loop
      vertex -3.52418e-16 -1.80027 1.58715
      vertex 32 -1.69705 1.69705
      vertex -3.76821e-16 -1.69705 1.69705
    endloop
  endfacet
  facet normal -1.52006e-16 -0.728943 0.684574
    outer loop
      vertex -3.52418e-16 -1.80027 1.58715
      vertex 32 -1.80027 1.58715
      vertex 32 -1.69705 1.69705
    endloop
  endfacet
  facet normal -1.41305e-16 -0.770522 0.637414
    outer loop
      vertex -3.26623e-16 -1.89637 1.47098
      vertex 32 -1.80027 1.58715
      vertex -3.52418e-16 -1.80027 1.58715
    endloop
  endfacet
  facet normal -1.41534e-16 -0.770522 0.637414
    outer loop
      vertex -3.26623e-16 -1.89637 1.47098
      vertex 32 -1.89637 1.47098
      vertex 32 -1.80027 1.58715
    endloop
  endfacet
  facet normal -1.30521e-16 -0.809036 0.587759
    outer loop
      vertex -2.99538e-16 -1.98498 1.349
      vertex 32 -1.89637 1.47098
      vertex -3.26623e-16 -1.89637 1.47098
    endloop
  endfacet
  facet normal -1.30509e-16 -0.809036 0.587759
    outer loop
      vertex -2.99538e-16 -1.98498 1.349
      vertex 32 -1.98498 1.349
      vertex 32 -1.89637 1.47098
    endloop
  endfacet
  facet normal -1.1901e-16 -0.844356 0.535782
    outer loop
      vertex -2.71271e-16 -2.06576 1.22169
      vertex 32 -1.98498 1.349
      vertex -2.99538e-16 -1.98498 1.349
    endloop
  endfacet
  facet normal -1.18968e-16 -0.844356 0.535782
    outer loop
      vertex -2.71271e-16 -2.06576 1.22169
      vertex 32 -2.06576 1.22169
      vertex 32 -1.98498 1.349
    endloop
  endfacet
  facet normal -1.06785e-16 -0.876269 0.481823
    outer loop
      vertex -2.41935e-16 -2.13841 1.08958
      vertex 32 -2.06576 1.22169
      vertex -2.71271e-16 -2.06576 1.22169
    endloop
  endfacet
  facet normal -1.06986e-16 -0.876269 0.481823
    outer loop
      vertex -2.41935e-16 -2.13841 1.08958
      vertex 32 -2.13841 1.08958
      vertex 32 -2.06576 1.22169
    endloop
  endfacet
  facet normal -9.42099e-17 -0.904837 0.425759
    outer loop
      vertex -2.11645e-16 -2.2026 0.953163
      vertex 32 -2.13841 1.08958
      vertex -2.41935e-16 -2.13841 1.08958
    endloop
  endfacet
  facet normal -9.45375e-17 -0.904837 0.425759
    outer loop
      vertex -2.11645e-16 -2.2026 0.953163
      vertex 32 -2.2026 0.953163
      vertex 32 -2.13841 1.08958
    endloop
  endfacet
  facet normal -8.17668e-17 -0.929801 0.368062
    outer loop
      vertex -1.85433e-16 -2.24933 0.835115
      vertex 32 -2.2026 0.953163
      vertex -2.11645e-16 -2.2026 0.953163
    endloop
  endfacet
  facet normal -8.17262e-17 -0.929801 0.368062
    outer loop
      vertex -1.85433e-16 -2.24933 0.835115
      vertex 32 -2.24933 0.835115
      vertex 32 -2.2026 0.953163
    endloop
  endfacet
  facet normal 1.55695e-16 -0.707107 -0.707107
    outer loop
      vertex -2.46519e-32 -1.41421 1.11022e-16
      vertex 32 -2.24933 0.835115
      vertex -1.85433e-16 -2.24933 0.835115
    endloop
  endfacet
  facet normal 1.57009e-16 -0.707107 -0.707107
    outer loop
      vertex -2.46519e-32 -1.41421 1.11022e-16
      vertex 32 -1.41421 7.21645e-15
      vertex 32 -2.24933 0.835115
    endloop
  endfacet
  facet normal -1.58633e-16 -0.707107 0.707107
    outer loop
      vertex 1.85433e-16 -2.24933 -0.835115
      vertex 32 -1.41421 7.21645e-15
      vertex -2.46519e-32 -1.41421 1.11022e-16
    endloop
  endfacet
  facet normal -1.57009e-16 -0.707107 0.707107
    outer loop
      vertex 1.85433e-16 -2.24933 -0.835115
      vertex 32 -2.24933 -0.835115
      vertex 32 -1.41421 7.21645e-15
    endloop
  endfacet
  facet normal 8.17668e-17 -0.929801 -0.368062
    outer loop
      vertex 2.11645e-16 -2.2026 -0.953163
      vertex 32 -2.24933 -0.835115
      vertex 1.85433e-16 -2.24933 -0.835115
    endloop
  endfacet
  facet normal 8.17262e-17 -0.929801 -0.368062
    outer loop
      vertex 2.11645e-16 -2.2026 -0.953163
      vertex 32 -2.2026 -0.953163
      vertex 32 -2.24933 -0.835115
    endloop
  endfacet
  facet normal 9.45695e-17 -0.904837 -0.425759
    outer loop
      vertex 2.41935e-16 -2.13841 -1.08958
      vertex 32 -2.2026 -0.953163
      vertex 2.11645e-16 -2.2026 -0.953163
    endloop
  endfacet
  facet normal 9.45375e-17 -0.904837 -0.425759
    outer loop
      vertex 2.41935e-16 -2.13841 -1.08958
      vertex 32 -2.13841 -1.08958
      vertex 32 -2.2026 -0.953163
    endloop
  endfacet
  facet normal 1.07145e-16 -0.876269 -0.481823
    outer loop
      vertex 2.71271e-16 -2.06576 -1.22169
      vertex 32 -2.13841 -1.08958
      vertex 2.41935e-16 -2.13841 -1.08958
    endloop
  endfacet
  facet normal 1.06986e-16 -0.876269 -0.481823
    outer loop
      vertex 2.71271e-16 -2.06576 -1.22169
      vertex 32 -2.06576 -1.22169
      vertex 32 -2.13841 -1.08958
    endloop
  endfacet
  facet normal 1.1901e-16 -0.844356 -0.535782
    outer loop
      vertex 2.99538e-16 -1.98498 -1.349
      vertex 32 -2.06576 -1.22169
      vertex 2.71271e-16 -2.06576 -1.22169
    endloop
  endfacet
  facet normal 1.18968e-16 -0.844356 -0.535782
    outer loop
      vertex 2.99538e-16 -1.98498 -1.349
      vertex 32 -1.98498 -1.349
      vertex 32 -2.06576 -1.22169
    endloop
  endfacet
  facet normal 1.30521e-16 -0.809036 -0.587759
    outer loop
      vertex 3.26623e-16 -1.89637 -1.47098
      vertex 32 -1.98498 -1.349
      vertex 2.99538e-16 -1.98498 -1.349
    endloop
  endfacet
  facet normal 1.30509e-16 -0.809036 -0.587759
    outer loop
      vertex 3.26623e-16 -1.89637 -1.47098
      vertex 32 -1.89637 -1.47098
      vertex 32 -1.98498 -1.349
    endloop
  endfacet
  facet normal 1.41305e-16 -0.770522 -0.637414
    outer loop
      vertex 3.52418e-16 -1.80027 -1.58715
      vertex 32 -1.89637 -1.47098
      vertex 3.26623e-16 -1.89637 -1.47098
    endloop
  endfacet
  facet normal 1.41534e-16 -0.770522 -0.637414
    outer loop
      vertex 3.52418e-16 -1.80027 -1.58715
      vertex 32 -1.80027 -1.58715
      vertex 32 -1.89637 -1.47098
    endloop
  endfacet
  facet normal 1.51732e-16 -0.728943 -0.684574
    outer loop
      vertex 3.76821e-16 -1.69705 -1.69705
      vertex 32 -1.80027 -1.58715
      vertex 3.52418e-16 -1.80027 -1.58715
    endloop
  endfacet
  facet normal 1.52006e-16 -0.728943 -0.684574
    outer loop
      vertex 3.76821e-16 -1.69705 -1.69705
      vertex 32 -1.69705 -1.69705
      vertex 32 -1.80027 -1.58715
    endloop
  endfacet
  facet normal 1.61816e-16 -0.684572 -0.728945
    outer loop
      vertex 3.99737e-16 -1.58716 -1.80025
      vertex 32 -1.69705 -1.69705
      vertex 3.76821e-16 -1.69705 -1.69705
    endloop
  endfacet
  facet normal 1.61858e-16 -0.684572 -0.728945
    outer loop
      vertex 3.99737e-16 -1.58716 -1.80025
      vertex 32 -1.58716 -1.80025
      vertex 32 -1.69705 -1.69705
    endloop
  endfacet
endsolid OpenSCAD_Model
