solid OpenSCAD_Model
  facet normal 0 1 -0
    outer loop
      vertex 0.945713 12.6434 0
      vertex -0.945713 12.6434 5.5
      vertex 0.945713 12.6434 5.5
    endloop
  endfacet
  facet normal 0 1 0
    outer loop
      vertex -0.945713 12.6434 5.5
      vertex 0.945713 12.6434 0
      vertex -0.945713 12.6434 0
    endloop
  endfacet
  facet normal -0.433884 0.900969 0
    outer loop
      vertex -0.945713 12.6434 0
      vertex -2.64983 11.8228 5.5
      vertex -0.945713 12.6434 5.5
    endloop
  endfacet
  facet normal -0.433884 0.900969 0
    outer loop
      vertex -2.64983 11.8228 5.5
      vertex -0.945713 12.6434 0
      vertex -2.64983 11.8228 0
    endloop
  endfacet
  facet normal 0 0 1
    outer loop
      vertex 1.59099 10.091 5.5
      vertex 3.82912 10.344 5.5
      vertex 2.64983 11.8228 5.5
    endloop
  endfacet
  facet normal 0 -0 1
    outer loop
      vertex 2.25 8.5 5.5
      vertex 3.82912 10.344 5.5
      vertex 1.59099 10.091 5.5
    endloop
  endfacet
  facet normal 0 0 1
    outer loop
      vertex 3.82912 10.344 5.5
      vertex 2.25 8.5 5.5
      vertex 4.25 8.5 5.5
    endloop
  endfacet
  facet normal 0 0 1
    outer loop
      vertex 0.945713 12.6434 5.5
      vertex 1.59099 10.091 5.5
      vertex 2.64983 11.8228 5.5
    endloop
  endfacet
  facet normal 0 0 1
    outer loop
      vertex 0.945713 12.6434 5.5
      vertex 2.75546e-16 10.75 5.5
      vertex 1.59099 10.091 5.5
    endloop
  endfacet
  facet normal -0 0 1
    outer loop
      vertex -0.945713 12.6434 5.5
      vertex 2.75546e-16 10.75 5.5
      vertex 0.945713 12.6434 5.5
    endloop
  endfacet
  facet normal 0 0 1
    outer loop
      vertex -0.945713 12.6434 5.5
      vertex -1.59099 10.091 5.5
      vertex 2.75546e-16 10.75 5.5
    endloop
  endfacet
  facet normal -0 0 1
    outer loop
      vertex -2.64983 11.8228 5.5
      vertex -1.59099 10.091 5.5
      vertex -0.945713 12.6434 5.5
    endloop
  endfacet
  facet normal -0 0 1
    outer loop
      vertex -3.82912 10.344 5.5
      vertex -1.59099 10.091 5.5
      vertex -2.64983 11.8228 5.5
    endloop
  endfacet
  facet normal 0 0 1
    outer loop
      vertex -1.59099 10.091 5.5
      vertex -3.82912 10.344 5.5
      vertex -2.25 8.5 5.5
    endloop
  endfacet
  facet normal 0 0 1
    outer loop
      vertex -2.25 8.5 5.5
      vertex -3.82912 10.344 5.5
      vertex -4.25 8.5 5.5
    endloop
  endfacet
  facet normal -0.974928 0.222521 0
    outer loop
      vertex -4.25 8.5 0
      vertex -3.82912 10.344 5.5
      vertex -3.82912 10.344 0
    endloop
  endfacet
  facet normal -0.974928 0.222521 0
    outer loop
      vertex -3.82912 10.344 5.5
      vertex -4.25 8.5 0
      vertex -4.25 8.5 5.5
    endloop
  endfacet
  facet normal 0 0 -1
    outer loop
      vertex 43 -11.5 0
      vertex 18 -8.5 0
      vertex 43 -8.5 0
    endloop
  endfacet
  facet normal 0 0 -1
    outer loop
      vertex 18 -8.5 0
      vertex 15 -8.5 0
      vertex 18 8.5 0
    endloop
  endfacet
  facet normal 0 0 -1
    outer loop
      vertex 2.90724 -11.5 0
      vertex 18 -8.5 0
      vertex 43 -11.5 0
    endloop
  endfacet
  facet normal -0 0 -1
    outer loop
      vertex 18 -8.5 0
      vertex 2.90724 -11.5 0
      vertex 15 -8.5 0
    endloop
  endfacet
  facet normal 0 0 -1
    outer loop
      vertex 2.90724 -11.5 0
      vertex 2.5 -8.5 0
      vertex 15 -8.5 0
    endloop
  endfacet
  facet normal 0 0 -1
    outer loop
      vertex 2.64983 -11.8228 0
      vertex 2.5 -8.5 0
      vertex 2.90724 -11.5 0
    endloop
  endfacet
  facet normal 0 0 -1
    outer loop
      vertex 0.945713 -12.6434 0
      vertex 2.5 -8.5 0
      vertex 2.64983 -11.8228 0
    endloop
  endfacet
  facet normal 0 0 -1
    outer loop
      vertex -2.5 -8.5 0
      vertex 2.5 -8.5 0
      vertex 0.945713 -12.6434 0
    endloop
  endfacet
  facet normal 0 0 -1
    outer loop
      vertex 2.5 -8.5 0
      vertex -2.5 -8.5 0
      vertex 1.76777 -6.73223 0
    endloop
  endfacet
  facet normal 0 0 -1
    outer loop
      vertex -2.5 -8.5 0
      vertex 0.945713 -12.6434 0
      vertex -0.945713 -12.6434 0
    endloop
  endfacet
  facet normal -0 0 -1
    outer loop
      vertex 1.76777 -6.73223 0
      vertex -2.5 -8.5 0
      vertex 0 -6 0
    endloop
  endfacet
  facet normal 0 0 -1
    outer loop
      vertex 0 -6 0
      vertex -2.5 -8.5 0
      vertex -1.76777 -6.73223 0
    endloop
  endfacet
  facet normal 0 0 -1
    outer loop
      vertex -2.64983 -11.8228 0
      vertex -2.5 -8.5 0
      vertex -0.945713 -12.6434 0
    endloop
  endfacet
  facet normal 0 0 -1
    outer loop
      vertex -3.82912 -10.344 0
      vertex -2.5 -8.5 0
      vertex -2.64983 -11.8228 0
    endloop
  endfacet
  facet normal -0 0 -1
    outer loop
      vertex -2.5 -8.5 0
      vertex -3.82912 -10.344 0
      vertex -4.25 -8.5 0
    endloop
  endfacet
  facet normal 0 0 -1
    outer loop
      vertex 18 8.5 0
      vertex 43 11.5 0
      vertex 43 8.5 0
    endloop
  endfacet
  facet normal 0 0 -1
    outer loop
      vertex 15 8.5 0
      vertex 18 8.5 0
      vertex 15 -8.5 0
    endloop
  endfacet
  facet normal 0 0 -1
    outer loop
      vertex 2.90724 11.5 0
      vertex 18 8.5 0
      vertex 15 8.5 0
    endloop
  endfacet
  facet normal 0 0 -1
    outer loop
      vertex 2.90724 11.5 0
      vertex 15 8.5 0
      vertex 4.25 8.5 0
    endloop
  endfacet
  facet normal 0 0 -1
    outer loop
      vertex 18 8.5 0
      vertex 2.90724 11.5 0
      vertex 43 11.5 0
    endloop
  endfacet
  facet normal 0 0 -1
    outer loop
      vertex 2.5 8.5 0
      vertex 2.90724 11.5 0
      vertex 4.25 8.5 0
    endloop
  endfacet
  facet normal -0 0 -1
    outer loop
      vertex 2.90724 11.5 0
      vertex 2.5 8.5 0
      vertex 2.64983 11.8228 0
    endloop
  endfacet
  facet normal 0 0 -1
    outer loop
      vertex -2.5 8.5 0
      vertex 2.5 8.5 0
      vertex 1.76777 6.73223 0
    endloop
  endfacet
  facet normal 0 0 -1
    outer loop
      vertex 2.5 8.5 0
      vertex 0.945713 12.6434 0
      vertex 2.64983 11.8228 0
    endloop
  endfacet
  facet normal 0 0 -1
    outer loop
      vertex -2.5 8.5 0
      vertex 1.76777 6.73223 0
      vertex 0 6 0
    endloop
  endfacet
  facet normal 0 0 -1
    outer loop
      vertex 2.5 8.5 0
      vertex -2.5 8.5 0
      vertex 0.945713 12.6434 0
    endloop
  endfacet
  facet normal 0 0 -1
    outer loop
      vertex -2.5 8.5 0
      vertex 0 6 0
      vertex -1.76777 6.73223 0
    endloop
  endfacet
  facet normal -0 0 -1
    outer loop
      vertex 0.945713 12.6434 0
      vertex -2.5 8.5 0
      vertex -0.945713 12.6434 0
    endloop
  endfacet
  facet normal 0 0 -1
    outer loop
      vertex -2.5 8.5 0
      vertex -2.64983 11.8228 0
      vertex -0.945713 12.6434 0
    endloop
  endfacet
  facet normal 0 0 -1
    outer loop
      vertex -2.5 8.5 0
      vertex -3.82912 10.344 0
      vertex -2.64983 11.8228 0
    endloop
  endfacet
  facet normal 0 -0 -1
    outer loop
      vertex -3.82912 10.344 0
      vertex -2.5 8.5 0
      vertex -4.25 8.5 0
    endloop
  endfacet
  facet normal 0.433884 0.900969 -0
    outer loop
      vertex 2.64983 11.8228 0
      vertex 0.945713 12.6434 5.5
      vertex 2.64983 11.8228 5.5
    endloop
  endfacet
  facet normal 0.433884 0.900969 0
    outer loop
      vertex 0.945713 12.6434 5.5
      vertex 2.64983 11.8228 0
      vertex 0.945713 12.6434 0
    endloop
  endfacet
  facet normal -0.781831 0.62349 0
    outer loop
      vertex -3.82912 10.344 0
      vertex -2.64983 11.8228 5.5
      vertex -2.64983 11.8228 0
    endloop
  endfacet
  facet normal -0.781831 0.62349 0
    outer loop
      vertex -2.64983 11.8228 5.5
      vertex -3.82912 10.344 0
      vertex -3.82912 10.344 5.5
    endloop
  endfacet
  facet normal 0.781831 0.62349 0
    outer loop
      vertex 2.64983 11.8228 5.5
      vertex 2.90724 11.5 3
      vertex 2.64983 11.8228 0
    endloop
  endfacet
  facet normal 0.781831 0.62349 4.87482e-09
    outer loop
      vertex 3.82912 10.344 5.5
      vertex 2.90724 11.5 3
      vertex 2.64983 11.8228 5.5
    endloop
  endfacet
  facet normal 0.781831 0.62349 0
    outer loop
      vertex 2.90724 11.5 3
      vertex 3.82912 10.344 5.5
      vertex 3.82912 10.344 3
    endloop
  endfacet
  facet normal 0.781831 0.62349 0
    outer loop
      vertex 2.64983 11.8228 0
      vertex 2.90724 11.5 3
      vertex 2.90724 11.5 0
    endloop
  endfacet
  facet normal 0.974928 0.222521 0
    outer loop
      vertex 4.25 8.5 5.5
      vertex 3.82912 10.344 3
      vertex 3.82912 10.344 5.5
    endloop
  endfacet
  facet normal 0.974928 0.222521 0
    outer loop
      vertex 3.82912 10.344 3
      vertex 4.25 8.5 5.5
      vertex 4.25 8.5 3
    endloop
  endfacet
  facet normal -0 0 0
    outer loop
      vertex 4.25 8.5 3
      vertex 4.25 8.5 5.5
      vertex 4.25 8.5 0
    endloop
  endfacet
  facet normal 0.382684 -0.923879 0
    outer loop
      vertex -1.59099 10.091 0.599999
      vertex 2.75546e-16 10.75 5.5
      vertex -1.59099 10.091 5.5
    endloop
  endfacet
  facet normal 0.382684 -0.923879 0
    outer loop
      vertex 2.75546e-16 10.75 5.5
      vertex -1.59099 10.091 0.599999
      vertex 2.75546e-16 10.75 0.599999
    endloop
  endfacet
  facet normal -0.923879 -0.382684 0
    outer loop
      vertex 2.25 8.5 0.599999
      vertex 1.59099 10.091 5.5
      vertex 1.59099 10.091 0.599999
    endloop
  endfacet
  facet normal -0.923879 -0.382684 0
    outer loop
      vertex 1.59099 10.091 5.5
      vertex 2.25 8.5 0.599999
      vertex 2.25 8.5 5.5
    endloop
  endfacet
  facet normal 0.923879 -0.382684 0
    outer loop
      vertex -2.25 8.5 5.5
      vertex -1.59099 10.091 0.599999
      vertex -1.59099 10.091 5.5
    endloop
  endfacet
  facet normal 0.923879 -0.382684 0
    outer loop
      vertex -1.59099 10.091 0.599999
      vertex -2.25 8.5 5.5
      vertex -2.25 8.5 0.599999
    endloop
  endfacet
  facet normal -0.382684 -0.923879 0
    outer loop
      vertex 2.75546e-16 10.75 0.599999
      vertex 1.59099 10.091 5.5
      vertex 2.75546e-16 10.75 5.5
    endloop
  endfacet
  facet normal -0.382684 -0.923879 -0
    outer loop
      vertex 1.59099 10.091 5.5
      vertex 2.75546e-16 10.75 0.599999
      vertex 1.59099 10.091 0.599999
    endloop
  endfacet
  facet normal 0 -1 0
    outer loop
      vertex -4.25 8.5 5.5
      vertex -2.5 8.5 0.599999
      vertex -2.25 8.5 5.5
    endloop
  endfacet
  facet normal 0 -1 0
    outer loop
      vertex -4.25 8.5 0
      vertex -2.5 8.5 0.599999
      vertex -4.25 8.5 5.5
    endloop
  endfacet
  facet normal 0 -1 -0
    outer loop
      vertex -2.5 8.5 0.599999
      vertex -4.25 8.5 0
      vertex -2.5 8.5 0
    endloop
  endfacet
  facet normal 0 -1 -0
    outer loop
      vertex -2.25 8.5 5.5
      vertex -2.5 8.5 0.599999
      vertex -2.25 8.5 0.599999
    endloop
  endfacet
  facet normal 0 -1 0
    outer loop
      vertex 2.5 8.5 0.599999
      vertex 2.25 8.5 5.5
      vertex 2.25 8.5 0.599999
    endloop
  endfacet
  facet normal 0 -1 0
    outer loop
      vertex 2.25 8.5 5.5
      vertex 2.5 8.5 0.599999
      vertex 4.25 8.5 5.5
    endloop
  endfacet
  facet normal 0 -1 0
    outer loop
      vertex 4.25 8.5 0
      vertex 2.5 8.5 0.599999
      vertex 2.5 8.5 0
    endloop
  endfacet
  facet normal 0 -1 0
    outer loop
      vertex 2.5 8.5 0.599999
      vertex 4.25 8.5 0
      vertex 4.25 8.5 5.5
    endloop
  endfacet
  facet normal 0 -1 0
    outer loop
      vertex -0.945713 -12.6434 0
      vertex 0.945713 -12.6434 5.5
      vertex -0.945713 -12.6434 5.5
    endloop
  endfacet
  facet normal 0 -1 -0
    outer loop
      vertex 0.945713 -12.6434 5.5
      vertex -0.945713 -12.6434 0
      vertex 0.945713 -12.6434 0
    endloop
  endfacet
  facet normal 0.433884 -0.900969 0
    outer loop
      vertex 0.945713 -12.6434 0
      vertex 2.64983 -11.8228 5.5
      vertex 0.945713 -12.6434 5.5
    endloop
  endfacet
  facet normal 0.433884 -0.900969 0
    outer loop
      vertex 2.64983 -11.8228 5.5
      vertex 0.945713 -12.6434 0
      vertex 2.64983 -11.8228 0
    endloop
  endfacet
  facet normal -0 0 1
    outer loop
      vertex 2.25 -8.5 5.5
      vertex 3.82912 -10.344 5.5
      vertex 4.25 -8.5 5.5
    endloop
  endfacet
  facet normal 0 0 1
    outer loop
      vertex 3.82912 -10.344 5.5
      vertex 2.25 -8.5 5.5
      vertex 1.59099 -10.091 5.5
    endloop
  endfacet
  facet normal 0 0 1
    outer loop
      vertex 3.82912 -10.344 5.5
      vertex 1.59099 -10.091 5.5
      vertex 2.64983 -11.8228 5.5
    endloop
  endfacet
  facet normal 0 0 1
    outer loop
      vertex 1.59099 -10.091 5.5
      vertex 0.945713 -12.6434 5.5
      vertex 2.64983 -11.8228 5.5
    endloop
  endfacet
  facet normal -0 0 1
    outer loop
      vertex 0 -10.75 5.5
      vertex 0.945713 -12.6434 5.5
      vertex 1.59099 -10.091 5.5
    endloop
  endfacet
  facet normal 0 0 1
    outer loop
      vertex 0 -10.75 5.5
      vertex -0.945713 -12.6434 5.5
      vertex 0.945713 -12.6434 5.5
    endloop
  endfacet
  facet normal 0 0 1
    outer loop
      vertex -1.59099 -10.091 5.5
      vertex -0.945713 -12.6434 5.5
      vertex 0 -10.75 5.5
    endloop
  endfacet
  facet normal 0 0 1
    outer loop
      vertex -3.82912 -10.344 5.5
      vertex -1.59099 -10.091 5.5
      vertex -2.25 -8.5 5.5
    endloop
  endfacet
  facet normal 0 0 1
    outer loop
      vertex -1.59099 -10.091 5.5
      vertex -2.64983 -11.8228 5.5
      vertex -0.945713 -12.6434 5.5
    endloop
  endfacet
  facet normal 0 0 1
    outer loop
      vertex -1.59099 -10.091 5.5
      vertex -3.82912 -10.344 5.5
      vertex -2.64983 -11.8228 5.5
    endloop
  endfacet
  facet normal 0 -0 1
    outer loop
      vertex -3.82912 -10.344 5.5
      vertex -2.25 -8.5 5.5
      vertex -4.25 -8.5 5.5
    endloop
  endfacet
  facet normal 0.974928 -0.222521 0
    outer loop
      vertex 3.82912 -10.344 5.5
      vertex 4.25 -8.5 3
      vertex 4.25 -8.5 5.5
    endloop
  endfacet
  facet normal 0.974928 -0.222521 0
    outer loop
      vertex 4.25 -8.5 3
      vertex 3.82912 -10.344 5.5
      vertex 3.82912 -10.344 3
    endloop
  endfacet
  facet normal -0.433884 -0.900969 0
    outer loop
      vertex -2.64983 -11.8228 0
      vertex -0.945713 -12.6434 5.5
      vertex -2.64983 -11.8228 5.5
    endloop
  endfacet
  facet normal -0.433884 -0.900969 -0
    outer loop
      vertex -0.945713 -12.6434 5.5
      vertex -2.64983 -11.8228 0
      vertex -0.945713 -12.6434 0
    endloop
  endfacet
  facet normal 0.781831 -0.62349 0
    outer loop
      vertex 3.82912 -10.344 5.5
      vertex 2.90724 -11.5 3
      vertex 3.82912 -10.344 3
    endloop
  endfacet
  facet normal 0.781831 -0.62349 4.87482e-09
    outer loop
      vertex 2.64983 -11.8228 5.5
      vertex 2.90724 -11.5 3
      vertex 3.82912 -10.344 5.5
    endloop
  endfacet
  facet normal 0.781831 -0.62349 0
    outer loop
      vertex 2.64983 -11.8228 0
      vertex 2.90724 -11.5 3
      vertex 2.64983 -11.8228 5.5
    endloop
  endfacet
  facet normal 0.781831 -0.62349 0
    outer loop
      vertex 2.90724 -11.5 3
      vertex 2.64983 -11.8228 0
      vertex 2.90724 -11.5 0
    endloop
  endfacet
  facet normal -0.781831 -0.62349 0
    outer loop
      vertex -2.64983 -11.8228 0
      vertex -3.82912 -10.344 5.5
      vertex -3.82912 -10.344 0
    endloop
  endfacet
  facet normal -0.781831 -0.62349 0
    outer loop
      vertex -3.82912 -10.344 5.5
      vertex -2.64983 -11.8228 0
      vertex -2.64983 -11.8228 5.5
    endloop
  endfacet
  facet normal -0.974928 -0.222521 0
    outer loop
      vertex -3.82912 -10.344 0
      vertex -4.25 -8.5 5.5
      vertex -4.25 -8.5 0
    endloop
  endfacet
  facet normal -0.974928 -0.222521 0
    outer loop
      vertex -4.25 -8.5 5.5
      vertex -3.82912 -10.344 0
      vertex -3.82912 -10.344 5.5
    endloop
  endfacet
  facet normal -0.382684 0.923879 0
    outer loop
      vertex 1.59099 -10.091 0.599999
      vertex 0 -10.75 5.5
      vertex 1.59099 -10.091 5.5
    endloop
  endfacet
  facet normal -0.382684 0.923879 0
    outer loop
      vertex 0 -10.75 5.5
      vertex 1.59099 -10.091 0.599999
      vertex 0 -10.75 0.599999
    endloop
  endfacet
  facet normal 0.923879 0.382684 0
    outer loop
      vertex -1.59099 -10.091 5.5
      vertex -2.25 -8.5 0.599999
      vertex -2.25 -8.5 5.5
    endloop
  endfacet
  facet normal 0.923879 0.382684 0
    outer loop
      vertex -2.25 -8.5 0.599999
      vertex -1.59099 -10.091 5.5
      vertex -1.59099 -10.091 0.599999
    endloop
  endfacet
  facet normal -0.923879 0.382684 0
    outer loop
      vertex 1.59099 -10.091 0.599999
      vertex 2.25 -8.5 5.5
      vertex 2.25 -8.5 0.599999
    endloop
  endfacet
  facet normal -0.923879 0.382684 0
    outer loop
      vertex 2.25 -8.5 5.5
      vertex 1.59099 -10.091 0.599999
      vertex 1.59099 -10.091 5.5
    endloop
  endfacet
  facet normal 0.382684 0.923879 -0
    outer loop
      vertex 0 -10.75 0.599999
      vertex -1.59099 -10.091 5.5
      vertex 0 -10.75 5.5
    endloop
  endfacet
  facet normal 0.382684 0.923879 0
    outer loop
      vertex -1.59099 -10.091 5.5
      vertex 0 -10.75 0.599999
      vertex -1.59099 -10.091 0.599999
    endloop
  endfacet
  facet normal 0 1 -0
    outer loop
      vertex 15 -8.5 0
      vertex 4.25 -8.5 3
      vertex 15 -8.5 3
    endloop
  endfacet
  facet normal 0 1 0
    outer loop
      vertex 4.25 -8.5 3
      vertex 2.5 -8.5 0.599999
      vertex 2.3 -8.5 3
    endloop
  endfacet
  facet normal 0 1 0
    outer loop
      vertex 2.5 -8.5 0
      vertex 4.25 -8.5 3
      vertex 15 -8.5 0
    endloop
  endfacet
  facet normal 0 1 0
    outer loop
      vertex 4.25 -8.5 3
      vertex 2.5 -8.5 0
      vertex 2.5 -8.5 0.599999
    endloop
  endfacet
  facet normal 0 1 0
    outer loop
      vertex 2.3 -8.5 3
      vertex 2.5 -8.5 0.599999
      vertex 2.3 -8.5 0.599999
    endloop
  endfacet
  facet normal 0 1 -0
    outer loop
      vertex 43 -8.5 0
      vertex 18 -8.5 3
      vertex 43 -8.5 3
    endloop
  endfacet
  facet normal 0 1 0
    outer loop
      vertex 18 -8.5 3
      vertex 43 -8.5 0
      vertex 18 -8.5 0
    endloop
  endfacet
  facet normal 0 1 0
    outer loop
      vertex 2.3 -8.5 3
      vertex 4.25 -8.5 5.5
      vertex 4.25 -8.5 3
    endloop
  endfacet
  facet normal 0 1 0
    outer loop
      vertex 4.25 -8.5 5.5
      vertex 2.3 -8.5 3
      vertex 2.25 -8.5 5.5
    endloop
  endfacet
  facet normal 0 1 0
    outer loop
      vertex 2.25 -8.5 0.599999
      vertex 2.3 -8.5 3
      vertex 2.3 -8.5 0.599999
    endloop
  endfacet
  facet normal 0 1 0
    outer loop
      vertex 2.3 -8.5 3
      vertex 2.25 -8.5 0.599999
      vertex 2.25 -8.5 5.5
    endloop
  endfacet
  facet normal 0 1 0
    outer loop
      vertex -2.5 -8.5 0.599999
      vertex -2.25 -8.5 5.5
      vertex -2.25 -8.5 0.599999
    endloop
  endfacet
  facet normal 0 1 0
    outer loop
      vertex -2.25 -8.5 5.5
      vertex -2.5 -8.5 0.599999
      vertex -4.25 -8.5 5.5
    endloop
  endfacet
  facet normal 0 1 0
    outer loop
      vertex -4.25 -8.5 0
      vertex -2.5 -8.5 0.599999
      vertex -2.5 -8.5 0
    endloop
  endfacet
  facet normal 0 1 0
    outer loop
      vertex -2.5 -8.5 0.599999
      vertex -4.25 -8.5 0
      vertex -4.25 -8.5 5.5
    endloop
  endfacet
  facet normal 0 1 -0
    outer loop
      vertex 63.4598 -8.54589 12.0788
      vertex 60.5311 -8.54589 13.5398
      vertex 63.9819 -8.54589 13.5398
    endloop
  endfacet
  facet normal 0 1 0
    outer loop
      vertex 60.5311 -8.54589 13.5398
      vertex 63.4598 -8.54589 12.0788
      vertex 60.4451 -8.54589 13.2991
    endloop
  endfacet
  facet normal 0 1 -0
    outer loop
      vertex 61.1187 -8.54589 8.39269
      vertex 60.4451 -8.54589 13.2991
      vertex 63.4598 -8.54589 12.0788
    endloop
  endfacet
  facet normal 0 1 0
    outer loop
      vertex 60.4451 -8.54589 13.2991
      vertex 61.1187 -8.54589 8.39269
      vertex 58.449 -8.54589 10.156
    endloop
  endfacet
  facet normal 0 1 0
    outer loop
      vertex 57.9858 -8.54589 5.22957
      vertex 58.449 -8.54589 10.156
      vertex 61.1187 -8.54589 8.39269
    endloop
  endfacet
  facet normal 0 1 0
    outer loop
      vertex 58.449 -8.54589 10.156
      vertex 57.9858 -8.54589 5.22957
      vertex 55.7777 -8.54589 7.45901
    endloop
  endfacet
  facet normal 0 1 0
    outer loop
      vertex 54.198 -8.54589 2.72772
      vertex 55.7777 -8.54589 7.45901
      vertex 57.9858 -8.54589 5.22957
    endloop
  endfacet
  facet normal 0 1 0
    outer loop
      vertex 55.7777 -8.54589 7.45901
      vertex 54.198 -8.54589 2.72772
      vertex 52.548 -8.54589 5.3258
    endloop
  endfacet
  facet normal 0 1 0
    outer loop
      vertex 49.9207 -8.54589 0.99649
      vertex 52.548 -8.54589 5.3258
      vertex 54.198 -8.54589 2.72772
    endloop
  endfacet
  facet normal 0 1 0
    outer loop
      vertex 44.9961 -8.54589 3.0951
      vertex 43 -8.54589 3
      vertex 43 -8.54589 3.0951
    endloop
  endfacet
  facet normal 0 1 0
    outer loop
      vertex 52.548 -8.54589 5.3258
      vertex 49.9207 -8.54589 0.99649
      vertex 48.901 -8.54589 3.84966
    endloop
  endfacet
  facet normal 0 1 0
    outer loop
      vertex 45.341 -8.54589 0.111534
      vertex 48.901 -8.54589 3.84966
      vertex 49.9207 -8.54589 0.99649
    endloop
  endfacet
  facet normal 0 1 0
    outer loop
      vertex 48.901 -8.54589 3.84966
      vertex 45.341 -8.54589 0.111534
      vertex 44.9961 -8.54589 3.0951
    endloop
  endfacet
  facet normal 0 1 0
    outer loop
      vertex 43 -8.54589 0.111534
      vertex 44.9961 -8.54589 3.0951
      vertex 45.341 -8.54589 0.111534
    endloop
  endfacet
  facet normal 0 1 0
    outer loop
      vertex 44.9961 -8.54589 3.0951
      vertex 43 -8.54589 0.111534
      vertex 43 -8.54589 3
    endloop
  endfacet
  facet normal 0 -1 0
    outer loop
      vertex 43 8.54589 3.0951
      vertex 43 8.54589 3
      vertex 44.9961 8.54589 3.0951
    endloop
  endfacet
  facet normal 0 -1 0
    outer loop
      vertex 63.4598 8.54589 12.0788
      vertex 60.5311 8.54589 13.5398
      vertex 60.4451 8.54589 13.2991
    endloop
  endfacet
  facet normal 0 -1 0
    outer loop
      vertex 60.5311 8.54589 13.5398
      vertex 63.4598 8.54589 12.0788
      vertex 63.9819 8.54589 13.5398
    endloop
  endfacet
  facet normal 0 -1 0
    outer loop
      vertex 61.1187 8.54589 8.39269
      vertex 60.4451 8.54589 13.2991
      vertex 58.449 8.54589 10.156
    endloop
  endfacet
  facet normal 0 -1 0
    outer loop
      vertex 60.4451 8.54589 13.2991
      vertex 61.1187 8.54589 8.39269
      vertex 63.4598 8.54589 12.0788
    endloop
  endfacet
  facet normal 0 -1 0
    outer loop
      vertex 57.9858 8.54589 5.22957
      vertex 58.449 8.54589 10.156
      vertex 55.7777 8.54589 7.45901
    endloop
  endfacet
  facet normal 0 -1 0
    outer loop
      vertex 54.198 8.54589 2.72772
      vertex 55.7777 8.54589 7.45901
      vertex 52.548 8.54589 5.3258
    endloop
  endfacet
  facet normal 0 -1 -0
    outer loop
      vertex 58.449 8.54589 10.156
      vertex 57.9858 8.54589 5.22957
      vertex 61.1187 8.54589 8.39269
    endloop
  endfacet
  facet normal 0 -1 0
    outer loop
      vertex 49.9207 8.54589 0.99649
      vertex 52.548 8.54589 5.3258
      vertex 48.901 8.54589 3.84966
    endloop
  endfacet
  facet normal 0 -1 0
    outer loop
      vertex 45.341 8.54589 0.111534
      vertex 48.901 8.54589 3.84966
      vertex 44.9961 8.54589 3.0951
    endloop
  endfacet
  facet normal 0 -1 -0
    outer loop
      vertex 55.7777 8.54589 7.45901
      vertex 54.198 8.54589 2.72772
      vertex 57.9858 8.54589 5.22957
    endloop
  endfacet
  facet normal 0 -1 0
    outer loop
      vertex 43 8.54589 0.111534
      vertex 44.9961 8.54589 3.0951
      vertex 43 8.54589 3
    endloop
  endfacet
  facet normal 0 -1 -0
    outer loop
      vertex 52.548 8.54589 5.3258
      vertex 49.9207 8.54589 0.99649
      vertex 54.198 8.54589 2.72772
    endloop
  endfacet
  facet normal 0 -1 -0
    outer loop
      vertex 44.9961 8.54589 3.0951
      vertex 43 8.54589 0.111534
      vertex 45.341 8.54589 0.111534
    endloop
  endfacet
  facet normal 0 -1 -0
    outer loop
      vertex 48.901 8.54589 3.84966
      vertex 45.341 8.54589 0.111534
      vertex 49.9207 8.54589 0.99649
    endloop
  endfacet
  facet normal 0 0 -1
    outer loop
      vertex 61.8863 -3.53982 18.5459
      vertex 65.1863 3.53982 18.5459
      vertex 65.1863 -3.53982 18.5459
    endloop
  endfacet
  facet normal -0 0 -1
    outer loop
      vertex 65.1863 3.53982 18.5459
      vertex 61.8863 -3.53982 18.5459
      vertex 61.8863 3.53982 18.5459
    endloop
  endfacet
  facet normal 3.54994e-08 -0.707107 -0.707107
    outer loop
      vertex 64.9066 5.95879 16.1269
      vertex 61.8863 3.53982 18.5459
      vertex 61.6787 5.33505 16.7507
    endloop
  endfacet
  facet normal 0 -0.707107 -0.707107
    outer loop
      vertex 61.8863 3.53982 18.5459
      vertex 64.9066 5.95879 16.1269
      vertex 65.1863 3.53982 18.5459
    endloop
  endfacet
  facet normal -0 -0.707107 -0.707107
    outer loop
      vertex 63.9819 8.54589 13.5398
      vertex 61.6787 5.33505 16.7507
      vertex 60.5311 8.54589 13.5398
    endloop
  endfacet
  facet normal 7.06712e-08 -0.707107 -0.707107
    outer loop
      vertex 61.6787 5.33505 16.7507
      vertex 63.9819 8.54589 13.5398
      vertex 64.9066 5.95879 16.1269
    endloop
  endfacet
  facet normal 0 0.707107 -0.707107
    outer loop
      vertex 64.9066 -5.95879 16.1269
      vertex 61.8863 -3.53982 18.5459
      vertex 65.1863 -3.53982 18.5459
    endloop
  endfacet
  facet normal 3.54994e-08 0.707107 -0.707107
    outer loop
      vertex 61.8863 -3.53982 18.5459
      vertex 64.9066 -5.95879 16.1269
      vertex 61.6787 -5.33505 16.7507
    endloop
  endfacet
  facet normal 7.06712e-08 0.707107 -0.707107
    outer loop
      vertex 63.9819 -8.54589 13.5398
      vertex 61.6787 -5.33505 16.7507
      vertex 64.9066 -5.95879 16.1269
    endloop
  endfacet
  facet normal 0 0.707107 -0.707107
    outer loop
      vertex 61.6787 -5.33505 16.7507
      vertex 63.9819 -8.54589 13.5398
      vertex 60.5311 -8.54589 13.5398
    endloop
  endfacet
  facet normal 0.551129 0 -0.83442
    outer loop
      vertex 54.198 8.54589 2.72772
      vertex 57.9858 11.5 5.22957
      vertex 57.9858 8.54589 5.22957
    endloop
  endfacet
  facet normal 0.551129 0 -0.83442
    outer loop
      vertex 57.9858 11.5 5.22957
      vertex 54.198 8.54589 2.72772
      vertex 54.198 11.5 2.72772
    endloop
  endfacet
  facet normal 0.551129 0 -0.83442
    outer loop
      vertex 54.198 -11.5 2.72772
      vertex 57.9858 -8.54589 5.22957
      vertex 57.9858 -11.5 5.22957
    endloop
  endfacet
  facet normal 0.551129 0 -0.83442
    outer loop
      vertex 57.9858 -8.54589 5.22957
      vertex 54.198 -11.5 2.72772
      vertex 54.198 -8.54589 2.72772
    endloop
  endfacet
  facet normal 0.993383 0 -0.114849
    outer loop
      vertex 65.396 5.20101 20.36
      vertex 64.9066 5.95879 16.1269
      vertex 64.9066 9.43409 16.1269
    endloop
  endfacet
  facet normal 0.993383 2.2782e-06 -0.114848
    outer loop
      vertex 65.396 5.20101 20.36
      vertex 65.1863 3.53982 18.5459
      vertex 64.9066 5.95879 16.1269
    endloop
  endfacet
  facet normal 0.993383 0 -0.114846
    outer loop
      vertex 65.396 5.20101 20.36
      vertex 65.1863 -3.53982 18.5459
      vertex 65.1863 3.53982 18.5459
    endloop
  endfacet
  facet normal 0.993383 0 -0.114846
    outer loop
      vertex 65.396 -5.20101 20.36
      vertex 65.1863 -3.53982 18.5459
      vertex 65.396 5.20101 20.36
    endloop
  endfacet
  facet normal 0.993383 -2.2782e-06 -0.114848
    outer loop
      vertex 65.396 -5.20101 20.36
      vertex 64.9066 -5.95879 16.1269
      vertex 65.1863 -3.53982 18.5459
    endloop
  endfacet
  facet normal 0.993383 0 -0.114849
    outer loop
      vertex 64.9066 -5.95879 16.1269
      vertex 65.396 -5.20101 20.36
      vertex 64.9066 -9.43409 16.1269
    endloop
  endfacet
  facet normal 0.189724 0 -0.981838
    outer loop
      vertex 45.341 8.54589 0.111534
      vertex 49.9207 11.5 0.99649
      vertex 49.9207 8.54589 0.99649
    endloop
  endfacet
  facet normal 0.189724 0 -0.981838
    outer loop
      vertex 49.9207 11.5 0.99649
      vertex 45.341 8.54589 0.111534
      vertex 45.341 11.5 0.111534
    endloop
  endfacet
  facet normal 0.189724 0 -0.981838
    outer loop
      vertex 45.341 -11.5 0.111534
      vertex 49.9207 -8.54589 0.99649
      vertex 49.9207 -11.5 0.99649
    endloop
  endfacet
  facet normal 0.189724 0 -0.981838
    outer loop
      vertex 49.9207 -8.54589 0.99649
      vertex 45.341 -11.5 0.111534
      vertex 45.341 -8.54589 0.111534
    endloop
  endfacet
  facet normal 0.375186 0 -0.926949
    outer loop
      vertex 49.9207 8.54589 0.99649
      vertex 54.198 11.5 2.72772
      vertex 54.198 8.54589 2.72772
    endloop
  endfacet
  facet normal 0.375186 0 -0.926949
    outer loop
      vertex 54.198 11.5 2.72772
      vertex 49.9207 8.54589 0.99649
      vertex 49.9207 11.5 0.99649
    endloop
  endfacet
  facet normal 0.375186 0 -0.926949
    outer loop
      vertex 49.9207 -11.5 0.99649
      vertex 54.198 -8.54589 2.72772
      vertex 54.198 -11.5 2.72772
    endloop
  endfacet
  facet normal 0.375186 0 -0.926949
    outer loop
      vertex 54.198 -8.54589 2.72772
      vertex 49.9207 -11.5 0.99649
      vertex 49.9207 -8.54589 0.99649
    endloop
  endfacet
  facet normal 0 0 -1
    outer loop
      vertex 43 8.54589 0.111534
      vertex 45.341 11.5 0.111534
      vertex 45.341 8.54589 0.111534
    endloop
  endfacet
  facet normal -0 0 -1
    outer loop
      vertex 45.341 11.5 0.111534
      vertex 43 8.54589 0.111534
      vertex 43 11.5 0.111534
    endloop
  endfacet
  facet normal 0 0 -1
    outer loop
      vertex 43 -11.5 0.111534
      vertex 45.341 -8.54589 0.111534
      vertex 45.341 -11.5 0.111534
    endloop
  endfacet
  facet normal -0 0 -1
    outer loop
      vertex 45.341 -8.54589 0.111534
      vertex 43 -11.5 0.111534
      vertex 43 -8.54589 0.111534
    endloop
  endfacet
  facet normal 0.84415 0 -0.536107
    outer loop
      vertex 63.4598 8.54589 12.0788
      vertex 61.1187 11.5 8.39269
      vertex 63.4598 11.5 12.0788
    endloop
  endfacet
  facet normal 0.84415 0 -0.536107
    outer loop
      vertex 61.1187 11.5 8.39269
      vertex 63.4598 8.54589 12.0788
      vertex 61.1187 8.54589 8.39269
    endloop
  endfacet
  facet normal 0.84415 0 -0.536107
    outer loop
      vertex 63.4598 -11.5 12.0788
      vertex 61.1187 -8.54589 8.39269
      vertex 63.4598 -8.54589 12.0788
    endloop
  endfacet
  facet normal 0.84415 0 -0.536107
    outer loop
      vertex 61.1187 -8.54589 8.39269
      vertex 63.4598 -11.5 12.0788
      vertex 61.1187 -11.5 8.39269
    endloop
  endfacet
  facet normal 0.941662 0 -0.336561
    outer loop
      vertex 64.9066 9.43409 16.1269
      vertex 64.9066 5.95879 16.1269
      vertex 63.9819 8.54589 13.5398
    endloop
  endfacet
  facet normal 0.941662 -5.32552e-08 -0.336561
    outer loop
      vertex 63.9819 8.54589 13.5398
      vertex 64.1682 11.5 14.061
      vertex 64.9066 9.43409 16.1269
    endloop
  endfacet
  facet normal 0.941662 -9.21044e-08 -0.336561
    outer loop
      vertex 64.1682 11.5 14.061
      vertex 63.9819 8.54589 13.5398
      vertex 63.4598 11.5 12.0788
    endloop
  endfacet
  facet normal 0.941662 0 -0.336561
    outer loop
      vertex 63.4598 11.5 12.0788
      vertex 63.9819 8.54589 13.5398
      vertex 63.4598 8.54589 12.0788
    endloop
  endfacet
  facet normal 0.941662 0 -0.336561
    outer loop
      vertex 64.9066 -9.43409 16.1269
      vertex 63.9819 -8.54589 13.5398
      vertex 64.9066 -5.95879 16.1269
    endloop
  endfacet
  facet normal 0.941662 5.32552e-08 -0.336561
    outer loop
      vertex 64.1682 -11.5 14.061
      vertex 63.9819 -8.54589 13.5398
      vertex 64.9066 -9.43409 16.1269
    endloop
  endfacet
  facet normal 0.941662 9.21044e-08 -0.336561
    outer loop
      vertex 63.4598 -11.5 12.0788
      vertex 63.9819 -8.54589 13.5398
      vertex 64.1682 -11.5 14.061
    endloop
  endfacet
  facet normal 0.941662 0 -0.336561
    outer loop
      vertex 63.9819 -8.54589 13.5398
      vertex 63.4598 -11.5 12.0788
      vertex 63.4598 -8.54589 12.0788
    endloop
  endfacet
  facet normal 0.710493 0 -0.703704
    outer loop
      vertex 61.1187 8.54589 8.39269
      vertex 57.9858 11.5 5.22957
      vertex 61.1187 11.5 8.39269
    endloop
  endfacet
  facet normal 0.710493 0 -0.703704
    outer loop
      vertex 57.9858 11.5 5.22957
      vertex 61.1187 8.54589 8.39269
      vertex 57.9858 8.54589 5.22957
    endloop
  endfacet
  facet normal 0.710493 0 -0.703704
    outer loop
      vertex 61.1187 -11.5 8.39269
      vertex 57.9858 -8.54589 5.22957
      vertex 61.1187 -8.54589 8.39269
    endloop
  endfacet
  facet normal 0.710493 0 -0.703704
    outer loop
      vertex 57.9858 -8.54589 5.22957
      vertex 61.1187 -11.5 8.39269
      vertex 57.9858 -11.5 5.22957
    endloop
  endfacet
  facet normal -0.84415 0 0.536107
    outer loop
      vertex 58.449 8.54589 10.156
      vertex 60.4451 11.5 13.2991
      vertex 58.449 11.5 10.156
    endloop
  endfacet
  facet normal -0.84415 0 0.536107
    outer loop
      vertex 60.4451 11.5 13.2991
      vertex 58.449 8.54589 10.156
      vertex 60.4451 8.54589 13.2991
    endloop
  endfacet
  facet normal -0.84415 0 0.536107
    outer loop
      vertex 58.449 -11.5 10.156
      vertex 60.4451 -8.54589 13.2991
      vertex 58.449 -8.54589 10.156
    endloop
  endfacet
  facet normal -0.84415 0 0.536107
    outer loop
      vertex 60.4451 -8.54589 13.2991
      vertex 58.449 -11.5 10.156
      vertex 60.4451 -11.5 13.2991
    endloop
  endfacet
  facet normal -0.189723 0 0.981838
    outer loop
      vertex 44.9961 11.5 3.0951
      vertex 48.901 8.54589 3.84966
      vertex 48.901 11.5 3.84966
    endloop
  endfacet
  facet normal -0.189723 0 0.981838
    outer loop
      vertex 48.901 8.54589 3.84966
      vertex 44.9961 11.5 3.0951
      vertex 44.9961 8.54589 3.0951
    endloop
  endfacet
  facet normal -0.189723 0 0.981838
    outer loop
      vertex 44.9961 -8.54589 3.0951
      vertex 48.901 -11.5 3.84966
      vertex 48.901 -8.54589 3.84966
    endloop
  endfacet
  facet normal -0.189723 0 0.981838
    outer loop
      vertex 48.901 -11.5 3.84966
      vertex 44.9961 -8.54589 3.0951
      vertex 44.9961 -11.5 3.0951
    endloop
  endfacet
  facet normal -0.375186 0 0.92695
    outer loop
      vertex 48.901 11.5 3.84966
      vertex 52.548 8.54589 5.3258
      vertex 52.548 11.5 5.3258
    endloop
  endfacet
  facet normal -0.375186 0 0.92695
    outer loop
      vertex 52.548 8.54589 5.3258
      vertex 48.901 11.5 3.84966
      vertex 48.901 8.54589 3.84966
    endloop
  endfacet
  facet normal -0.375186 0 0.92695
    outer loop
      vertex 48.901 -8.54589 3.84966
      vertex 52.548 -11.5 5.3258
      vertex 52.548 -8.54589 5.3258
    endloop
  endfacet
  facet normal -0.375186 0 0.92695
    outer loop
      vertex 52.548 -11.5 5.3258
      vertex 48.901 -8.54589 3.84966
      vertex 48.901 -11.5 3.84966
    endloop
  endfacet
  facet normal -0.551129 0 0.83442
    outer loop
      vertex 52.548 11.5 5.3258
      vertex 55.7777 8.54589 7.45901
      vertex 55.7777 11.5 7.45901
    endloop
  endfacet
  facet normal -0.551129 0 0.83442
    outer loop
      vertex 55.7777 8.54589 7.45901
      vertex 52.548 11.5 5.3258
      vertex 52.548 8.54589 5.3258
    endloop
  endfacet
  facet normal -0.551129 0 0.83442
    outer loop
      vertex 52.548 -8.54589 5.3258
      vertex 55.7777 -11.5 7.45901
      vertex 55.7777 -8.54589 7.45901
    endloop
  endfacet
  facet normal -0.551129 0 0.83442
    outer loop
      vertex 55.7777 -11.5 7.45901
      vertex 52.548 -8.54589 5.3258
      vertex 52.548 -11.5 5.3258
    endloop
  endfacet
  facet normal -0.941662 4.39128e-07 0.336559
    outer loop
      vertex 60.5311 8.54589 13.5398
      vertex 60.7174 11.5 14.061
      vertex 60.4451 11.5 13.2991
    endloop
  endfacet
  facet normal -0.941664 0 0.336554
    outer loop
      vertex 60.5311 8.54589 13.5398
      vertex 60.4451 11.5 13.2991
      vertex 60.4451 8.54589 13.2991
    endloop
  endfacet
  facet normal -0.941662 3.27133e-08 0.336561
    outer loop
      vertex 60.7174 11.5 14.061
      vertex 60.5311 8.54589 13.5398
      vertex 61.6787 8.81036 16.7507
    endloop
  endfacet
  facet normal -0.941662 0 0.336561
    outer loop
      vertex 61.6787 8.81036 16.7507
      vertex 60.5311 8.54589 13.5398
      vertex 61.6787 5.33505 16.7507
    endloop
  endfacet
  facet normal -0.941664 0 0.336554
    outer loop
      vertex 60.4451 -11.5 13.2991
      vertex 60.5311 -8.54589 13.5398
      vertex 60.4451 -8.54589 13.2991
    endloop
  endfacet
  facet normal -0.941662 -4.39128e-07 0.336559
    outer loop
      vertex 60.5311 -8.54589 13.5398
      vertex 60.4451 -11.5 13.2991
      vertex 60.7174 -11.5 14.061
    endloop
  endfacet
  facet normal -0.941662 -3.27133e-08 0.336561
    outer loop
      vertex 60.5311 -8.54589 13.5398
      vertex 60.7174 -11.5 14.061
      vertex 61.6787 -8.81036 16.7507
    endloop
  endfacet
  facet normal -0.941662 0 0.336561
    outer loop
      vertex 61.6787 -5.33505 16.7507
      vertex 60.5311 -8.54589 13.5398
      vertex 61.6787 -8.81036 16.7507
    endloop
  endfacet
  facet normal -0.993383 0 0.11485
    outer loop
      vertex 61.6787 5.33505 16.7507
      vertex 62.096 5.20101 20.36
      vertex 61.6787 8.81036 16.7507
    endloop
  endfacet
  facet normal -0.993383 8.38513e-07 0.11485
    outer loop
      vertex 61.8863 3.53982 18.5459
      vertex 62.096 5.20101 20.36
      vertex 61.6787 5.33505 16.7507
    endloop
  endfacet
  facet normal -0.993383 0 0.11485
    outer loop
      vertex 61.8863 -3.53982 18.5459
      vertex 62.096 5.20101 20.36
      vertex 61.8863 3.53982 18.5459
    endloop
  endfacet
  facet normal -0.993383 0 0.11485
    outer loop
      vertex 61.8863 -3.53982 18.5459
      vertex 62.096 -5.20101 20.36
      vertex 62.096 5.20101 20.36
    endloop
  endfacet
  facet normal -0.993383 -8.38513e-07 0.11485
    outer loop
      vertex 61.6787 -5.33505 16.7507
      vertex 62.096 -5.20101 20.36
      vertex 61.8863 -3.53982 18.5459
    endloop
  endfacet
  facet normal -0.993383 0 0.11485
    outer loop
      vertex 62.096 -5.20101 20.36
      vertex 61.6787 -5.33505 16.7507
      vertex 61.6787 -8.81036 16.7507
    endloop
  endfacet
  facet normal -0 0 1
    outer loop
      vertex 43 11.5 3.0951
      vertex 44.9961 8.54589 3.0951
      vertex 44.9961 11.5 3.0951
    endloop
  endfacet
  facet normal 0 0 1
    outer loop
      vertex 44.9961 8.54589 3.0951
      vertex 43 11.5 3.0951
      vertex 43 8.54589 3.0951
    endloop
  endfacet
  facet normal -0 0 1
    outer loop
      vertex 43 -8.54589 3.0951
      vertex 44.9961 -11.5 3.0951
      vertex 44.9961 -8.54589 3.0951
    endloop
  endfacet
  facet normal 0 0 1
    outer loop
      vertex 44.9961 -11.5 3.0951
      vertex 43 -8.54589 3.0951
      vertex 43 -11.5 3.0951
    endloop
  endfacet
  facet normal -0.710493 0 0.703704
    outer loop
      vertex 55.7777 8.54589 7.45901
      vertex 58.449 11.5 10.156
      vertex 55.7777 11.5 7.45901
    endloop
  endfacet
  facet normal -0.710493 0 0.703704
    outer loop
      vertex 58.449 11.5 10.156
      vertex 55.7777 8.54589 7.45901
      vertex 58.449 8.54589 10.156
    endloop
  endfacet
  facet normal -0.710493 0 0.703704
    outer loop
      vertex 55.7777 -11.5 7.45901
      vertex 58.449 -8.54589 10.156
      vertex 55.7777 -8.54589 7.45901
    endloop
  endfacet
  facet normal -0.710493 0 0.703704
    outer loop
      vertex 58.449 -8.54589 10.156
      vertex 55.7777 -11.5 7.45901
      vertex 58.449 -11.5 10.156
    endloop
  endfacet
  facet normal -0 0 1
    outer loop
      vertex 62.096 5.20101 20.36
      vertex 65.396 -5.20101 20.36
      vertex 65.396 5.20101 20.36
    endloop
  endfacet
  facet normal 0 0 1
    outer loop
      vertex 65.396 -5.20101 20.36
      vertex 62.096 5.20101 20.36
      vertex 62.096 -5.20101 20.36
    endloop
  endfacet
  facet normal 1 0 0
    outer loop
      vertex 43 8.54589 3
      vertex 43 8.5 3
      vertex 43 8.54589 0.111534
    endloop
  endfacet
  facet normal 1 -0 0
    outer loop
      vertex 43 8.54589 0.111534
      vertex 43 11.5 0
      vertex 43 11.5 0.111534
    endloop
  endfacet
  facet normal 1 0 0
    outer loop
      vertex 43 8.54589 0.111534
      vertex 43 8.5 0
      vertex 43 11.5 0
    endloop
  endfacet
  facet normal 1 0 0
    outer loop
      vertex 43 8.5 0
      vertex 43 8.54589 0.111534
      vertex 43 8.5 3
    endloop
  endfacet
  facet normal -1 0 0
    outer loop
      vertex 43 8.54589 3
      vertex 43 11.5 3.0951
      vertex 43 11.5 3
    endloop
  endfacet
  facet normal -1 -0 0
    outer loop
      vertex 43 11.5 3.0951
      vertex 43 8.54589 3
      vertex 43 8.54589 3.0951
    endloop
  endfacet
  facet normal 1 0 0
    outer loop
      vertex 43 -8.54589 0.111534
      vertex 43 -8.5 3
      vertex 43 -8.54589 3
    endloop
  endfacet
  facet normal 1 0 0
    outer loop
      vertex 43 -8.5 3
      vertex 43 -8.54589 0.111534
      vertex 43 -8.5 0
    endloop
  endfacet
  facet normal 1 0 0
    outer loop
      vertex 43 -11.5 0
      vertex 43 -8.54589 0.111534
      vertex 43 -11.5 0.111534
    endloop
  endfacet
  facet normal 1 0 0
    outer loop
      vertex 43 -8.54589 0.111534
      vertex 43 -11.5 0
      vertex 43 -8.5 0
    endloop
  endfacet
  facet normal -1 0 0
    outer loop
      vertex 43 -11.5 3
      vertex 43 -8.54589 3.0951
      vertex 43 -8.54589 3
    endloop
  endfacet
  facet normal -1 -0 0
    outer loop
      vertex 43 -8.54589 3.0951
      vertex 43 -11.5 3
      vertex 43 -11.5 3.0951
    endloop
  endfacet
  facet normal 0 1 -0
    outer loop
      vertex 63.4598 11.5 12.0788
      vertex 60.7174 11.5 14.061
      vertex 64.1682 11.5 14.061
    endloop
  endfacet
  facet normal 0 1 0
    outer loop
      vertex 60.7174 11.5 14.061
      vertex 63.4598 11.5 12.0788
      vertex 60.4451 11.5 13.2991
    endloop
  endfacet
  facet normal 0 1 -0
    outer loop
      vertex 61.1187 11.5 8.39269
      vertex 60.4451 11.5 13.2991
      vertex 63.4598 11.5 12.0788
    endloop
  endfacet
  facet normal 0 1 0
    outer loop
      vertex 60.4451 11.5 13.2991
      vertex 61.1187 11.5 8.39269
      vertex 58.449 11.5 10.156
    endloop
  endfacet
  facet normal 0 1 0
    outer loop
      vertex 57.9858 11.5 5.22957
      vertex 58.449 11.5 10.156
      vertex 61.1187 11.5 8.39269
    endloop
  endfacet
  facet normal 0 1 0
    outer loop
      vertex 58.449 11.5 10.156
      vertex 57.9858 11.5 5.22957
      vertex 55.7777 11.5 7.45901
    endloop
  endfacet
  facet normal 0 1 0
    outer loop
      vertex 54.198 11.5 2.72772
      vertex 55.7777 11.5 7.45901
      vertex 57.9858 11.5 5.22957
    endloop
  endfacet
  facet normal 0 1 0
    outer loop
      vertex 55.7777 11.5 7.45901
      vertex 54.198 11.5 2.72772
      vertex 52.548 11.5 5.3258
    endloop
  endfacet
  facet normal 0 1 0
    outer loop
      vertex 49.9207 11.5 0.99649
      vertex 52.548 11.5 5.3258
      vertex 54.198 11.5 2.72772
    endloop
  endfacet
  facet normal 0 1 0
    outer loop
      vertex 44.9961 11.5 3.0951
      vertex 43 11.5 3
      vertex 43 11.5 3.0951
    endloop
  endfacet
  facet normal 0 1 0
    outer loop
      vertex 52.548 11.5 5.3258
      vertex 49.9207 11.5 0.99649
      vertex 48.901 11.5 3.84966
    endloop
  endfacet
  facet normal 0 1 0
    outer loop
      vertex 45.341 11.5 0.111534
      vertex 48.901 11.5 3.84966
      vertex 49.9207 11.5 0.99649
    endloop
  endfacet
  facet normal 0 1 0
    outer loop
      vertex 48.901 11.5 3.84966
      vertex 45.341 11.5 0.111534
      vertex 44.9961 11.5 3.0951
    endloop
  endfacet
  facet normal 0 1 0
    outer loop
      vertex 43 11.5 0.111534
      vertex 44.9961 11.5 3.0951
      vertex 45.341 11.5 0.111534
    endloop
  endfacet
  facet normal 0 1 0
    outer loop
      vertex 44.9961 11.5 3.0951
      vertex 43 11.5 0.111534
      vertex 43 11.5 3
    endloop
  endfacet
  facet normal 0 -1 0
    outer loop
      vertex 43 -11.5 3.0951
      vertex 43 -11.5 3
      vertex 44.9961 -11.5 3.0951
    endloop
  endfacet
  facet normal 0 -1 0
    outer loop
      vertex 63.4598 -11.5 12.0788
      vertex 60.7174 -11.5 14.061
      vertex 60.4451 -11.5 13.2991
    endloop
  endfacet
  facet normal 0 -1 0
    outer loop
      vertex 60.7174 -11.5 14.061
      vertex 63.4598 -11.5 12.0788
      vertex 64.1682 -11.5 14.061
    endloop
  endfacet
  facet normal 0 -1 0
    outer loop
      vertex 61.1187 -11.5 8.39269
      vertex 60.4451 -11.5 13.2991
      vertex 58.449 -11.5 10.156
    endloop
  endfacet
  facet normal 0 -1 0
    outer loop
      vertex 60.4451 -11.5 13.2991
      vertex 61.1187 -11.5 8.39269
      vertex 63.4598 -11.5 12.0788
    endloop
  endfacet
  facet normal 0 -1 0
    outer loop
      vertex 57.9858 -11.5 5.22957
      vertex 58.449 -11.5 10.156
      vertex 55.7777 -11.5 7.45901
    endloop
  endfacet
  facet normal 0 -1 0
    outer loop
      vertex 54.198 -11.5 2.72772
      vertex 55.7777 -11.5 7.45901
      vertex 52.548 -11.5 5.3258
    endloop
  endfacet
  facet normal 0 -1 -0
    outer loop
      vertex 58.449 -11.5 10.156
      vertex 57.9858 -11.5 5.22957
      vertex 61.1187 -11.5 8.39269
    endloop
  endfacet
  facet normal 0 -1 0
    outer loop
      vertex 49.9207 -11.5 0.99649
      vertex 52.548 -11.5 5.3258
      vertex 48.901 -11.5 3.84966
    endloop
  endfacet
  facet normal 0 -1 0
    outer loop
      vertex 45.341 -11.5 0.111534
      vertex 48.901 -11.5 3.84966
      vertex 44.9961 -11.5 3.0951
    endloop
  endfacet
  facet normal 0 -1 -0
    outer loop
      vertex 55.7777 -11.5 7.45901
      vertex 54.198 -11.5 2.72772
      vertex 57.9858 -11.5 5.22957
    endloop
  endfacet
  facet normal 0 -1 0
    outer loop
      vertex 43 -11.5 0.111534
      vertex 44.9961 -11.5 3.0951
      vertex 43 -11.5 3
    endloop
  endfacet
  facet normal 0 -1 -0
    outer loop
      vertex 52.548 -11.5 5.3258
      vertex 49.9207 -11.5 0.99649
      vertex 54.198 -11.5 2.72772
    endloop
  endfacet
  facet normal 0 -1 -0
    outer loop
      vertex 44.9961 -11.5 3.0951
      vertex 43 -11.5 0.111534
      vertex 45.341 -11.5 0.111534
    endloop
  endfacet
  facet normal 0 -1 -0
    outer loop
      vertex 48.901 -11.5 3.84966
      vertex 45.341 -11.5 0.111534
      vertex 49.9207 -11.5 0.99649
    endloop
  endfacet
  facet normal 0 -0.707107 0.707107
    outer loop
      vertex 64.9066 -9.43409 16.1269
      vertex 62.096 -5.20101 20.36
      vertex 61.6787 -8.81036 16.7507
    endloop
  endfacet
  facet normal 0 -0.707107 0.707107
    outer loop
      vertex 62.096 -5.20101 20.36
      vertex 64.9066 -9.43409 16.1269
      vertex 65.396 -5.20101 20.36
    endloop
  endfacet
  facet normal 0 -0.707107 0.707107
    outer loop
      vertex 64.1682 -11.5 14.061
      vertex 61.6787 -8.81036 16.7507
      vertex 60.7174 -11.5 14.061
    endloop
  endfacet
  facet normal -5.90001e-08 -0.707107 0.707107
    outer loop
      vertex 61.6787 -8.81036 16.7507
      vertex 64.1682 -11.5 14.061
      vertex 64.9066 -9.43409 16.1269
    endloop
  endfacet
  facet normal 0 0.707107 0.707107
    outer loop
      vertex 64.9066 9.43409 16.1269
      vertex 62.096 5.20101 20.36
      vertex 65.396 5.20101 20.36
    endloop
  endfacet
  facet normal 0 0.707107 0.707107
    outer loop
      vertex 62.096 5.20101 20.36
      vertex 64.9066 9.43409 16.1269
      vertex 61.6787 8.81036 16.7507
    endloop
  endfacet
  facet normal -5.90001e-08 0.707107 0.707107
    outer loop
      vertex 64.1682 11.5 14.061
      vertex 61.6787 8.81036 16.7507
      vertex 64.9066 9.43409 16.1269
    endloop
  endfacet
  facet normal 0 0.707107 0.707107
    outer loop
      vertex 61.6787 8.81036 16.7507
      vertex 64.1682 11.5 14.061
      vertex 60.7174 11.5 14.061
    endloop
  endfacet
  facet normal -0.309001 -0.951008 -0.0101122
    outer loop
      vertex -0.735191 7.75425 0.599999
      vertex -0.970819 7.79466 4
      vertex -0.936437 7.81964 0.599999
    endloop
  endfacet
  facet normal -0.309001 -0.951008 -0.0101122
    outer loop
      vertex -0.970819 7.79466 4
      vertex -0.735191 7.75425 0.599999
      vertex 0.37082 7.35873 4
    endloop
  endfacet
  facet normal 0.808976 0.587755 -0.0101122
    outer loop
      vertex 1.2 8.5 4
      vertex 1.03312 8.67119 0.599999
      vertex 0.37082 9.64127 4
    endloop
  endfacet
  facet normal 0.808976 0.587755 -0.0101122
    outer loop
      vertex 1.03312 8.67119 0.599999
      vertex 1.2 8.5 4
      vertex 1.1575 8.5 0.599999
    endloop
  endfacet
  facet normal 0.808975 0.587756 -0.0101124
    outer loop
      vertex 1.03312 8.67119 0.599999
      vertex 0.357686 9.60085 0.599999
      vertex 0.37082 9.64127 4
    endloop
  endfacet
  facet normal 0.808976 -0.587755 -0.0101123
    outer loop
      vertex 0.37082 7.35873 4
      vertex 0.357686 7.39915 0.599999
      vertex 1.03312 8.32881 0.599999
    endloop
  endfacet
  facet normal 0.808976 -0.587755 -0.0101122
    outer loop
      vertex 1.2 8.5 4
      vertex 1.03312 8.32881 0.599999
      vertex 1.1575 8.5 0.599999
    endloop
  endfacet
  facet normal 0.808976 -0.587755 -0.0101122
    outer loop
      vertex 1.03312 8.32881 0.599999
      vertex 1.2 8.5 4
      vertex 0.37082 7.35873 4
    endloop
  endfacet
  facet normal -0.999949 0 -0.010112
    outer loop
      vertex -0.936437 7.81964 0.599999
      vertex -0.970819 9.20534 4
      vertex -0.936437 9.18036 0.599999
    endloop
  endfacet
  facet normal -0.999949 -0 -0.010112
    outer loop
      vertex -0.970819 9.20534 4
      vertex -0.936437 7.81964 0.599999
      vertex -0.970819 7.79466 4
    endloop
  endfacet
  facet normal -0.309001 -0.951008 -0.0101122
    outer loop
      vertex 0.37082 7.35873 4
      vertex -0.735191 7.75425 0.599999
      vertex 0.357686 7.39915 0.599999
    endloop
  endfacet
  facet normal 0 0 1
    outer loop
      vertex 0.37082 9.64127 4
      vertex 0.37082 7.35873 4
      vertex 1.2 8.5 4
    endloop
  endfacet
  facet normal -0 0 1
    outer loop
      vertex -0.970819 9.20534 4
      vertex 0.37082 7.35873 4
      vertex 0.37082 9.64127 4
    endloop
  endfacet
  facet normal 0 0 1
    outer loop
      vertex 0.37082 7.35873 4
      vertex -0.970819 9.20534 4
      vertex -0.970819 7.79466 4
    endloop
  endfacet
  facet normal -0.309001 0.951008 -0.0101121
    outer loop
      vertex -0.735191 9.24575 0.599999
      vertex -0.970819 9.20534 4
      vertex 0.37082 9.64127 4
    endloop
  endfacet
  facet normal -0.309001 0.951008 -0.010112
    outer loop
      vertex -0.970819 9.20534 4
      vertex -0.735191 9.24575 0.599999
      vertex -0.936437 9.18036 0.599999
    endloop
  endfacet
  facet normal -0.309001 0.951008 -0.0101123
    outer loop
      vertex 0.357686 9.60085 0.599999
      vertex -0.735191 9.24575 0.599999
      vertex 0.37082 9.64127 4
    endloop
  endfacet
  facet normal 0 0 1
    outer loop
      vertex 2.25 8.5 0.599999
      vertex 1.03312 8.67119 0.599999
      vertex 1.1575 8.5 0.599999
    endloop
  endfacet
  facet normal 0 0 1
    outer loop
      vertex 1.59099 10.091 0.599999
      vertex 0.357686 9.60085 0.599999
      vertex 1.03312 8.67119 0.599999
    endloop
  endfacet
  facet normal 0 0 1
    outer loop
      vertex 2.75546e-16 10.75 0.599999
      vertex 0.357686 9.60085 0.599999
      vertex 1.59099 10.091 0.599999
    endloop
  endfacet
  facet normal 0 0 1
    outer loop
      vertex 2.75546e-16 10.75 0.599999
      vertex -0.735191 9.24575 0.599999
      vertex 0.357686 9.60085 0.599999
    endloop
  endfacet
  facet normal -0 0 1
    outer loop
      vertex -1.59099 10.091 0.599999
      vertex -0.735191 9.24575 0.599999
      vertex 2.75546e-16 10.75 0.599999
    endloop
  endfacet
  facet normal 0 0 1
    outer loop
      vertex -2.25 8.5 0.599999
      vertex -0.936437 9.18036 0.599999
      vertex -1.59099 10.091 0.599999
    endloop
  endfacet
  facet normal 0 0 1
    outer loop
      vertex -0.735191 9.24575 0.599999
      vertex -1.59099 10.091 0.599999
      vertex -0.936437 9.18036 0.599999
    endloop
  endfacet
  facet normal -0 0 1
    outer loop
      vertex 2.25 8.5 0.599999
      vertex 1.76777 6.73223 0.599999
      vertex 2.5 8.5 0.599999
    endloop
  endfacet
  facet normal -0 0 1
    outer loop
      vertex 1.03312 8.67119 0.599999
      vertex 2.25 8.5 0.599999
      vertex 1.59099 10.091 0.599999
    endloop
  endfacet
  facet normal 0 0 1
    outer loop
      vertex 1.03312 8.32881 0.599999
      vertex 2.25 8.5 0.599999
      vertex 1.1575 8.5 0.599999
    endloop
  endfacet
  facet normal 0 0 1
    outer loop
      vertex 2.25 8.5 0.599999
      vertex 1.03312 8.32881 0.599999
      vertex 1.76777 6.73223 0.599999
    endloop
  endfacet
  facet normal -0 0 1
    outer loop
      vertex 0.357686 7.39915 0.599999
      vertex 1.76777 6.73223 0.599999
      vertex 1.03312 8.32881 0.599999
    endloop
  endfacet
  facet normal 0 0 1
    outer loop
      vertex 0.357686 7.39915 0.599999
      vertex 0 6 0.599999
      vertex 1.76777 6.73223 0.599999
    endloop
  endfacet
  facet normal 0 0 1
    outer loop
      vertex -0.735191 7.75425 0.599999
      vertex 0 6 0.599999
      vertex 0.357686 7.39915 0.599999
    endloop
  endfacet
  facet normal 0 0 1
    outer loop
      vertex -1.76777 6.73223 0.599999
      vertex -0.735191 7.75425 0.599999
      vertex -0.936437 7.81964 0.599999
    endloop
  endfacet
  facet normal 0 0 1
    outer loop
      vertex -0.735191 7.75425 0.599999
      vertex -1.76777 6.73223 0.599999
      vertex 0 6 0.599999
    endloop
  endfacet
  facet normal 0 0 1
    outer loop
      vertex -0.936437 9.18036 0.599999
      vertex -2.25 8.5 0.599999
      vertex -0.936437 7.81964 0.599999
    endloop
  endfacet
  facet normal 0 0 1
    outer loop
      vertex -0.936437 7.81964 0.599999
      vertex -2.25 8.5 0.599999
      vertex -1.76777 6.73223 0.599999
    endloop
  endfacet
  facet normal 0 0 1
    outer loop
      vertex -1.76777 6.73223 0.599999
      vertex -2.25 8.5 0.599999
      vertex -2.5 8.5 0.599999
    endloop
  endfacet
  facet normal 0.92388 -0.382683 0
    outer loop
      vertex 1.76777 6.73223 0.599999
      vertex 2.5 8.5 0
      vertex 2.5 8.5 0.599999
    endloop
  endfacet
  facet normal 0.92388 -0.382683 0
    outer loop
      vertex 2.5 8.5 0
      vertex 1.76777 6.73223 0.599999
      vertex 1.76777 6.73223 0
    endloop
  endfacet
  facet normal -0.382683 -0.92388 0
    outer loop
      vertex -1.76777 6.73223 0
      vertex 0 6 0.599999
      vertex -1.76777 6.73223 0.599999
    endloop
  endfacet
  facet normal -0.382683 -0.92388 -0
    outer loop
      vertex 0 6 0.599999
      vertex -1.76777 6.73223 0
      vertex 0 6 0
    endloop
  endfacet
  facet normal -0.92388 -0.382683 0
    outer loop
      vertex -1.76777 6.73223 0
      vertex -2.5 8.5 0.599999
      vertex -2.5 8.5 0
    endloop
  endfacet
  facet normal -0.92388 -0.382683 0
    outer loop
      vertex -2.5 8.5 0.599999
      vertex -1.76777 6.73223 0
      vertex -1.76777 6.73223 0.599999
    endloop
  endfacet
  facet normal 0.382683 -0.92388 0
    outer loop
      vertex 0 6 0
      vertex 1.76777 6.73223 0.599999
      vertex 0 6 0.599999
    endloop
  endfacet
  facet normal 0.382683 -0.92388 0
    outer loop
      vertex 1.76777 6.73223 0.599999
      vertex 0 6 0
      vertex 1.76777 6.73223 0
    endloop
  endfacet
  facet normal 0 0 1
    outer loop
      vertex 18 8.5 3
      vertex 43 8.54589 3
      vertex 43 11.5 3
    endloop
  endfacet
  facet normal 0 0 1
    outer loop
      vertex 43 8.54589 3
      vertex 18 8.5 3
      vertex 43 8.5 3
    endloop
  endfacet
  facet normal 0 0 1
    outer loop
      vertex 18 8.5 3
      vertex 15 8.5 3
      vertex 18 -8.5 3
    endloop
  endfacet
  facet normal -0 0 1
    outer loop
      vertex 2.90724 11.5 3
      vertex 18 8.5 3
      vertex 43 11.5 3
    endloop
  endfacet
  facet normal 0 0 1
    outer loop
      vertex 18 8.5 3
      vertex 2.90724 11.5 3
      vertex 15 8.5 3
    endloop
  endfacet
  facet normal 0 0 1
    outer loop
      vertex 15 8.5 3
      vertex 3.82912 10.344 3
      vertex 4.25 8.5 3
    endloop
  endfacet
  facet normal 0 0 1
    outer loop
      vertex 15 8.5 3
      vertex 2.90724 11.5 3
      vertex 3.82912 10.344 3
    endloop
  endfacet
  facet normal -0 0 1
    outer loop
      vertex 18 -8.5 3
      vertex 43 -8.54589 3
      vertex 43 -8.5 3
    endloop
  endfacet
  facet normal 0 0 1
    outer loop
      vertex 43 -8.54589 3
      vertex 18 -8.5 3
      vertex 43 -11.5 3
    endloop
  endfacet
  facet normal 0 0 1
    outer loop
      vertex 15 -8.5 3
      vertex 18 -8.5 3
      vertex 15 8.5 3
    endloop
  endfacet
  facet normal 0 0 1
    outer loop
      vertex 2.90724 -11.5 3
      vertex 18 -8.5 3
      vertex 15 -8.5 3
    endloop
  endfacet
  facet normal 0 0 1
    outer loop
      vertex 3.82912 -10.344 3
      vertex 15 -8.5 3
      vertex 4.25 -8.5 3
    endloop
  endfacet
  facet normal 0 0 1
    outer loop
      vertex 2.90724 -11.5 3
      vertex 15 -8.5 3
      vertex 3.82912 -10.344 3
    endloop
  endfacet
  facet normal 0 0 1
    outer loop
      vertex 18 -8.5 3
      vertex 2.90724 -11.5 3
      vertex 43 -11.5 3
    endloop
  endfacet
  facet normal 0 -1 0
    outer loop
      vertex 18 8.5 0
      vertex 43 8.5 3
      vertex 18 8.5 3
    endloop
  endfacet
  facet normal 0 -1 -0
    outer loop
      vertex 43 8.5 3
      vertex 18 8.5 0
      vertex 43 8.5 0
    endloop
  endfacet
  facet normal 0 -1 0
    outer loop
      vertex 4.25 8.5 0
      vertex 15 8.5 3
      vertex 4.25 8.5 3
    endloop
  endfacet
  facet normal 0 -1 -0
    outer loop
      vertex 15 8.5 3
      vertex 4.25 8.5 0
      vertex 15 8.5 0
    endloop
  endfacet
  facet normal 0 1 -0
    outer loop
      vertex 43 11.5 0.111534
      vertex 2.90724 11.5 3
      vertex 43 11.5 3
    endloop
  endfacet
  facet normal 0 1 0
    outer loop
      vertex 2.90724 11.5 0
      vertex 43 11.5 0.111534
      vertex 43 11.5 0
    endloop
  endfacet
  facet normal 0 1 0
    outer loop
      vertex 43 11.5 0.111534
      vertex 2.90724 11.5 0
      vertex 2.90724 11.5 3
    endloop
  endfacet
  facet normal -0.309001 -0.951008 -0.010112
    outer loop
      vertex -0.735191 -9.24575 0.599999
      vertex -0.970819 -9.20534 4
      vertex -0.936437 -9.18036 0.599999
    endloop
  endfacet
  facet normal -0.309001 -0.951008 -0.0101121
    outer loop
      vertex -0.970819 -9.20534 4
      vertex -0.735191 -9.24575 0.599999
      vertex 0.37082 -9.64127 4
    endloop
  endfacet
  facet normal 0.808976 0.587755 -0.0101122
    outer loop
      vertex 1.2 -8.5 4
      vertex 1.03312 -8.32881 0.599999
      vertex 0.37082 -7.35873 4
    endloop
  endfacet
  facet normal 0.808976 0.587755 -0.0101122
    outer loop
      vertex 1.03312 -8.32881 0.599999
      vertex 1.2 -8.5 4
      vertex 1.1575 -8.5 0.599999
    endloop
  endfacet
  facet normal 0.808976 0.587755 -0.0101123
    outer loop
      vertex 1.03312 -8.32881 0.599999
      vertex 0.357686 -7.39915 0.599999
      vertex 0.37082 -7.35873 4
    endloop
  endfacet
  facet normal 0.808975 -0.587756 -0.0101124
    outer loop
      vertex 0.37082 -9.64127 4
      vertex 0.357686 -9.60085 0.599999
      vertex 1.03312 -8.67119 0.599999
    endloop
  endfacet
  facet normal 0.808976 -0.587755 -0.0101122
    outer loop
      vertex 1.2 -8.5 4
      vertex 1.03312 -8.67119 0.599999
      vertex 1.1575 -8.5 0.599999
    endloop
  endfacet
  facet normal 0.808976 -0.587755 -0.0101122
    outer loop
      vertex 1.03312 -8.67119 0.599999
      vertex 1.2 -8.5 4
      vertex 0.37082 -9.64127 4
    endloop
  endfacet
  facet normal -0.999949 0 -0.010112
    outer loop
      vertex -0.936437 -9.18036 0.599999
      vertex -0.970819 -7.79466 4
      vertex -0.936437 -7.81964 0.599999
    endloop
  endfacet
  facet normal -0.999949 -0 -0.010112
    outer loop
      vertex -0.970819 -7.79466 4
      vertex -0.936437 -9.18036 0.599999
      vertex -0.970819 -9.20534 4
    endloop
  endfacet
  facet normal -0.309001 -0.951008 -0.0101123
    outer loop
      vertex 0.37082 -9.64127 4
      vertex -0.735191 -9.24575 0.599999
      vertex 0.357686 -9.60085 0.599999
    endloop
  endfacet
  facet normal 0 0 1
    outer loop
      vertex 0.37082 -7.35873 4
      vertex 0.37082 -9.64127 4
      vertex 1.2 -8.5 4
    endloop
  endfacet
  facet normal -0 0 1
    outer loop
      vertex -0.970819 -7.79466 4
      vertex 0.37082 -9.64127 4
      vertex 0.37082 -7.35873 4
    endloop
  endfacet
  facet normal 0 0 1
    outer loop
      vertex 0.37082 -9.64127 4
      vertex -0.970819 -7.79466 4
      vertex -0.970819 -9.20534 4
    endloop
  endfacet
  facet normal -0.309001 0.951008 -0.0101122
    outer loop
      vertex -0.735191 -7.75425 0.599999
      vertex -0.970819 -7.79466 4
      vertex 0.37082 -7.35873 4
    endloop
  endfacet
  facet normal -0.309001 0.951008 -0.0101122
    outer loop
      vertex -0.970819 -7.79466 4
      vertex -0.735191 -7.75425 0.599999
      vertex -0.936437 -7.81964 0.599999
    endloop
  endfacet
  facet normal -0.309001 0.951008 -0.0101122
    outer loop
      vertex 0.357686 -7.39915 0.599999
      vertex -0.735191 -7.75425 0.599999
      vertex 0.37082 -7.35873 4
    endloop
  endfacet
  facet normal 0.92388 0.382683 0
    outer loop
      vertex 2.5 -8.5 0.599999
      vertex 1.76777 -6.73223 0
      vertex 1.76777 -6.73223 0.599999
    endloop
  endfacet
  facet normal 0.92388 0.382683 0
    outer loop
      vertex 1.76777 -6.73223 0
      vertex 2.5 -8.5 0.599999
      vertex 2.5 -8.5 0
    endloop
  endfacet
  facet normal -0.92388 0.382683 0
    outer loop
      vertex -2.5 -8.5 0
      vertex -1.76777 -6.73223 0.599999
      vertex -1.76777 -6.73223 0
    endloop
  endfacet
  facet normal -0.92388 0.382683 0
    outer loop
      vertex -1.76777 -6.73223 0.599999
      vertex -2.5 -8.5 0
      vertex -2.5 -8.5 0.599999
    endloop
  endfacet
  facet normal -0.382683 0.92388 0
    outer loop
      vertex 0 -6 0
      vertex -1.76777 -6.73223 0.599999
      vertex 0 -6 0.599999
    endloop
  endfacet
  facet normal -0.382683 0.92388 0
    outer loop
      vertex -1.76777 -6.73223 0.599999
      vertex 0 -6 0
      vertex -1.76777 -6.73223 0
    endloop
  endfacet
  facet normal 0.382683 0.92388 -0
    outer loop
      vertex 1.76777 -6.73223 0
      vertex 0 -6 0.599999
      vertex 1.76777 -6.73223 0.599999
    endloop
  endfacet
  facet normal 0.382683 0.92388 0
    outer loop
      vertex 0 -6 0.599999
      vertex 1.76777 -6.73223 0
      vertex 0 -6 0
    endloop
  endfacet
  facet normal 0 0 1
    outer loop
      vertex 1.76777 -6.73223 0.599999
      vertex 2.3 -8.5 0.599999
      vertex 2.5 -8.5 0.599999
    endloop
  endfacet
  facet normal 0 0 1
    outer loop
      vertex 2.3 -8.5 0.599999
      vertex 1.76777 -6.73223 0.599999
      vertex 2.25 -8.5 0.599999
    endloop
  endfacet
  facet normal -0 0 1
    outer loop
      vertex 1.03312 -8.32881 0.599999
      vertex 2.25 -8.5 0.599999
      vertex 1.76777 -6.73223 0.599999
    endloop
  endfacet
  facet normal 0 0 1
    outer loop
      vertex 1.03312 -8.67119 0.599999
      vertex 2.25 -8.5 0.599999
      vertex 1.1575 -8.5 0.599999
    endloop
  endfacet
  facet normal 0 0 1
    outer loop
      vertex 2.25 -8.5 0.599999
      vertex 1.03312 -8.32881 0.599999
      vertex 1.1575 -8.5 0.599999
    endloop
  endfacet
  facet normal 0 0 1
    outer loop
      vertex 1.76777 -6.73223 0.599999
      vertex 0.357686 -7.39915 0.599999
      vertex 1.03312 -8.32881 0.599999
    endloop
  endfacet
  facet normal 0 0 1
    outer loop
      vertex 0 -6 0.599999
      vertex 0.357686 -7.39915 0.599999
      vertex 1.76777 -6.73223 0.599999
    endloop
  endfacet
  facet normal 0 0 1
    outer loop
      vertex 0 -6 0.599999
      vertex -0.735191 -7.75425 0.599999
      vertex 0.357686 -7.39915 0.599999
    endloop
  endfacet
  facet normal -0 0 1
    outer loop
      vertex -1.76777 -6.73223 0.599999
      vertex -0.735191 -7.75425 0.599999
      vertex 0 -6 0.599999
    endloop
  endfacet
  facet normal -0 0 1
    outer loop
      vertex -2.25 -8.5 0.599999
      vertex -0.936437 -9.18036 0.599999
      vertex -0.936437 -7.81964 0.599999
    endloop
  endfacet
  facet normal 0 0 1
    outer loop
      vertex -0.735191 -7.75425 0.599999
      vertex -1.76777 -6.73223 0.599999
      vertex -0.936437 -7.81964 0.599999
    endloop
  endfacet
  facet normal 0 0 1
    outer loop
      vertex -2.25 -8.5 0.599999
      vertex -0.936437 -7.81964 0.599999
      vertex -1.76777 -6.73223 0.599999
    endloop
  endfacet
  facet normal 0 0 1
    outer loop
      vertex -0.936437 -9.18036 0.599999
      vertex -2.25 -8.5 0.599999
      vertex -1.59099 -10.091 0.599999
    endloop
  endfacet
  facet normal 0 -0 1
    outer loop
      vertex -2.25 -8.5 0.599999
      vertex -1.76777 -6.73223 0.599999
      vertex -2.5 -8.5 0.599999
    endloop
  endfacet
  facet normal 0 0 1
    outer loop
      vertex 2.25 -8.5 0.599999
      vertex 1.03312 -8.67119 0.599999
      vertex 1.59099 -10.091 0.599999
    endloop
  endfacet
  facet normal -0 0 1
    outer loop
      vertex 0.357686 -9.60085 0.599999
      vertex 1.59099 -10.091 0.599999
      vertex 1.03312 -8.67119 0.599999
    endloop
  endfacet
  facet normal 0 0 1
    outer loop
      vertex 0.357686 -9.60085 0.599999
      vertex 0 -10.75 0.599999
      vertex 1.59099 -10.091 0.599999
    endloop
  endfacet
  facet normal 0 0 1
    outer loop
      vertex -0.735191 -9.24575 0.599999
      vertex 0 -10.75 0.599999
      vertex 0.357686 -9.60085 0.599999
    endloop
  endfacet
  facet normal 0 0 1
    outer loop
      vertex -1.59099 -10.091 0.599999
      vertex -0.735191 -9.24575 0.599999
      vertex -0.936437 -9.18036 0.599999
    endloop
  endfacet
  facet normal 0 0 1
    outer loop
      vertex -0.735191 -9.24575 0.599999
      vertex -1.59099 -10.091 0.599999
      vertex 0 -10.75 0.599999
    endloop
  endfacet
  facet normal 0 -1 0
    outer loop
      vertex 2.90724 -11.5 3
      vertex 43 -11.5 0.111534
      vertex 43 -11.5 3
    endloop
  endfacet
  facet normal 0 -1 0
    outer loop
      vertex 2.90724 -11.5 0
      vertex 43 -11.5 0.111534
      vertex 2.90724 -11.5 3
    endloop
  endfacet
  facet normal 0 -1 -0
    outer loop
      vertex 43 -11.5 0.111534
      vertex 2.90724 -11.5 0
      vertex 43 -11.5 0
    endloop
  endfacet
  facet normal -1 0 0
    outer loop
      vertex 15 -8.5 0
      vertex 15 8.5 3
      vertex 15 8.5 0
    endloop
  endfacet
  facet normal -1 -0 0
    outer loop
      vertex 15 8.5 3
      vertex 15 -8.5 0
      vertex 15 -8.5 3
    endloop
  endfacet
  facet normal 1 -0 0
    outer loop
      vertex 18 -8.5 3
      vertex 18 8.5 0
      vertex 18 8.5 3
    endloop
  endfacet
  facet normal 1 0 0
    outer loop
      vertex 18 8.5 0
      vertex 18 -8.5 3
      vertex 18 -8.5 0
    endloop
  endfacet
endsolid OpenSCAD_Model
